G04 EAGLE Gerber RS-274X export*
G75*
%MOMM*%
%FSLAX34Y34*%
%LPD*%
%INSilkscreen Bottom*%
%IPPOS*%
%AMOC8*
5,1,8,0,0,1.08239X$1,22.5*%
G01*
%ADD10C,0.304800*%
%ADD11C,0.152400*%

G36*
X473522Y306480D02*
X473522Y306480D01*
X473552Y306478D01*
X473695Y306499D01*
X473839Y306515D01*
X473867Y306525D01*
X473897Y306529D01*
X474031Y306583D01*
X474167Y306631D01*
X474193Y306647D01*
X474221Y306658D01*
X474339Y306740D01*
X474461Y306818D01*
X474482Y306840D01*
X474507Y306857D01*
X474604Y306964D01*
X474705Y307068D01*
X474720Y307093D01*
X474740Y307116D01*
X474810Y307243D01*
X474885Y307366D01*
X474894Y307394D01*
X474909Y307421D01*
X474948Y307560D01*
X474993Y307697D01*
X474995Y307727D01*
X475004Y307756D01*
X475023Y308000D01*
X475023Y333400D01*
X475020Y333430D01*
X475022Y333460D01*
X475000Y333603D01*
X474983Y333746D01*
X474973Y333775D01*
X474969Y333804D01*
X474915Y333938D01*
X474866Y334074D01*
X474850Y334100D01*
X474838Y334128D01*
X474755Y334246D01*
X474677Y334367D01*
X474655Y334388D01*
X474638Y334413D01*
X474530Y334509D01*
X474426Y334609D01*
X474400Y334625D01*
X474378Y334645D01*
X474251Y334714D01*
X474127Y334788D01*
X474098Y334797D01*
X474072Y334812D01*
X473933Y334850D01*
X473795Y334894D01*
X473765Y334897D01*
X473736Y334905D01*
X473592Y334911D01*
X473448Y334922D01*
X473418Y334918D01*
X473388Y334919D01*
X473246Y334892D01*
X473103Y334871D01*
X473075Y334860D01*
X473046Y334854D01*
X472819Y334762D01*
X447419Y322062D01*
X447279Y321971D01*
X447139Y321882D01*
X447133Y321876D01*
X447127Y321872D01*
X447011Y321751D01*
X446895Y321632D01*
X446891Y321626D01*
X446886Y321620D01*
X446801Y321476D01*
X446715Y321334D01*
X446713Y321327D01*
X446709Y321320D01*
X446659Y321161D01*
X446607Y321003D01*
X446606Y320995D01*
X446604Y320988D01*
X446592Y320822D01*
X446577Y320656D01*
X446579Y320648D01*
X446578Y320640D01*
X446604Y320475D01*
X446627Y320311D01*
X446630Y320303D01*
X446631Y320296D01*
X446694Y320140D01*
X446754Y319986D01*
X446759Y319980D01*
X446762Y319973D01*
X446857Y319836D01*
X446952Y319699D01*
X446958Y319694D01*
X446962Y319687D01*
X447086Y319577D01*
X447210Y319464D01*
X447217Y319459D01*
X447222Y319455D01*
X447245Y319443D01*
X447419Y319338D01*
X472819Y306638D01*
X472847Y306627D01*
X472873Y306612D01*
X473010Y306568D01*
X473146Y306518D01*
X473176Y306515D01*
X473205Y306506D01*
X473349Y306494D01*
X473492Y306477D01*
X473522Y306480D01*
G37*
D10*
X359802Y212750D02*
X359802Y238150D01*
X359802Y657250D02*
X445400Y657250D01*
X445400Y212750D02*
X359802Y212750D01*
X359802Y238150D02*
X399680Y238150D01*
X359802Y238150D02*
X359802Y284886D01*
X415428Y261518D02*
X399680Y238150D01*
X415428Y261518D02*
X399680Y284886D01*
X359802Y284886D01*
X359802Y585114D01*
X399426Y585114D01*
X415428Y608482D01*
X399426Y631850D01*
X359802Y631850D01*
X359802Y585114D01*
X359802Y631850D02*
X359802Y657250D01*
X529982Y241452D02*
X445400Y212750D01*
X529982Y628548D02*
X445400Y657250D01*
X529982Y282600D02*
X529982Y241452D01*
X529982Y282600D02*
X508900Y282600D01*
X432700Y409600D02*
X432700Y460400D01*
X432700Y409600D02*
X486802Y409600D01*
X486040Y409600D02*
X486347Y409596D01*
X486654Y409585D01*
X486960Y409567D01*
X487266Y409541D01*
X487571Y409507D01*
X487875Y409467D01*
X488178Y409419D01*
X488480Y409363D01*
X488780Y409301D01*
X489079Y409231D01*
X489376Y409154D01*
X489672Y409070D01*
X489965Y408978D01*
X490255Y408880D01*
X490543Y408775D01*
X490829Y408662D01*
X491112Y408543D01*
X491392Y408417D01*
X491669Y408285D01*
X491942Y408145D01*
X492212Y407999D01*
X492478Y407847D01*
X492741Y407688D01*
X493000Y407523D01*
X493254Y407352D01*
X493505Y407175D01*
X493751Y406991D01*
X493993Y406802D01*
X494229Y406607D01*
X494462Y406406D01*
X494689Y406200D01*
X494911Y405988D01*
X495128Y405771D01*
X495340Y405549D01*
X495546Y405322D01*
X495747Y405089D01*
X495942Y404853D01*
X496131Y404611D01*
X496315Y404365D01*
X496492Y404114D01*
X496663Y403860D01*
X496828Y403601D01*
X496987Y403338D01*
X497139Y403072D01*
X497285Y402802D01*
X497425Y402529D01*
X497557Y402252D01*
X497683Y401972D01*
X497802Y401689D01*
X497915Y401403D01*
X498020Y401115D01*
X498118Y400825D01*
X498210Y400532D01*
X498294Y400236D01*
X498371Y399939D01*
X498441Y399640D01*
X498503Y399340D01*
X498559Y399038D01*
X498607Y398735D01*
X498647Y398431D01*
X498681Y398126D01*
X498707Y397820D01*
X498725Y397514D01*
X498736Y397207D01*
X498740Y396900D01*
X498740Y292760D02*
X498743Y292514D01*
X498752Y292269D01*
X498767Y292024D01*
X498787Y291779D01*
X498814Y291535D01*
X498847Y291292D01*
X498885Y291049D01*
X498929Y290808D01*
X498979Y290568D01*
X499035Y290329D01*
X499097Y290091D01*
X499164Y289855D01*
X499237Y289620D01*
X499316Y289388D01*
X499400Y289157D01*
X499490Y288929D01*
X499585Y288702D01*
X499686Y288479D01*
X499792Y288257D01*
X499904Y288038D01*
X500020Y287822D01*
X500142Y287609D01*
X500269Y287399D01*
X500401Y287192D01*
X500538Y286988D01*
X500680Y286788D01*
X500827Y286591D01*
X500979Y286398D01*
X501135Y286208D01*
X501295Y286023D01*
X501460Y285841D01*
X501630Y285663D01*
X501803Y285490D01*
X501981Y285320D01*
X502163Y285155D01*
X502348Y284995D01*
X502538Y284839D01*
X502731Y284687D01*
X502928Y284540D01*
X503128Y284398D01*
X503332Y284261D01*
X503539Y284129D01*
X503749Y284002D01*
X503962Y283880D01*
X504178Y283764D01*
X504397Y283652D01*
X504619Y283546D01*
X504842Y283445D01*
X505069Y283350D01*
X505297Y283260D01*
X505528Y283176D01*
X505760Y283097D01*
X505995Y283024D01*
X506231Y282957D01*
X506469Y282895D01*
X506708Y282839D01*
X506948Y282789D01*
X507189Y282745D01*
X507432Y282707D01*
X507675Y282674D01*
X507919Y282647D01*
X508164Y282627D01*
X508409Y282612D01*
X508654Y282603D01*
X508900Y282600D01*
X486802Y460400D02*
X432700Y460400D01*
X486040Y460400D02*
X486347Y460404D01*
X486654Y460415D01*
X486960Y460433D01*
X487266Y460459D01*
X487571Y460493D01*
X487875Y460533D01*
X488178Y460581D01*
X488480Y460637D01*
X488780Y460699D01*
X489079Y460769D01*
X489376Y460846D01*
X489672Y460930D01*
X489965Y461022D01*
X490255Y461120D01*
X490543Y461225D01*
X490829Y461338D01*
X491112Y461457D01*
X491392Y461583D01*
X491669Y461715D01*
X491942Y461855D01*
X492212Y462001D01*
X492478Y462153D01*
X492741Y462312D01*
X493000Y462477D01*
X493254Y462648D01*
X493505Y462825D01*
X493751Y463009D01*
X493993Y463198D01*
X494229Y463393D01*
X494462Y463594D01*
X494689Y463800D01*
X494911Y464012D01*
X495128Y464229D01*
X495340Y464451D01*
X495546Y464678D01*
X495747Y464911D01*
X495942Y465147D01*
X496131Y465389D01*
X496315Y465635D01*
X496492Y465886D01*
X496663Y466140D01*
X496828Y466399D01*
X496987Y466662D01*
X497139Y466928D01*
X497285Y467198D01*
X497425Y467471D01*
X497557Y467748D01*
X497683Y468028D01*
X497802Y468311D01*
X497915Y468597D01*
X498020Y468885D01*
X498118Y469175D01*
X498210Y469468D01*
X498294Y469764D01*
X498371Y470061D01*
X498441Y470360D01*
X498503Y470660D01*
X498559Y470962D01*
X498607Y471265D01*
X498647Y471569D01*
X498681Y471874D01*
X498707Y472180D01*
X498725Y472486D01*
X498736Y472793D01*
X498740Y473100D01*
D11*
X458100Y282600D02*
X432700Y282600D01*
X470800Y282600D02*
X496200Y282600D01*
X432700Y282600D02*
X432700Y308000D01*
X432700Y333400D02*
X432700Y358800D01*
D10*
X529982Y587400D02*
X529982Y628548D01*
X498740Y577240D02*
X498740Y292760D01*
X508900Y587400D02*
X529982Y587400D01*
X508900Y587400D02*
X508654Y587397D01*
X508409Y587388D01*
X508164Y587373D01*
X507919Y587353D01*
X507675Y587326D01*
X507432Y587293D01*
X507189Y587255D01*
X506948Y587211D01*
X506708Y587161D01*
X506469Y587105D01*
X506231Y587043D01*
X505995Y586976D01*
X505760Y586903D01*
X505528Y586824D01*
X505297Y586740D01*
X505069Y586650D01*
X504842Y586555D01*
X504619Y586454D01*
X504397Y586348D01*
X504178Y586236D01*
X503962Y586120D01*
X503749Y585998D01*
X503539Y585871D01*
X503332Y585739D01*
X503128Y585602D01*
X502928Y585460D01*
X502731Y585313D01*
X502538Y585161D01*
X502348Y585005D01*
X502163Y584845D01*
X501981Y584680D01*
X501803Y584510D01*
X501630Y584337D01*
X501460Y584159D01*
X501295Y583977D01*
X501135Y583792D01*
X500979Y583602D01*
X500827Y583409D01*
X500680Y583212D01*
X500538Y583012D01*
X500401Y582808D01*
X500269Y582601D01*
X500142Y582391D01*
X500020Y582178D01*
X499904Y581962D01*
X499792Y581743D01*
X499686Y581521D01*
X499585Y581298D01*
X499490Y581071D01*
X499400Y580843D01*
X499316Y580612D01*
X499237Y580380D01*
X499164Y580145D01*
X499097Y579909D01*
X499035Y579671D01*
X498979Y579432D01*
X498929Y579192D01*
X498885Y578951D01*
X498847Y578708D01*
X498814Y578465D01*
X498787Y578221D01*
X498767Y577976D01*
X498752Y577731D01*
X498743Y577486D01*
X498740Y577240D01*
D11*
X432700Y460400D02*
X432700Y435000D01*
X432700Y587400D02*
X458100Y587400D01*
X470800Y587400D02*
X496200Y587400D01*
X432700Y587400D02*
X432700Y562000D01*
X432700Y536600D02*
X432700Y511200D01*
X448702Y254152D02*
X448705Y254383D01*
X448713Y254613D01*
X448727Y254843D01*
X448747Y255073D01*
X448773Y255302D01*
X448804Y255531D01*
X448840Y255759D01*
X448883Y255985D01*
X448930Y256211D01*
X448984Y256436D01*
X449042Y256659D01*
X449107Y256880D01*
X449176Y257100D01*
X449251Y257318D01*
X449332Y257534D01*
X449417Y257748D01*
X449508Y257960D01*
X449604Y258170D01*
X449705Y258377D01*
X449812Y258582D01*
X449923Y258784D01*
X450039Y258984D01*
X450160Y259180D01*
X450286Y259373D01*
X450416Y259563D01*
X450551Y259750D01*
X450691Y259934D01*
X450835Y260114D01*
X450984Y260291D01*
X451137Y260463D01*
X451294Y260632D01*
X451455Y260797D01*
X451620Y260958D01*
X451789Y261115D01*
X451961Y261268D01*
X452138Y261417D01*
X452318Y261561D01*
X452502Y261701D01*
X452689Y261836D01*
X452879Y261966D01*
X453072Y262092D01*
X453268Y262213D01*
X453468Y262329D01*
X453670Y262440D01*
X453875Y262547D01*
X454082Y262648D01*
X454292Y262744D01*
X454504Y262835D01*
X454718Y262920D01*
X454934Y263001D01*
X455152Y263076D01*
X455372Y263145D01*
X455593Y263210D01*
X455816Y263268D01*
X456041Y263322D01*
X456267Y263369D01*
X456493Y263412D01*
X456721Y263448D01*
X456950Y263479D01*
X457179Y263505D01*
X457409Y263525D01*
X457639Y263539D01*
X457869Y263547D01*
X458100Y263550D01*
X458331Y263547D01*
X458561Y263539D01*
X458791Y263525D01*
X459021Y263505D01*
X459250Y263479D01*
X459479Y263448D01*
X459707Y263412D01*
X459933Y263369D01*
X460159Y263322D01*
X460384Y263268D01*
X460607Y263210D01*
X460828Y263145D01*
X461048Y263076D01*
X461266Y263001D01*
X461482Y262920D01*
X461696Y262835D01*
X461908Y262744D01*
X462118Y262648D01*
X462325Y262547D01*
X462530Y262440D01*
X462732Y262329D01*
X462932Y262213D01*
X463128Y262092D01*
X463321Y261966D01*
X463511Y261836D01*
X463698Y261701D01*
X463882Y261561D01*
X464062Y261417D01*
X464239Y261268D01*
X464411Y261115D01*
X464580Y260958D01*
X464745Y260797D01*
X464906Y260632D01*
X465063Y260463D01*
X465216Y260291D01*
X465365Y260114D01*
X465509Y259934D01*
X465649Y259750D01*
X465784Y259563D01*
X465914Y259373D01*
X466040Y259180D01*
X466161Y258984D01*
X466277Y258784D01*
X466388Y258582D01*
X466495Y258377D01*
X466596Y258170D01*
X466692Y257960D01*
X466783Y257748D01*
X466868Y257534D01*
X466949Y257318D01*
X467024Y257100D01*
X467093Y256880D01*
X467158Y256659D01*
X467216Y256436D01*
X467270Y256211D01*
X467317Y255985D01*
X467360Y255759D01*
X467396Y255531D01*
X467427Y255302D01*
X467453Y255073D01*
X467473Y254843D01*
X467487Y254613D01*
X467495Y254383D01*
X467498Y254152D01*
X467495Y253921D01*
X467487Y253691D01*
X467473Y253461D01*
X467453Y253231D01*
X467427Y253002D01*
X467396Y252773D01*
X467360Y252545D01*
X467317Y252319D01*
X467270Y252093D01*
X467216Y251868D01*
X467158Y251645D01*
X467093Y251424D01*
X467024Y251204D01*
X466949Y250986D01*
X466868Y250770D01*
X466783Y250556D01*
X466692Y250344D01*
X466596Y250134D01*
X466495Y249927D01*
X466388Y249722D01*
X466277Y249520D01*
X466161Y249320D01*
X466040Y249124D01*
X465914Y248931D01*
X465784Y248741D01*
X465649Y248554D01*
X465509Y248370D01*
X465365Y248190D01*
X465216Y248013D01*
X465063Y247841D01*
X464906Y247672D01*
X464745Y247507D01*
X464580Y247346D01*
X464411Y247189D01*
X464239Y247036D01*
X464062Y246887D01*
X463882Y246743D01*
X463698Y246603D01*
X463511Y246468D01*
X463321Y246338D01*
X463128Y246212D01*
X462932Y246091D01*
X462732Y245975D01*
X462530Y245864D01*
X462325Y245757D01*
X462118Y245656D01*
X461908Y245560D01*
X461696Y245469D01*
X461482Y245384D01*
X461266Y245303D01*
X461048Y245228D01*
X460828Y245159D01*
X460607Y245094D01*
X460384Y245036D01*
X460159Y244982D01*
X459933Y244935D01*
X459707Y244892D01*
X459479Y244856D01*
X459250Y244825D01*
X459021Y244799D01*
X458791Y244779D01*
X458561Y244765D01*
X458331Y244757D01*
X458100Y244754D01*
X457869Y244757D01*
X457639Y244765D01*
X457409Y244779D01*
X457179Y244799D01*
X456950Y244825D01*
X456721Y244856D01*
X456493Y244892D01*
X456267Y244935D01*
X456041Y244982D01*
X455816Y245036D01*
X455593Y245094D01*
X455372Y245159D01*
X455152Y245228D01*
X454934Y245303D01*
X454718Y245384D01*
X454504Y245469D01*
X454292Y245560D01*
X454082Y245656D01*
X453875Y245757D01*
X453670Y245864D01*
X453468Y245975D01*
X453268Y246091D01*
X453072Y246212D01*
X452879Y246338D01*
X452689Y246468D01*
X452502Y246603D01*
X452318Y246743D01*
X452138Y246887D01*
X451961Y247036D01*
X451789Y247189D01*
X451620Y247346D01*
X451455Y247507D01*
X451294Y247672D01*
X451137Y247841D01*
X450984Y248013D01*
X450835Y248190D01*
X450691Y248370D01*
X450551Y248554D01*
X450416Y248741D01*
X450286Y248931D01*
X450160Y249124D01*
X450039Y249320D01*
X449923Y249520D01*
X449812Y249722D01*
X449705Y249927D01*
X449604Y250134D01*
X449508Y250344D01*
X449417Y250556D01*
X449332Y250770D01*
X449251Y250986D01*
X449176Y251204D01*
X449107Y251424D01*
X449042Y251645D01*
X448984Y251868D01*
X448930Y252093D01*
X448883Y252319D01*
X448840Y252545D01*
X448804Y252773D01*
X448773Y253002D01*
X448747Y253231D01*
X448727Y253461D01*
X448713Y253691D01*
X448705Y253921D01*
X448702Y254152D01*
X448702Y615848D02*
X448705Y616079D01*
X448713Y616309D01*
X448727Y616539D01*
X448747Y616769D01*
X448773Y616998D01*
X448804Y617227D01*
X448840Y617455D01*
X448883Y617681D01*
X448930Y617907D01*
X448984Y618132D01*
X449042Y618355D01*
X449107Y618576D01*
X449176Y618796D01*
X449251Y619014D01*
X449332Y619230D01*
X449417Y619444D01*
X449508Y619656D01*
X449604Y619866D01*
X449705Y620073D01*
X449812Y620278D01*
X449923Y620480D01*
X450039Y620680D01*
X450160Y620876D01*
X450286Y621069D01*
X450416Y621259D01*
X450551Y621446D01*
X450691Y621630D01*
X450835Y621810D01*
X450984Y621987D01*
X451137Y622159D01*
X451294Y622328D01*
X451455Y622493D01*
X451620Y622654D01*
X451789Y622811D01*
X451961Y622964D01*
X452138Y623113D01*
X452318Y623257D01*
X452502Y623397D01*
X452689Y623532D01*
X452879Y623662D01*
X453072Y623788D01*
X453268Y623909D01*
X453468Y624025D01*
X453670Y624136D01*
X453875Y624243D01*
X454082Y624344D01*
X454292Y624440D01*
X454504Y624531D01*
X454718Y624616D01*
X454934Y624697D01*
X455152Y624772D01*
X455372Y624841D01*
X455593Y624906D01*
X455816Y624964D01*
X456041Y625018D01*
X456267Y625065D01*
X456493Y625108D01*
X456721Y625144D01*
X456950Y625175D01*
X457179Y625201D01*
X457409Y625221D01*
X457639Y625235D01*
X457869Y625243D01*
X458100Y625246D01*
X458331Y625243D01*
X458561Y625235D01*
X458791Y625221D01*
X459021Y625201D01*
X459250Y625175D01*
X459479Y625144D01*
X459707Y625108D01*
X459933Y625065D01*
X460159Y625018D01*
X460384Y624964D01*
X460607Y624906D01*
X460828Y624841D01*
X461048Y624772D01*
X461266Y624697D01*
X461482Y624616D01*
X461696Y624531D01*
X461908Y624440D01*
X462118Y624344D01*
X462325Y624243D01*
X462530Y624136D01*
X462732Y624025D01*
X462932Y623909D01*
X463128Y623788D01*
X463321Y623662D01*
X463511Y623532D01*
X463698Y623397D01*
X463882Y623257D01*
X464062Y623113D01*
X464239Y622964D01*
X464411Y622811D01*
X464580Y622654D01*
X464745Y622493D01*
X464906Y622328D01*
X465063Y622159D01*
X465216Y621987D01*
X465365Y621810D01*
X465509Y621630D01*
X465649Y621446D01*
X465784Y621259D01*
X465914Y621069D01*
X466040Y620876D01*
X466161Y620680D01*
X466277Y620480D01*
X466388Y620278D01*
X466495Y620073D01*
X466596Y619866D01*
X466692Y619656D01*
X466783Y619444D01*
X466868Y619230D01*
X466949Y619014D01*
X467024Y618796D01*
X467093Y618576D01*
X467158Y618355D01*
X467216Y618132D01*
X467270Y617907D01*
X467317Y617681D01*
X467360Y617455D01*
X467396Y617227D01*
X467427Y616998D01*
X467453Y616769D01*
X467473Y616539D01*
X467487Y616309D01*
X467495Y616079D01*
X467498Y615848D01*
X467495Y615617D01*
X467487Y615387D01*
X467473Y615157D01*
X467453Y614927D01*
X467427Y614698D01*
X467396Y614469D01*
X467360Y614241D01*
X467317Y614015D01*
X467270Y613789D01*
X467216Y613564D01*
X467158Y613341D01*
X467093Y613120D01*
X467024Y612900D01*
X466949Y612682D01*
X466868Y612466D01*
X466783Y612252D01*
X466692Y612040D01*
X466596Y611830D01*
X466495Y611623D01*
X466388Y611418D01*
X466277Y611216D01*
X466161Y611016D01*
X466040Y610820D01*
X465914Y610627D01*
X465784Y610437D01*
X465649Y610250D01*
X465509Y610066D01*
X465365Y609886D01*
X465216Y609709D01*
X465063Y609537D01*
X464906Y609368D01*
X464745Y609203D01*
X464580Y609042D01*
X464411Y608885D01*
X464239Y608732D01*
X464062Y608583D01*
X463882Y608439D01*
X463698Y608299D01*
X463511Y608164D01*
X463321Y608034D01*
X463128Y607908D01*
X462932Y607787D01*
X462732Y607671D01*
X462530Y607560D01*
X462325Y607453D01*
X462118Y607352D01*
X461908Y607256D01*
X461696Y607165D01*
X461482Y607080D01*
X461266Y606999D01*
X461048Y606924D01*
X460828Y606855D01*
X460607Y606790D01*
X460384Y606732D01*
X460159Y606678D01*
X459933Y606631D01*
X459707Y606588D01*
X459479Y606552D01*
X459250Y606521D01*
X459021Y606495D01*
X458791Y606475D01*
X458561Y606461D01*
X458331Y606453D01*
X458100Y606450D01*
X457869Y606453D01*
X457639Y606461D01*
X457409Y606475D01*
X457179Y606495D01*
X456950Y606521D01*
X456721Y606552D01*
X456493Y606588D01*
X456267Y606631D01*
X456041Y606678D01*
X455816Y606732D01*
X455593Y606790D01*
X455372Y606855D01*
X455152Y606924D01*
X454934Y606999D01*
X454718Y607080D01*
X454504Y607165D01*
X454292Y607256D01*
X454082Y607352D01*
X453875Y607453D01*
X453670Y607560D01*
X453468Y607671D01*
X453268Y607787D01*
X453072Y607908D01*
X452879Y608034D01*
X452689Y608164D01*
X452502Y608299D01*
X452318Y608439D01*
X452138Y608583D01*
X451961Y608732D01*
X451789Y608885D01*
X451620Y609042D01*
X451455Y609203D01*
X451294Y609368D01*
X451137Y609537D01*
X450984Y609709D01*
X450835Y609886D01*
X450691Y610066D01*
X450551Y610250D01*
X450416Y610437D01*
X450286Y610627D01*
X450160Y610820D01*
X450039Y611016D01*
X449923Y611216D01*
X449812Y611418D01*
X449705Y611623D01*
X449604Y611830D01*
X449508Y612040D01*
X449417Y612252D01*
X449332Y612466D01*
X449251Y612682D01*
X449176Y612900D01*
X449107Y613120D01*
X449042Y613341D01*
X448984Y613564D01*
X448930Y613789D01*
X448883Y614015D01*
X448840Y614241D01*
X448804Y614469D01*
X448773Y614698D01*
X448747Y614927D01*
X448727Y615157D01*
X448713Y615387D01*
X448705Y615617D01*
X448702Y615848D01*
M02*
