"Qty";"Value";"Package";"Parts";"DESCRIPTION";"MF";"MPN";"OC_MARITEX";
"4";"009175002702996";"0091750027";"X1, X12, X13, X14";"IDC connector, 2-way, AWG 26, wire stop";"AVX";"009175002702996";"";
"2";"009175003702996";"0091750037";"X2, X3";"IDC connector, 3-way, AWG 28, wire stop";"AVX";"009175003702996";"";
"1";"009176002032006";"0091760020";"X5";"IDC connector, 2-way, AWG 24";"AVX";"009176002032006";"";
"1";"609176002016099";"EXTRA-BOM-LINE";"X27";"9176 cap, 2-way, wire stop, AWG 24-22";"AVX";"609176002016099";"";
"1";"XH-WT-2A";"JST-XH-02-SMT";"X4";"";"JINDA";"XH-WT-2A";"WG02DH";
