G04 EAGLE Gerber RS-274X export*
G75*
%MOMM*%
%FSLAX34Y34*%
%LPD*%
%INTop Copper*%
%IPPOS*%
%AMOC8*
5,1,8,0,0,1.08239X$1,22.5*%
G01*
%ADD10R,1.500000X1.500000*%
%ADD11C,1.050000*%
%ADD12C,1.500000*%
%ADD13C,0.252000*%
%ADD14C,1.650000*%
%ADD15C,1.080000*%
%ADD16C,0.609600*%
%ADD17C,0.406400*%
%ADD18C,1.219200*%


D10*
X519300Y60800D03*
X519300Y35400D03*
X493900Y60800D03*
X493900Y35400D03*
X468500Y60800D03*
X468500Y35400D03*
X443100Y35400D03*
X417700Y60800D03*
X417700Y35400D03*
X392300Y60800D03*
X392300Y35400D03*
X366900Y60800D03*
X366900Y35400D03*
X341500Y60800D03*
X341500Y35400D03*
X316100Y60800D03*
X316100Y35400D03*
X290700Y60800D03*
X290700Y35400D03*
X443100Y60800D03*
D11*
X493900Y242500D03*
X468500Y242500D03*
D12*
X316100Y242500D03*
X366900Y242500D03*
D11*
X493900Y172500D03*
X468500Y172500D03*
D12*
X316100Y172500D03*
X366900Y172500D03*
D11*
X493900Y102500D03*
X468500Y102500D03*
D12*
X316100Y102500D03*
X366900Y102500D03*
D13*
X527260Y126260D02*
X527260Y137740D01*
X542740Y137740D01*
X542740Y126260D01*
X527260Y126260D01*
X527260Y128654D02*
X542740Y128654D01*
X542740Y131048D02*
X527260Y131048D01*
X527260Y133442D02*
X542740Y133442D01*
X542740Y135836D02*
X527260Y135836D01*
X527260Y103740D02*
X527260Y92260D01*
X527260Y103740D02*
X542740Y103740D01*
X542740Y92260D01*
X527260Y92260D01*
X527260Y94654D02*
X542740Y94654D01*
X542740Y97048D02*
X527260Y97048D01*
X527260Y99442D02*
X542740Y99442D01*
X542740Y101836D02*
X527260Y101836D01*
X527260Y196260D02*
X527260Y207740D01*
X542740Y207740D01*
X542740Y196260D01*
X527260Y196260D01*
X527260Y198654D02*
X542740Y198654D01*
X542740Y201048D02*
X527260Y201048D01*
X527260Y203442D02*
X542740Y203442D01*
X542740Y205836D02*
X527260Y205836D01*
X527260Y173740D02*
X527260Y162260D01*
X527260Y173740D02*
X542740Y173740D01*
X542740Y162260D01*
X527260Y162260D01*
X527260Y164654D02*
X542740Y164654D01*
X542740Y167048D02*
X527260Y167048D01*
X527260Y169442D02*
X542740Y169442D01*
X542740Y171836D02*
X527260Y171836D01*
X527260Y266260D02*
X527260Y277740D01*
X542740Y277740D01*
X542740Y266260D01*
X527260Y266260D01*
X527260Y268654D02*
X542740Y268654D01*
X542740Y271048D02*
X527260Y271048D01*
X527260Y273442D02*
X542740Y273442D01*
X542740Y275836D02*
X527260Y275836D01*
X527260Y243740D02*
X527260Y232260D01*
X527260Y243740D02*
X542740Y243740D01*
X542740Y232260D01*
X527260Y232260D01*
X527260Y234654D02*
X542740Y234654D01*
X542740Y237048D02*
X527260Y237048D01*
X527260Y239442D02*
X542740Y239442D01*
X542740Y241836D02*
X527260Y241836D01*
X267260Y266260D02*
X267260Y277740D01*
X282740Y277740D01*
X282740Y266260D01*
X267260Y266260D01*
X267260Y268654D02*
X282740Y268654D01*
X282740Y271048D02*
X267260Y271048D01*
X267260Y273442D02*
X282740Y273442D01*
X282740Y275836D02*
X267260Y275836D01*
X267260Y243740D02*
X267260Y232260D01*
X267260Y243740D02*
X282740Y243740D01*
X282740Y232260D01*
X267260Y232260D01*
X267260Y234654D02*
X282740Y234654D01*
X282740Y237048D02*
X267260Y237048D01*
X267260Y239442D02*
X282740Y239442D01*
X282740Y241836D02*
X267260Y241836D01*
X267260Y207740D02*
X267260Y196260D01*
X267260Y207740D02*
X282740Y207740D01*
X282740Y196260D01*
X267260Y196260D01*
X267260Y198654D02*
X282740Y198654D01*
X282740Y201048D02*
X267260Y201048D01*
X267260Y203442D02*
X282740Y203442D01*
X282740Y205836D02*
X267260Y205836D01*
X267260Y173740D02*
X267260Y162260D01*
X267260Y173740D02*
X282740Y173740D01*
X282740Y162260D01*
X267260Y162260D01*
X267260Y164654D02*
X282740Y164654D01*
X282740Y167048D02*
X267260Y167048D01*
X267260Y169442D02*
X282740Y169442D01*
X282740Y171836D02*
X267260Y171836D01*
X267260Y137740D02*
X267260Y126260D01*
X267260Y137740D02*
X282740Y137740D01*
X282740Y126260D01*
X267260Y126260D01*
X267260Y128654D02*
X282740Y128654D01*
X282740Y131048D02*
X267260Y131048D01*
X267260Y133442D02*
X282740Y133442D01*
X282740Y135836D02*
X267260Y135836D01*
X267260Y103740D02*
X267260Y92260D01*
X267260Y103740D02*
X282740Y103740D01*
X282740Y92260D01*
X267260Y92260D01*
X267260Y94654D02*
X282740Y94654D01*
X282740Y97048D02*
X267260Y97048D01*
X267260Y99442D02*
X282740Y99442D01*
X282740Y101836D02*
X267260Y101836D01*
D14*
X280000Y366750D02*
X280000Y383250D01*
X305000Y383250D02*
X305000Y366750D01*
X330000Y366750D02*
X330000Y383250D01*
X355000Y383250D02*
X355000Y366750D01*
X380000Y366750D02*
X380000Y383250D01*
X405000Y383250D02*
X405000Y366750D01*
X430000Y366750D02*
X430000Y383250D01*
X455000Y383250D02*
X455000Y366750D01*
X480000Y366750D02*
X480000Y383250D01*
X505000Y383250D02*
X505000Y366750D01*
X530000Y366750D02*
X530000Y383250D01*
X555000Y383250D02*
X555000Y366750D01*
X75000Y366750D02*
X75000Y383250D01*
X100000Y383250D02*
X100000Y366750D01*
X125000Y366750D02*
X125000Y383250D01*
X150000Y383250D02*
X150000Y366750D01*
X175000Y366750D02*
X175000Y383250D01*
X200000Y383250D02*
X200000Y366750D01*
X277500Y536750D02*
X277500Y553250D01*
X302500Y553250D02*
X302500Y536750D01*
X327500Y536750D02*
X327500Y553250D01*
X352500Y553250D02*
X352500Y536750D01*
X377500Y536750D02*
X377500Y553250D01*
X402500Y553250D02*
X402500Y536750D01*
X427500Y536750D02*
X427500Y553250D01*
X452500Y553250D02*
X452500Y536750D01*
X477500Y536750D02*
X477500Y553250D01*
X502500Y553250D02*
X502500Y536750D01*
X527500Y536750D02*
X527500Y553250D01*
X552500Y553250D02*
X552500Y536750D01*
D15*
X290000Y97500D03*
D16*
X275000Y97500D01*
X275000Y98000D01*
D15*
X290000Y237500D03*
D16*
X275000Y237500D01*
X275000Y238000D01*
D15*
X290000Y167500D03*
D16*
X275000Y167500D01*
X275000Y168000D01*
X366900Y242500D02*
X337400Y272000D01*
X275000Y272000D01*
X200500Y272000D01*
X175000Y297500D02*
X175000Y375000D01*
X175000Y297500D02*
X200500Y272000D01*
X337400Y202000D02*
X366900Y172500D01*
X337400Y202000D02*
X275000Y202000D01*
X158000Y202000D01*
X125000Y235000D02*
X125000Y375000D01*
X125000Y235000D02*
X158000Y202000D01*
D17*
X498400Y238000D02*
X535000Y238000D01*
X498400Y238000D02*
X493900Y242500D01*
X498400Y168000D02*
X535000Y168000D01*
X498400Y168000D02*
X493900Y172500D01*
X498400Y98000D02*
X535000Y98000D01*
X498400Y98000D02*
X493900Y102500D01*
D16*
X366900Y102500D02*
X337400Y132000D01*
X275000Y132000D01*
X108000Y132000D01*
X75000Y165000D02*
X75000Y375000D01*
X75000Y165000D02*
X108000Y132000D01*
D17*
X355000Y47300D02*
X366900Y35400D01*
X355000Y47300D02*
X355000Y77500D01*
X365000Y87500D01*
X375000Y87500D01*
X381124Y93624D01*
X381124Y295571D02*
X353459Y323236D01*
X268056Y323236D01*
X250736Y340556D01*
X250736Y484444D01*
X273056Y506764D01*
X302500Y515000D02*
X302500Y545000D01*
X381124Y295571D02*
X381124Y93624D01*
X294264Y506764D02*
X273056Y506764D01*
X294264Y506764D02*
X302500Y515000D01*
X366900Y76900D02*
X366900Y60800D01*
X366900Y76900D02*
X370000Y80000D01*
X380000Y80000D01*
X386712Y86712D01*
X355773Y328824D02*
X270371Y328824D01*
X256324Y342871D01*
X256324Y482129D01*
X275371Y501176D01*
X377500Y512500D02*
X377500Y545000D01*
X386712Y297885D02*
X386712Y86712D01*
X386712Y297885D02*
X355773Y328824D01*
X366176Y501176D02*
X275371Y501176D01*
X366176Y501176D02*
X377500Y512500D01*
X498000Y202000D02*
X535000Y202000D01*
X498000Y202000D02*
X468500Y172500D01*
X456000Y47900D02*
X468500Y35400D01*
X456000Y160000D02*
X468500Y172500D01*
X456000Y160000D02*
X456000Y47900D01*
X498000Y132000D02*
X535000Y132000D01*
X498000Y132000D02*
X468500Y102500D01*
X468500Y60800D01*
X498000Y272000D02*
X535000Y272000D01*
X498000Y272000D02*
X468500Y242500D01*
X443100Y217100D02*
X443100Y60800D01*
X443100Y217100D02*
X468500Y242500D01*
X431000Y47500D02*
X443100Y35400D01*
X455000Y337500D02*
X455000Y375000D01*
X431000Y313500D02*
X431000Y47500D01*
X431000Y313500D02*
X455000Y337500D01*
X405000Y48100D02*
X417700Y35400D01*
X305000Y352500D02*
X305000Y375000D01*
X310000Y347500D02*
X370000Y347500D01*
X310000Y347500D02*
X305000Y352500D01*
X405000Y72500D02*
X405000Y48100D01*
X405000Y72500D02*
X410000Y77500D01*
X410000Y307500D01*
X370000Y347500D01*
X402300Y80800D02*
X392300Y70800D01*
X392300Y60800D01*
X402300Y80800D02*
X402300Y300200D01*
X362500Y340000D01*
X275000Y340000D01*
X267500Y347500D01*
X267500Y477500D02*
X280000Y490000D01*
X517500Y490000D01*
X527500Y500000D02*
X527500Y545000D01*
X267500Y477500D02*
X267500Y347500D01*
X517500Y490000D02*
X527500Y500000D01*
X417700Y314800D02*
X417700Y60800D01*
X380000Y352500D02*
X380000Y375000D01*
X380000Y352500D02*
X417700Y314800D01*
D18*
X519300Y60800D02*
X519300Y35400D01*
X519300Y60800D02*
X519300Y76800D01*
X522500Y80000D01*
X560000Y312500D02*
X575000Y327500D01*
X575000Y410000D01*
X507500Y410000D01*
X427500Y410000D01*
X355000Y410000D01*
X287500Y410000D01*
X280000Y402500D01*
X280000Y375000D01*
X522500Y80000D02*
X550000Y80000D01*
X560000Y90000D01*
X560000Y312500D01*
X355000Y375000D02*
X355000Y410000D01*
X430000Y407500D02*
X430000Y375000D01*
X430000Y407500D02*
X427500Y410000D01*
X505000Y407500D02*
X505000Y375000D01*
X505000Y407500D02*
X507500Y410000D01*
X575000Y410000D02*
X575000Y575000D01*
X570000Y580000D01*
X502500Y580000D01*
X427500Y580000D01*
X355000Y580000D01*
X285000Y580000D01*
X277500Y572500D02*
X277500Y545000D01*
X277500Y572500D02*
X285000Y580000D01*
X352500Y577500D02*
X352500Y545000D01*
X352500Y577500D02*
X355000Y580000D01*
X427500Y580000D02*
X427500Y545000D01*
X502500Y545000D02*
X502500Y580000D01*
D17*
X380000Y47700D02*
X392300Y35400D01*
X380000Y47700D02*
X380000Y70000D01*
X272685Y334412D02*
X261912Y345185D01*
X261912Y479815D01*
X277685Y495588D01*
X452500Y510000D02*
X452500Y545000D01*
X392500Y82500D02*
X380000Y70000D01*
X392500Y82500D02*
X392500Y300000D01*
X358088Y334412D01*
X272685Y334412D01*
X277685Y495588D02*
X438088Y495588D01*
X452500Y510000D01*
M02*
