"Qty";"Value";"Package";"Parts";"DESCRIPTION";"MF";"MPN";"SPICEPREFIX";
"1";"009175003702996";"0091750037";"X1";"IDC connector, 3-way, AWG 26, wire stop";"AVX";"009175003702996";"";
"1";"1.2k/0.5W";"R1206";"R1";"";"";"";"R";
"1";"100k";"R0402";"R2";"";"";"";"R";
"1";"100n/50V X7R";"C0603";"C2";"";"";"";"C";
"3";"10k";"R0402";"R3, R6, R7";"";"";"";"R";
"1";"1M";"R0402";"R5";"";"";"";"R";
"1";"1u/50V X7R";"C0805";"C3";"";"";"";"C";
"1";"24V";"SOT23";"TVS1";"";"NEXPERIA";"PESD24VS2UT.215";"";
"1";"AP331AWG-7";"SOT23-5";"IC1";"";"DIODES INCORPORATED";"AP331AWG-7";"";
"1";"BC857C";"SOT23";"Q1";"Transistor, PNP, SOT-23, 45V, 100mA, hFE=420..800";"INFINEON TECHNOLOGIES";"BC857CE6327";"";
"1";"LTST-C191KRKT";"CHIP-LED0603";"LED1";"LED, 0603, generic red";"LITEON";"LTST-C191KRKT";"";
"1";"OPB733TR";"OPB733TR";"OC1";"";"TT ELECTRONICS";"OPB733TR";"";
"1";"TC33X-2-104E";"TC33";"R8";"Cermet trimmer resistor, 100k, 0.1W, 3mm";"BOURNS";"TC33X-2-104E";"";
