<?xml version="1.0" encoding="utf-8"?>
<!DOCTYPE eagle SYSTEM "eagle.dtd">
<eagle version="9.2.2">
<drawing>
<settings>
<setting alwaysvectorfont="no"/>
<setting verticaltext="up"/>
</settings>
<grid distance="1" unitdist="mm" unit="mm" style="dots" multiple="1" display="yes" altdistance="0.1" altunitdist="mm" altunit="mm"/>
<layers>
<layer number="1" name="Top" color="4" fill="1" visible="yes" active="yes"/>
<layer number="2" name="Route2" color="16" fill="1" visible="no" active="yes"/>
<layer number="15" name="Route15" color="23" fill="1" visible="no" active="yes"/>
<layer number="16" name="Bottom" color="1" fill="1" visible="yes" active="yes"/>
<layer number="17" name="Pads" color="2" fill="1" visible="yes" active="yes"/>
<layer number="18" name="Vias" color="2" fill="1" visible="yes" active="yes"/>
<layer number="19" name="Unrouted" color="6" fill="1" visible="yes" active="yes"/>
<layer number="20" name="Dimension" color="24" fill="1" visible="yes" active="yes"/>
<layer number="21" name="tPlace" color="7" fill="1" visible="yes" active="yes"/>
<layer number="22" name="bPlace" color="7" fill="1" visible="yes" active="yes"/>
<layer number="23" name="tOrigins" color="15" fill="1" visible="yes" active="yes"/>
<layer number="24" name="bOrigins" color="15" fill="1" visible="yes" active="yes"/>
<layer number="25" name="tNames" color="7" fill="1" visible="yes" active="yes"/>
<layer number="26" name="bNames" color="7" fill="1" visible="yes" active="yes"/>
<layer number="27" name="tValues" color="7" fill="1" visible="yes" active="yes"/>
<layer number="28" name="bValues" color="7" fill="1" visible="yes" active="yes"/>
<layer number="29" name="tStop" color="7" fill="3" visible="no" active="yes"/>
<layer number="30" name="bStop" color="7" fill="6" visible="no" active="yes"/>
<layer number="31" name="tCream" color="7" fill="4" visible="no" active="yes"/>
<layer number="32" name="bCream" color="7" fill="5" visible="no" active="yes"/>
<layer number="33" name="tFinish" color="6" fill="3" visible="no" active="yes"/>
<layer number="34" name="bFinish" color="6" fill="6" visible="no" active="yes"/>
<layer number="35" name="tGlue" color="7" fill="4" visible="no" active="yes"/>
<layer number="36" name="bGlue" color="7" fill="5" visible="no" active="yes"/>
<layer number="37" name="tTest" color="7" fill="1" visible="no" active="yes"/>
<layer number="38" name="bTest" color="7" fill="1" visible="no" active="yes"/>
<layer number="39" name="tKeepout" color="4" fill="11" visible="yes" active="yes"/>
<layer number="40" name="bKeepout" color="1" fill="11" visible="yes" active="yes"/>
<layer number="41" name="tRestrict" color="4" fill="10" visible="yes" active="yes"/>
<layer number="42" name="bRestrict" color="1" fill="10" visible="yes" active="yes"/>
<layer number="43" name="vRestrict" color="2" fill="10" visible="yes" active="yes"/>
<layer number="44" name="Drills" color="7" fill="1" visible="no" active="yes"/>
<layer number="45" name="Holes" color="7" fill="1" visible="no" active="yes"/>
<layer number="46" name="Milling" color="3" fill="1" visible="no" active="yes"/>
<layer number="47" name="Measures" color="7" fill="1" visible="no" active="yes"/>
<layer number="48" name="Document" color="7" fill="1" visible="yes" active="yes"/>
<layer number="49" name="Reference" color="7" fill="1" visible="yes" active="yes"/>
<layer number="51" name="tDocu" color="7" fill="1" visible="yes" active="yes"/>
<layer number="52" name="bDocu" color="7" fill="1" visible="yes" active="yes"/>
<layer number="88" name="SimResults" color="9" fill="1" visible="yes" active="yes"/>
<layer number="89" name="SimProbes" color="9" fill="1" visible="yes" active="yes"/>
<layer number="90" name="Modules" color="5" fill="1" visible="yes" active="yes"/>
<layer number="91" name="Nets" color="2" fill="1" visible="yes" active="yes"/>
<layer number="92" name="Busses" color="1" fill="1" visible="yes" active="yes"/>
<layer number="93" name="Pins" color="2" fill="1" visible="no" active="yes"/>
<layer number="94" name="Symbols" color="4" fill="1" visible="yes" active="yes"/>
<layer number="95" name="Names" color="7" fill="1" visible="yes" active="yes"/>
<layer number="96" name="Values" color="7" fill="1" visible="yes" active="yes"/>
<layer number="97" name="Info" color="7" fill="1" visible="yes" active="yes"/>
<layer number="98" name="Guide" color="6" fill="1" visible="yes" active="yes"/>
<layer number="99" name="SpiceOrder" color="5" fill="1" visible="yes" active="yes"/>
</layers>
<library>
<packages>
<package name="SOD323" urn="urn:adsk.eagle:footprint:7288783/1">
<description>&lt;b&gt;SOD-323&lt;/b&gt;&lt;p&gt;
Source: www.st.com, BAT60J.pdf</description>
<wire x1="-0.85" y1="0.55" x2="0.85" y2="0.55" width="0.1016" layer="21"/>
<wire x1="0.85" y1="0.55" x2="0.85" y2="-0.55" width="0.1016" layer="51"/>
<wire x1="0.85" y1="-0.55" x2="-0.85" y2="-0.55" width="0.1016" layer="21"/>
<wire x1="-0.85" y1="-0.55" x2="-0.85" y2="0.55" width="0.1016" layer="51"/>
<smd name="C" x="-1.25" y="0" dx="0.8" dy="0.6" layer="1"/>
<smd name="A" x="1.25" y="0" dx="0.8" dy="0.6" layer="1"/>
<text x="-1.65" y="0.75" size="1.27" layer="25">&gt;NAME</text>
<text x="-1.65" y="-2" size="1.27" layer="27">&gt;VALUE</text>
<rectangle x1="-0.65" y1="-0.55" x2="-0.05" y2="0.55" layer="21"/>
<rectangle x1="-1.35" y1="-0.15" x2="-0.8" y2="0.15" layer="51"/>
<rectangle x1="0.8" y1="-0.15" x2="1.35" y2="0.15" layer="51"/>
<rectangle x1="-0.85" y1="-0.55" x2="-0.05" y2="0.55" layer="51"/>
</package>
<package name="SOT23" urn="urn:adsk.eagle:footprint:43155/1" locally_modified="yes">
<description>SOT-23, NXP version

https://www.nxp.com/docs/en/package-information/SOT23.pdf</description>
<wire x1="1.4224" y1="0.6604" x2="1.4224" y2="-0.6604" width="0.1524" layer="51"/>
<wire x1="1.4224" y1="-0.6604" x2="-1.4224" y2="-0.6604" width="0.1524" layer="51"/>
<wire x1="-1.4224" y1="-0.6604" x2="-1.4224" y2="0.6604" width="0.1524" layer="51"/>
<wire x1="-1.4224" y1="0.6604" x2="1.4224" y2="0.6604" width="0.1524" layer="51"/>
<wire x1="-1.4224" y1="-0.1524" x2="-1.4224" y2="0.6604" width="0.1524" layer="21"/>
<wire x1="-1.4224" y1="0.6604" x2="-0.8636" y2="0.6604" width="0.1524" layer="21"/>
<wire x1="1.4224" y1="0.6604" x2="1.4224" y2="-0.1524" width="0.1524" layer="21"/>
<wire x1="0.8636" y1="0.6604" x2="1.4224" y2="0.6604" width="0.1524" layer="21"/>
<smd name="3" x="0" y="1" dx="0.6" dy="0.7" layer="1"/>
<smd name="2" x="0.95" y="-1" dx="0.6" dy="0.7" layer="1"/>
<smd name="1" x="-0.95" y="-1" dx="0.6" dy="0.7" layer="1"/>
<text x="-1.905" y="1.905" size="1.27" layer="25">&gt;NAME</text>
<text x="-1.905" y="-3.175" size="1.27" layer="27">&gt;VALUE</text>
<rectangle x1="-0.2286" y1="0.7112" x2="0.2286" y2="1.2954" layer="51"/>
<rectangle x1="0.7112" y1="-1.2954" x2="1.1684" y2="-0.7112" layer="51"/>
<rectangle x1="-1.1684" y1="-1.2954" x2="-0.7112" y2="-0.7112" layer="51"/>
</package>
<package name="MINIMELF" urn="urn:adsk.eagle:footprint:43207/1">
<description>&lt;b&gt;Mini Melf Diode&lt;/b&gt;</description>
<wire x1="1.3208" y1="0.7874" x2="-1.3208" y2="0.7874" width="0.1524" layer="51"/>
<wire x1="1.3208" y1="-0.7874" x2="-1.3208" y2="-0.7874" width="0.1524" layer="51"/>
<wire x1="0.5" y1="0.5" x2="-0.5" y2="0" width="0.2032" layer="21"/>
<wire x1="-0.5" y1="0" x2="0.5" y2="-0.5" width="0.2032" layer="21"/>
<wire x1="0.5" y1="-0.5" x2="0.5" y2="0.5" width="0.2032" layer="21"/>
<smd name="C" x="-1.7" y="0" dx="1.4" dy="1.8" layer="1"/>
<smd name="A" x="1.7" y="0" dx="1.4" dy="1.8" layer="1"/>
<text x="-1.651" y="1.143" size="1.27" layer="25">&gt;NAME</text>
<text x="-1.651" y="-2.413" size="1.27" layer="27">&gt;VALUE</text>
<rectangle x1="-1.8542" y1="-0.8636" x2="-1.2954" y2="0.8636" layer="51"/>
<rectangle x1="1.2954" y1="-0.8636" x2="1.8542" y2="0.8636" layer="51"/>
<rectangle x1="-0.8636" y1="-0.7874" x2="-0.254" y2="0.7874" layer="21"/>
</package>
</packages>
<packages3d>
<package3d name="SOD323" urn="urn:adsk.eagle:package:7288784/2" type="model">
<description>&lt;b&gt;SOD-323&lt;/b&gt;&lt;p&gt;
Source: www.st.com, BAT60J.pdf</description>
<packageinstances>
<packageinstance name="SOD323"/>
</packageinstances>
</package3d>
<package3d name="SOT23" urn="urn:adsk.eagle:package:43389/2" locally_modified="yes" type="model">
<description>DIODE</description>
<packageinstances>
<packageinstance name="SOT23"/>
</packageinstances>
</package3d>
<package3d name="MINIMELF" urn="urn:adsk.eagle:package:7567381/2" type="model">
<description>Mini Melf Diode</description>
<packageinstances>
<packageinstance name="MINIMELF"/>
</packageinstances>
</package3d>
</packages3d>
<symbols>
<symbol name="DIODE">
<wire x1="-1.27" y1="-1.27" x2="1.27" y2="0" width="0.254" layer="94"/>
<wire x1="1.27" y1="0" x2="-1.27" y2="1.27" width="0.254" layer="94"/>
<wire x1="1.27" y1="1.27" x2="1.27" y2="0" width="0.254" layer="94"/>
<wire x1="-1.27" y1="1.27" x2="-1.27" y2="-1.27" width="0.254" layer="94"/>
<wire x1="1.27" y1="0" x2="1.27" y2="-1.27" width="0.254" layer="94"/>
<text x="2.54" y="0.4826" size="1.778" layer="95">&gt;NAME</text>
<text x="2.54" y="-2.3114" size="1.778" layer="96">&gt;VALUE</text>
<text x="-2.54" y="0" size="0.4064" layer="99" align="center">SpiceOrder 1</text>
<text x="2.54" y="0" size="0.4064" layer="99" align="center">SpiceOrder 2</text>
<pin name="A" x="-2.54" y="0" visible="off" length="short" direction="pas"/>
<pin name="C" x="2.54" y="0" visible="off" length="short" direction="pas" rot="R180"/>
</symbol>
<symbol name="SCHOTTKY">
<wire x1="-1.27" y1="-1.27" x2="1.27" y2="0" width="0.254" layer="94"/>
<wire x1="1.27" y1="0" x2="-1.27" y2="1.27" width="0.254" layer="94"/>
<wire x1="1.905" y1="1.27" x2="1.27" y2="1.27" width="0.254" layer="94"/>
<wire x1="1.27" y1="1.27" x2="1.27" y2="0" width="0.254" layer="94"/>
<wire x1="-1.27" y1="1.27" x2="-1.27" y2="-1.27" width="0.254" layer="94"/>
<wire x1="1.27" y1="0" x2="1.27" y2="-1.27" width="0.254" layer="94"/>
<wire x1="1.905" y1="1.27" x2="1.905" y2="1.016" width="0.254" layer="94"/>
<wire x1="1.27" y1="-1.27" x2="0.635" y2="-1.27" width="0.254" layer="94"/>
<wire x1="0.635" y1="-1.016" x2="0.635" y2="-1.27" width="0.254" layer="94"/>
<text x="-2.286" y="1.905" size="1.778" layer="95">&gt;NAME</text>
<text x="-2.286" y="-3.429" size="1.778" layer="96">&gt;VALUE</text>
<pin name="A" x="-2.54" y="0" visible="off" length="short" direction="pas"/>
<pin name="C" x="2.54" y="0" visible="off" length="short" direction="pas" rot="R180"/>
</symbol>
<symbol name="ZENER">
<wire x1="-1.27" y1="-1.27" x2="1.27" y2="0" width="0.254" layer="94"/>
<wire x1="1.27" y1="0" x2="-1.27" y2="1.27" width="0.254" layer="94"/>
<wire x1="1.27" y1="1.27" x2="1.27" y2="0" width="0.254" layer="94"/>
<wire x1="-1.27" y1="1.27" x2="-1.27" y2="-1.27" width="0.254" layer="94"/>
<wire x1="1.27" y1="0" x2="1.27" y2="-1.27" width="0.254" layer="94"/>
<wire x1="1.27" y1="-1.27" x2="0.635" y2="-1.27" width="0.254" layer="94"/>
<text x="-1.778" y="1.905" size="1.778" layer="95">&gt;NAME</text>
<text x="-1.778" y="-3.429" size="1.778" layer="96">&gt;VALUE</text>
<pin name="A" x="-2.54" y="0" visible="off" length="short" direction="pas"/>
<pin name="C" x="2.54" y="0" visible="off" length="short" direction="pas" rot="R180"/>
</symbol>
<symbol name="TVS">
<wire x1="-1.27" y1="-1.27" x2="1.27" y2="0" width="0.254" layer="94"/>
<wire x1="1.27" y1="0" x2="-1.27" y2="1.27" width="0.254" layer="94"/>
<wire x1="1.905" y1="1.905" x2="1.27" y2="1.27" width="0.254" layer="94"/>
<wire x1="1.27" y1="1.27" x2="1.27" y2="0" width="0.254" layer="94"/>
<wire x1="-1.27" y1="1.27" x2="-1.27" y2="-1.27" width="0.254" layer="94"/>
<wire x1="1.27" y1="0" x2="1.27" y2="-1.27" width="0.254" layer="94"/>
<wire x1="1.27" y1="-1.27" x2="0.635" y2="-1.905" width="0.254" layer="94"/>
<text x="-2.286" y="1.905" size="1.778" layer="95">&gt;NAME</text>
<text x="-2.286" y="-3.429" size="1.778" layer="96">&gt;VALUE</text>
<pin name="A" x="-2.54" y="0" visible="off" length="short" direction="pas"/>
<pin name="C" x="2.54" y="0" visible="off" length="short" direction="pas" rot="R180"/>
</symbol>
<symbol name="TVS2">
<wire x1="-1.27" y1="1.27" x2="-3.81" y2="0" width="0.254" layer="94"/>
<wire x1="-3.81" y1="0" x2="-1.27" y2="-1.27" width="0.254" layer="94"/>
<wire x1="-3.81" y1="-1.27" x2="-3.81" y2="0" width="0.254" layer="94"/>
<wire x1="-1.27" y1="-1.27" x2="-1.27" y2="1.27" width="0.254" layer="94"/>
<wire x1="-3.81" y1="0" x2="-3.81" y2="1.27" width="0.254" layer="94"/>
<wire x1="1.27" y1="1.27" x2="3.81" y2="0" width="0.254" layer="94"/>
<wire x1="3.81" y1="0" x2="1.27" y2="-1.27" width="0.254" layer="94"/>
<wire x1="3.81" y1="-1.27" x2="3.81" y2="0" width="0.254" layer="94"/>
<wire x1="-3.81" y1="0" x2="3.81" y2="0" width="0.1524" layer="94"/>
<wire x1="1.27" y1="-1.27" x2="1.27" y2="1.27" width="0.254" layer="94"/>
<wire x1="3.81" y1="0" x2="3.81" y2="1.27" width="0.254" layer="94"/>
<circle x="0" y="0" radius="0.127" width="0.4064" layer="94"/>
<text x="0.762" y="2.0066" size="1.778" layer="95">&gt;NAME</text>
<text x="-4.826" y="-3.4544" size="1.778" layer="96">&gt;VALUE</text>
<pin name="K1" x="-5.08" y="0" visible="off" length="short" direction="pas"/>
<pin name="K2" x="5.08" y="0" visible="off" length="short" direction="pas" rot="R180"/>
<pin name="A" x="0" y="2.54" visible="off" length="short" direction="pas" rot="R270"/>
<wire x1="-3.81" y1="1.27" x2="-4.318" y2="1.778" width="0.254" layer="94"/>
<wire x1="-3.302" y1="-1.778" x2="-3.81" y2="-1.27" width="0.254" layer="94"/>
<wire x1="3.81" y1="1.27" x2="3.302" y2="1.778" width="0.254" layer="94"/>
<wire x1="4.318" y1="-1.778" x2="3.81" y2="-1.27" width="0.254" layer="94"/>
</symbol>
</symbols>
<devicesets>
<deviceset name="ZENER-" prefix="D" uservalue="yes">
<gates>
<gate name="D" symbol="ZENER" x="0" y="0"/>
</gates>
<devices>
<device name="SOD323" package="SOD323">
<connects>
<connect gate="D" pin="A" pad="A"/>
<connect gate="D" pin="C" pad="C"/>
</connects>
<package3dinstances>
<package3dinstance package3d_urn="urn:adsk.eagle:package:7288784/2"/>
</package3dinstances>
<technologies>
<technology name=""/>
</technologies>
</device>
</devices>
</deviceset>
<deviceset name="TVS2-" prefix="TVS" uservalue="yes">
<gates>
<gate name="TVS2" symbol="TVS2" x="0" y="0"/>
</gates>
<devices>
<device name="SOT23" package="SOT23">
<connects>
<connect gate="TVS2" pin="A" pad="3"/>
<connect gate="TVS2" pin="K1" pad="1"/>
<connect gate="TVS2" pin="K2" pad="2"/>
</connects>
<package3dinstances>
<package3dinstance package3d_urn="urn:adsk.eagle:package:43389/2"/>
</package3dinstances>
<technologies>
<technology name=""/>
</technologies>
</device>
</devices>
</deviceset>
<deviceset name="DIODE-" prefix="D" uservalue="yes">
<gates>
<gate name="D" symbol="DIODE" x="0" y="0"/>
</gates>
<devices>
<device name="MINIMELF" package="MINIMELF">
<connects>
<connect gate="D" pin="A" pad="A"/>
<connect gate="D" pin="C" pad="C"/>
</connects>
<package3dinstances>
<package3dinstance package3d_urn="urn:adsk.eagle:package:7567381/2"/>
</package3dinstances>
<technologies>
<technology name=""/>
</technologies>
</device>
</devices>
</deviceset>
<deviceset name="LL4148" prefix="D">
<gates>
<gate name="D" symbol="DIODE" x="0" y="0"/>
</gates>
<devices>
<device name="" package="MINIMELF">
<connects>
<connect gate="D" pin="A" pad="A"/>
<connect gate="D" pin="C" pad="C"/>
</connects>
<package3dinstances>
<package3dinstance package3d_urn="urn:adsk.eagle:package:7567381/2"/>
</package3dinstances>
<technologies>
<technology name="">
<attribute name="DESCRIPTION" value="Diode, generic, 100V/0.15A, MiniMELF"/>
<attribute name="MF" value="any" constant="no"/>
<attribute name="MPN" value="LL4148" constant="no"/>
</technology>
</technologies>
</device>
</devices>
</deviceset>
</devicesets>
</library>
</drawing>
<compatibility>
<note version="8.3" severity="warning">
Since Version 8.3, EAGLE supports URNs for individual library
assets (packages, symbols, and devices). The URNs of those assets
will not be understood (or retained) with this version.
</note>
<note version="8.3" severity="warning">
Since Version 8.3, EAGLE supports the association of 3D packages
with devices in libraries, schematics, and board files. Those 3D
packages will not be understood (or retained) with this version.
</note>
</compatibility>
</eagle>
