<?xml version="1.0" encoding="utf-8"?>
<!DOCTYPE eagle SYSTEM "eagle.dtd">
<eagle version="9.2.2">
<drawing>
<settings>
<setting alwaysvectorfont="no"/>
<setting keepoldvectorfont="yes"/>
<setting verticaltext="up"/>
</settings>
<grid distance="1" unitdist="mm" unit="mm" style="dots" multiple="1" display="yes" altdistance="0.1" altunitdist="mm" altunit="mm"/>
<layers>
<layer number="1" name="Top" color="4" fill="1" visible="yes" active="yes"/>
<layer number="2" name="Route2" color="1" fill="3" visible="no" active="yes"/>
<layer number="3" name="Route3" color="4" fill="3" visible="no" active="yes"/>
<layer number="4" name="Route4" color="1" fill="4" visible="no" active="yes"/>
<layer number="5" name="Route5" color="4" fill="4" visible="no" active="yes"/>
<layer number="6" name="Route6" color="1" fill="8" visible="no" active="yes"/>
<layer number="7" name="Route7" color="4" fill="8" visible="no" active="yes"/>
<layer number="8" name="Route8" color="1" fill="2" visible="no" active="yes"/>
<layer number="9" name="Route9" color="4" fill="2" visible="no" active="yes"/>
<layer number="10" name="Route10" color="1" fill="7" visible="no" active="yes"/>
<layer number="11" name="Route11" color="4" fill="7" visible="no" active="yes"/>
<layer number="12" name="Route12" color="1" fill="5" visible="no" active="yes"/>
<layer number="13" name="Route13" color="4" fill="5" visible="no" active="yes"/>
<layer number="14" name="Route14" color="1" fill="6" visible="no" active="yes"/>
<layer number="15" name="Route15" color="4" fill="6" visible="no" active="yes"/>
<layer number="16" name="Bottom" color="1" fill="1" visible="yes" active="yes"/>
<layer number="17" name="Pads" color="2" fill="1" visible="yes" active="yes"/>
<layer number="18" name="Vias" color="2" fill="1" visible="yes" active="yes"/>
<layer number="19" name="Unrouted" color="6" fill="1" visible="yes" active="yes"/>
<layer number="20" name="Dimension" color="15" fill="1" visible="yes" active="yes"/>
<layer number="21" name="tPlace" color="7" fill="1" visible="yes" active="yes"/>
<layer number="22" name="bPlace" color="7" fill="1" visible="yes" active="yes"/>
<layer number="23" name="tOrigins" color="15" fill="1" visible="yes" active="yes"/>
<layer number="24" name="bOrigins" color="15" fill="1" visible="yes" active="yes"/>
<layer number="25" name="tNames" color="7" fill="1" visible="yes" active="yes"/>
<layer number="26" name="bNames" color="7" fill="1" visible="yes" active="yes"/>
<layer number="27" name="tValues" color="7" fill="1" visible="yes" active="yes"/>
<layer number="28" name="bValues" color="7" fill="1" visible="yes" active="yes"/>
<layer number="29" name="tStop" color="7" fill="3" visible="no" active="yes"/>
<layer number="30" name="bStop" color="7" fill="6" visible="no" active="yes"/>
<layer number="31" name="tCream" color="7" fill="4" visible="no" active="yes"/>
<layer number="32" name="bCream" color="7" fill="5" visible="no" active="yes"/>
<layer number="33" name="tFinish" color="6" fill="3" visible="no" active="yes"/>
<layer number="34" name="bFinish" color="6" fill="6" visible="no" active="yes"/>
<layer number="35" name="tGlue" color="7" fill="4" visible="no" active="yes"/>
<layer number="36" name="bGlue" color="7" fill="5" visible="no" active="yes"/>
<layer number="37" name="tTest" color="7" fill="1" visible="no" active="yes"/>
<layer number="38" name="bTest" color="7" fill="1" visible="no" active="yes"/>
<layer number="39" name="tKeepout" color="4" fill="11" visible="yes" active="yes"/>
<layer number="40" name="bKeepout" color="1" fill="11" visible="yes" active="yes"/>
<layer number="41" name="tRestrict" color="4" fill="10" visible="yes" active="yes"/>
<layer number="42" name="bRestrict" color="1" fill="10" visible="yes" active="yes"/>
<layer number="43" name="vRestrict" color="2" fill="10" visible="yes" active="yes"/>
<layer number="44" name="Drills" color="7" fill="1" visible="no" active="yes"/>
<layer number="45" name="Holes" color="7" fill="1" visible="no" active="yes"/>
<layer number="46" name="Milling" color="3" fill="1" visible="no" active="yes"/>
<layer number="47" name="Measures" color="7" fill="1" visible="no" active="yes"/>
<layer number="48" name="Document" color="7" fill="1" visible="yes" active="yes"/>
<layer number="49" name="Reference" color="7" fill="1" visible="yes" active="yes"/>
<layer number="51" name="tDocu" color="7" fill="1" visible="yes" active="yes"/>
<layer number="52" name="bDocu" color="7" fill="1" visible="yes" active="yes"/>
<layer number="90" name="Modules" color="5" fill="1" visible="yes" active="yes"/>
<layer number="91" name="Nets" color="2" fill="1" visible="yes" active="yes"/>
<layer number="92" name="Busses" color="1" fill="1" visible="yes" active="yes"/>
<layer number="93" name="Pins" color="2" fill="1" visible="yes" active="yes"/>
<layer number="94" name="Symbols" color="4" fill="1" visible="yes" active="yes"/>
<layer number="95" name="Names" color="7" fill="1" visible="yes" active="yes"/>
<layer number="96" name="Values" color="7" fill="1" visible="yes" active="yes"/>
<layer number="97" name="Info" color="7" fill="1" visible="yes" active="yes"/>
<layer number="98" name="Guide" color="6" fill="1" visible="yes" active="yes"/>
</layers>
<library>
<packages>
<package name="47491-" urn="urn:adsk.eagle:footprint:7387373/1">
<smd name="SHIELD@1" x="1.95" y="5.05" dx="2.5" dy="1.5" layer="1"/>
<smd name="SHIELD@3" x="8.85" y="2.2" dx="2.5" dy="1.5" layer="1" rot="R90"/>
<smd name="3" x="6.475" y="0" dx="1.25" dy="0.4" layer="1"/>
<smd name="2" x="6.475" y="0.65" dx="1.25" dy="0.4" layer="1"/>
<smd name="1" x="6.475" y="1.3" dx="1.25" dy="0.4" layer="1"/>
<smd name="4" x="6.475" y="-0.65" dx="1.25" dy="0.4" layer="1"/>
<smd name="5" x="6.475" y="-1.3" dx="1.25" dy="0.4" layer="1"/>
<smd name="SHIELD@2" x="6.15" y="5.05" dx="2.5" dy="1.5" layer="1"/>
<smd name="SHIELD@6" x="1.95" y="-5.05" dx="2.5" dy="1.5" layer="1"/>
<smd name="SHIELD@5" x="6.15" y="-5.05" dx="2.5" dy="1.5" layer="1"/>
<smd name="SHIELD@4" x="8.85" y="-2.2" dx="2.5" dy="1.5" layer="1" rot="R90"/>
<wire x1="5.6" y1="3.1" x2="5.6" y2="-3.1" width="0.1" layer="20"/>
<wire x1="0" y1="6" x2="0" y2="3.9" width="0.1" layer="20"/>
<wire x1="0" y1="3.9" x2="4.8" y2="3.9" width="0.1" layer="20"/>
<wire x1="0" y1="-3.9" x2="4.8" y2="-3.9" width="0.1" layer="20"/>
<wire x1="0" y1="-3.9" x2="0" y2="-6" width="0.1" layer="20"/>
<wire x1="4.8" y1="3.9" x2="5.6" y2="3.1" width="0.1" layer="20" curve="-90"/>
<wire x1="5.6" y1="-3.1" x2="4.8" y2="-3.9" width="0.1" layer="20" curve="-90"/>
<text x="0.6" y="7" size="1.27" layer="25" align="center-left">&gt;NAME</text>
<text x="0.6" y="-7" size="1.27" layer="27" align="center-left">&gt;VALUE</text>
</package>
<package name="USB3130">
<pad name="1" x="-1.3" y="0.22" drill="0.3"/>
<pad name="2" x="-0.65" y="-0.78" drill="0.3"/>
<pad name="3" x="0" y="0.22" drill="0.3"/>
<pad name="4" x="0.65" y="-0.78" drill="0.3"/>
<pad name="5" x="1.3" y="0.22" drill="0.3"/>
<wire x1="-3.825" y1="-0.425" x2="-3.825" y2="0.425" width="0" layer="20"/>
<wire x1="-3.825" y1="0.425" x2="-3.575" y2="0.675" width="0" layer="20" curve="-90"/>
<wire x1="-3.575" y1="0.675" x2="-3.325" y2="0.425" width="0" layer="20" curve="-90"/>
<wire x1="-3.325" y1="0.425" x2="-3.325" y2="-0.425" width="0" layer="20"/>
<smd name="SHIELD1" x="-3.575" y="0" dx="1" dy="1.85" layer="1" roundness="100" cream="no"/>
<wire x1="-3.575" y1="-0.675" x2="-3.825" y2="-0.425" width="0" layer="20" curve="-90"/>
<wire x1="-3.575" y1="-0.675" x2="-3.325" y2="-0.425" width="0" layer="20" curve="90"/>
<smd name="SHIELD2" x="-3.575" y="0" dx="1" dy="1.85" layer="16" roundness="100" cream="no"/>
<wire x1="3.825" y1="0.425" x2="3.825" y2="-0.425" width="0" layer="20"/>
<wire x1="3.825" y1="-0.425" x2="3.575" y2="-0.675" width="0" layer="20" curve="-90"/>
<wire x1="3.575" y1="-0.675" x2="3.325" y2="-0.425" width="0" layer="20" curve="-90"/>
<wire x1="3.325" y1="-0.425" x2="3.325" y2="0.425" width="0" layer="20"/>
<smd name="SHIELD3" x="3.575" y="0" dx="1" dy="1.85" layer="1" roundness="100" rot="R180" cream="no"/>
<wire x1="3.575" y1="0.675" x2="3.825" y2="0.425" width="0" layer="20" curve="-90"/>
<wire x1="3.575" y1="0.675" x2="3.325" y2="0.425" width="0" layer="20" curve="90"/>
<smd name="SHIELD4" x="3.575" y="0" dx="1" dy="1.85" layer="16" roundness="100" rot="R180" cream="no"/>
<wire x1="-4" y1="1.5" x2="4" y2="1.5" width="0.127" layer="21"/>
<wire x1="4" y1="1.5" x2="4" y2="1" width="0.127" layer="21"/>
<wire x1="4" y1="-1" x2="4" y2="-1.5" width="0.127" layer="21"/>
<wire x1="4" y1="-1.5" x2="-4" y2="-1.5" width="0.127" layer="21"/>
<wire x1="-4" y1="-1.5" x2="-4" y2="-1" width="0.127" layer="21"/>
<wire x1="-4" y1="1" x2="-4" y2="1.5" width="0.127" layer="21"/>
<text x="-4" y="2" size="0.8128" layer="25">&gt;NAME</text>
<text x="-4" y="-2" size="0.8128" layer="27" align="top-left">&gt;VALUE</text>
</package>
<package name="105133-0011" urn="urn:adsk.eagle:footprint:7017716/1">
<smd name="1" x="-1.3" y="-0.25" dx="0.45" dy="1.5" layer="1"/>
<smd name="2" x="-0.65" y="-0.25" dx="0.45" dy="1.5" layer="1"/>
<smd name="3" x="0" y="-0.25" dx="0.45" dy="1.5" layer="1"/>
<smd name="4" x="0.65" y="-0.25" dx="0.45" dy="1.5" layer="1"/>
<smd name="5" x="1.3" y="-0.25" dx="0.45" dy="1.5" layer="1"/>
<smd name="SHIELD1" x="-2.8" y="0" dx="1.8" dy="1.1" layer="1" roundness="100"/>
<smd name="SHIELD2" x="-2.8" y="0" dx="1.8" dy="1.1" layer="16" roundness="100" cream="no"/>
<smd name="SHIELD3" x="2.8" y="0" dx="1.8" dy="1.1" layer="1" roundness="100" rot="R180"/>
<smd name="SHIELD4" x="2.8" y="0" dx="1.8" dy="1.1" layer="16" roundness="100" rot="R180" cream="no"/>
<smd name="SHIELD5" x="0" y="-2.15" dx="2.2" dy="1.1" layer="1" roundness="100"/>
<smd name="SHIELD6" x="0" y="-2.15" dx="2.2" dy="1.1" layer="16" roundness="100" cream="no"/>
<wire x1="-2.45" y1="-0.25" x2="-2.2" y2="0" width="0" layer="20" curve="90"/>
<wire x1="-2.2" y1="0" x2="-2.45" y2="0.25" width="0" layer="20" curve="90"/>
<wire x1="-2.45" y1="0.25" x2="-3.15" y2="0.25" width="0" layer="20"/>
<wire x1="-3.15" y1="0.25" x2="-3.4" y2="0" width="0" layer="20" curve="90"/>
<wire x1="-3.4" y1="0" x2="-3.15" y2="-0.25" width="0" layer="20" curve="90"/>
<wire x1="-3.15" y1="-0.25" x2="-2.45" y2="-0.25" width="0" layer="20"/>
<wire x1="2.45" y1="0.25" x2="2.2" y2="0" width="0" layer="20" curve="90"/>
<wire x1="2.2" y1="0" x2="2.45" y2="-0.25" width="0" layer="20" curve="90"/>
<wire x1="2.45" y1="-0.25" x2="3.15" y2="-0.25" width="0" layer="20"/>
<wire x1="3.15" y1="-0.25" x2="3.4" y2="0" width="0" layer="20" curve="90"/>
<wire x1="3.4" y1="0" x2="3.15" y2="0.25" width="0" layer="20" curve="90"/>
<wire x1="3.15" y1="0.25" x2="2.45" y2="0.25" width="0" layer="20"/>
<wire x1="0.55" y1="-2.4" x2="0.8" y2="-2.15" width="0" layer="20" curve="90"/>
<wire x1="0.8" y1="-2.15" x2="0.55" y2="-1.9" width="0" layer="20" curve="90"/>
<wire x1="0.55" y1="-1.9" x2="-0.55" y2="-1.9" width="0" layer="20"/>
<wire x1="-0.55" y1="-1.9" x2="-0.8" y2="-2.15" width="0" layer="20" curve="90"/>
<wire x1="-0.8" y1="-2.15" x2="-0.55" y2="-2.4" width="0" layer="20" curve="90"/>
<wire x1="-0.55" y1="-2.4" x2="0.55" y2="-2.4" width="0" layer="20"/>
<wire x1="-4" y1="0.5" x2="-4" y2="-2.5" width="0.127" layer="21"/>
<wire x1="-4" y1="-2.5" x2="-1.5" y2="-2.5" width="0.127" layer="21"/>
<wire x1="1.5" y1="-2.5" x2="4" y2="-2.5" width="0.127" layer="21"/>
<wire x1="4" y1="-2.5" x2="4" y2="0.5" width="0.127" layer="21"/>
<wire x1="3.587190625" y1="-1.53335" x2="2.9888" y2="-2.138109375" width="0.1" layer="51"/>
<wire x1="-2.9888" y1="-2.138109375" x2="-3.587190625" y2="-1.53335" width="0.1" layer="51"/>
<wire x1="-3.56173125" y1="-1.08136875" x2="-3.56173125" y2="-0.4320375" width="0.1" layer="51"/>
<wire x1="-3.56173125" y1="-0.4320375" x2="-3.65085" y2="-0.4320375" width="0.1" layer="51"/>
<wire x1="-3.65085" y1="-0.4320375" x2="-3.752709375" y2="-0.4320375" width="0.1" layer="51"/>
<wire x1="-3.752709375" y1="-0.4320375" x2="-3.84183125" y2="-0.4320375" width="0.1" layer="51"/>
<wire x1="-3.752709375" y1="-1.08136875" x2="-3.65085" y2="-1.08136875" width="0.1" layer="51"/>
<wire x1="-3.65085" y1="-1.08136875" x2="-3.56173125" y2="-1.08136875" width="0.1" layer="51"/>
<wire x1="-3.56173125" y1="-1.08136875" x2="-3.447140625" y2="-1.08136875" width="0.1" layer="51"/>
<wire x1="-3.447140625" y1="-1.08136875" x2="-3.447140625" y2="-1.1513875" width="0.1" layer="51"/>
<wire x1="2.594109375" y1="-2.30361875" x2="2.49861875" y2="-2.30361875" width="0.1" layer="51"/>
<wire x1="-0.60158125" y1="-2.2527" x2="-0.60158125" y2="-2.30361875" width="0.1" layer="51"/>
<wire x1="-0.60158125" y1="-2.30361875" x2="-0.60158125" y2="-2.386378125" width="0.1" layer="51"/>
<wire x1="-0.397871875" y1="-2.35455" x2="-0.397871875" y2="-2.545528125" width="0.1" layer="51"/>
<wire x1="-0.83075" y1="-2.35455" x2="-2.30128125" y2="-2.35455" width="0.1" layer="51"/>
<wire x1="-0.397871875" y1="-2.545528125" x2="2.301278125" y2="-2.545528125" width="0.1" layer="51"/>
<wire x1="-0.83075" y1="-2.545528125" x2="-0.83075" y2="-2.35455" width="0.1" layer="51"/>
<wire x1="-0.83075" y1="-2.545528125" x2="-2.30128125" y2="-2.545528125" width="0.1" layer="51"/>
<wire x1="2.301278125" y1="-2.545528125" x2="2.301278125" y2="-2.35455" width="0.1" layer="51"/>
<wire x1="-0.60158125" y1="-2.2527" x2="-0.627040625" y2="-2.2527" width="0.1" layer="51"/>
<wire x1="-0.627040625" y1="-2.2527" x2="-0.627040625" y2="-2.30361875" width="0.1" layer="51"/>
<wire x1="-0.627040625" y1="-2.30361875" x2="-0.627040625" y2="-2.386378125" width="0.1" layer="51"/>
<wire x1="3.994609375" y1="-0.884028125" x2="3.994609375" y2="-0.6293875" width="0.1" layer="51"/>
<wire x1="3.453509375" y1="-0.4320375" x2="3.453509375" y2="-0.400209375" width="0.1" layer="51"/>
<wire x1="3.752709375" y1="-0.400209375" x2="3.752709375" y2="-0.4320375" width="0.1" layer="51"/>
<wire x1="3.19886875" y1="-0.1519375" x2="3.19886875" y2="-0.145578125" width="0.1" layer="51"/>
<wire x1="3.19886875" y1="-0.145578125" x2="3.19886875" y2="-0.037359375" width="0.1" layer="51"/>
<wire x1="3.19886875" y1="-0.037359375" x2="3.19886875" y2="0.051771875" width="0.1" layer="51"/>
<wire x1="3.19886875" y1="0.051771875" x2="3.19886875" y2="0.14725" width="0.1" layer="51"/>
<wire x1="3.19886875" y1="0.14725" x2="3.19886875" y2="0.23638125" width="0.1" layer="51"/>
<wire x1="3.752709375" y1="-0.4320375" x2="3.65085" y2="-0.4320375" width="0.1" layer="51"/>
<wire x1="3.65085" y1="-0.4320375" x2="3.561728125" y2="-0.4320375" width="0.1" layer="51"/>
<wire x1="3.561728125" y1="-0.4320375" x2="3.453509375" y2="-0.4320375" width="0.1" layer="51"/>
<wire x1="3.001528125" y1="0.20455" x2="3.001528125" y2="0.39553125" width="0.1" layer="51"/>
<wire x1="3.752709375" y1="-0.4320375" x2="3.841828125" y2="-0.4320375" width="0.1" layer="51"/>
<wire x1="3.803628125" y1="-0.6293875" x2="3.803628125" y2="-0.884028125" width="0.1" layer="51"/>
<wire x1="3.803628125" y1="-0.6293875" x2="3.994609375" y2="-0.6293875" width="0.1" layer="51"/>
<wire x1="3.561728125" y1="-0.4320375" x2="3.561728125" y2="-1.08136875" width="0.1" layer="51"/>
<wire x1="3.561728125" y1="-1.08136875" x2="3.65085" y2="-1.08136875" width="0.1" layer="51"/>
<wire x1="3.65085" y1="-1.08136875" x2="3.752709375" y2="-1.08136875" width="0.1" layer="51"/>
<wire x1="3.752709375" y1="-1.08136875" x2="3.841828125" y2="-1.08136875" width="0.1" layer="51"/>
<wire x1="0.84985" y1="-0.164678125" x2="0.84985" y2="-0.1519375" width="0.1" layer="51"/>
<wire x1="-0.945340625" y1="-0.158309375" x2="-0.91988125" y2="-0.164678125" width="0.1" layer="51"/>
<wire x1="-0.84985" y1="-0.164678125" x2="-0.84985" y2="-0.1519375" width="0.1" layer="51"/>
<wire x1="0.91986875" y1="-0.164678125" x2="0.945340625" y2="-0.158309375" width="0.1" layer="51"/>
<wire x1="3.001528125" y1="0.20455" x2="-2.995159375" y2="0.20455" width="0.1" layer="51"/>
<wire x1="-3.198871875" y1="0.23638125" x2="-3.198871875" y2="0.14725" width="0.1" layer="51"/>
<wire x1="-3.198871875" y1="0.14725" x2="-3.198871875" y2="0.051771875" width="0.1" layer="51"/>
<wire x1="-3.198871875" y1="0.051771875" x2="-3.198871875" y2="-0.037359375" width="0.1" layer="51"/>
<wire x1="-3.198871875" y1="-0.037359375" x2="-3.198871875" y2="-0.145578125" width="0.1" layer="51"/>
<wire x1="-3.198871875" y1="-0.145578125" x2="-3.198871875" y2="-0.1519375" width="0.1" layer="51"/>
<wire x1="-0.84985" y1="-0.1519375" x2="0.84985" y2="-0.1519375" width="0.1" layer="51"/>
<wire x1="-0.84985" y1="-0.1519375" x2="-1.174509375" y2="-0.1519375" width="0.1" layer="51"/>
<wire x1="-1.174509375" y1="-0.1519375" x2="-1.42278125" y2="-0.1519375" width="0.1" layer="51"/>
<wire x1="-1.42278125" y1="-0.1519375" x2="-3.198871875" y2="-0.1519375" width="0.1" layer="51"/>
<wire x1="-2.995159375" y1="0.39553125" x2="3.001528125" y2="0.39553125" width="0.1" layer="51"/>
<wire x1="-2.995159375" y1="0.39553125" x2="-2.995159375" y2="0.20455" width="0.1" layer="51"/>
<wire x1="-3.447140625" y1="-0.400209375" x2="-3.447140625" y2="-0.4320375" width="0.1" layer="51"/>
<wire x1="-3.752709375" y1="-1.08136875" x2="-3.84183125" y2="-1.08136875" width="0.1" layer="51"/>
<wire x1="-3.80363125" y1="-0.884028125" x2="-3.80363125" y2="-0.6293875" width="0.1" layer="51"/>
<wire x1="-3.80363125" y1="-0.884028125" x2="-3.994609375" y2="-0.884028125" width="0.1" layer="51"/>
<wire x1="-3.994609375" y1="-0.6293875" x2="-3.80363125" y2="-0.6293875" width="0.1" layer="51"/>
<wire x1="-3.994609375" y1="-0.6293875" x2="-3.994609375" y2="-0.884028125" width="0.1" layer="51"/>
<wire x1="3.19886875" y1="-0.1519375" x2="1.42915" y2="-0.1519375" width="0.1" layer="51"/>
<wire x1="1.42915" y1="-0.1519375" x2="1.174509375" y2="-0.1519375" width="0.1" layer="51"/>
<wire x1="1.174509375" y1="-0.1519375" x2="0.84985" y2="-0.1519375" width="0.1" layer="51"/>
<wire x1="-3.447140625" y1="-0.4320375" x2="-3.56173125" y2="-0.4320375" width="0.1" layer="51"/>
<wire x1="-3.198871875" y1="-0.037359375" x2="3.19886875" y2="-0.037359375" width="0.1" layer="51"/>
<wire x1="3.37711875" y1="-1.32326875" x2="2.772359375" y2="-1.928028125" width="0.1" layer="51"/>
<wire x1="3.453509375" y1="-1.08136875" x2="3.561728125" y2="-1.08136875" width="0.1" layer="51"/>
<wire x1="3.453509375" y1="-1.08136875" x2="3.453509375" y2="-1.1513875" width="0.1" layer="51"/>
<wire x1="3.803628125" y1="-0.884028125" x2="3.994609375" y2="-0.884028125" width="0.1" layer="51"/>
<wire x1="3.453509375" y1="-1.08136875" x2="3.453509375" y2="-0.686678125" width="0.1" layer="51"/>
<wire x1="3.453509375" y1="-0.686678125" x2="3.453509375" y2="-0.4320375" width="0.1" layer="51"/>
<wire x1="-2.772359375" y1="-1.928028125" x2="-3.377121875" y2="-1.32326875" width="0.1" layer="51"/>
<wire x1="-3.447140625" y1="-1.08136875" x2="-3.447140625" y2="-0.686678125" width="0.1" layer="51"/>
<wire x1="-3.447140625" y1="-0.686678125" x2="-3.447140625" y2="-0.4320375" width="0.1" layer="51"/>
<wire x1="-2.498621875" y1="-2.30361875" x2="-2.498621875" y2="-2.20176875" width="0.1" layer="51"/>
<wire x1="-2.498621875" y1="-2.20176875" x2="-2.498621875" y2="-2.11265" width="0.1" layer="51"/>
<wire x1="-2.498621875" y1="-2.11265" x2="-2.498621875" y2="-2.004428125" width="0.1" layer="51"/>
<wire x1="-2.594109375" y1="-2.004428125" x2="-2.498621875" y2="-2.004428125" width="0.1" layer="51"/>
<wire x1="-2.619571875" y1="-2.30361875" x2="-2.498621875" y2="-2.30361875" width="0.1" layer="51"/>
<wire x1="-2.498621875" y1="-2.30361875" x2="-2.498621875" y2="-2.386378125" width="0.1" layer="51"/>
<wire x1="-2.30128125" y1="-2.35455" x2="-2.30128125" y2="-2.545528125" width="0.1" layer="51"/>
<wire x1="2.49861875" y1="-2.30361875" x2="2.49861875" y2="-2.20176875" width="0.1" layer="51"/>
<wire x1="2.49861875" y1="-2.20176875" x2="2.49861875" y2="-2.11265" width="0.1" layer="51"/>
<wire x1="2.49861875" y1="-2.11265" x2="2.49861875" y2="-2.004428125" width="0.1" layer="51"/>
<wire x1="2.49861875" y1="-2.004428125" x2="2.594109375" y2="-2.004428125" width="0.1" layer="51"/>
<wire x1="2.49861875" y1="-2.30361875" x2="2.49861875" y2="-2.386378125" width="0.1" layer="51"/>
<wire x1="2.301278125" y1="-2.35455" x2="-0.397871875" y2="-2.35455" width="0.1" layer="51"/>
<wire x1="-0.60158125" y1="-2.004428125" x2="2.49861875" y2="-2.004428125" width="0.1" layer="51"/>
<wire x1="-0.627040625" y1="-2.004428125" x2="-0.627040625" y2="-2.11265" width="0.1" layer="51"/>
<wire x1="-0.627040625" y1="-2.11265" x2="-0.627040625" y2="-2.20176875" width="0.1" layer="51"/>
<wire x1="-0.627040625" y1="-2.20176875" x2="-0.627040625" y2="-2.2527" width="0.1" layer="51"/>
<wire x1="-0.60158125" y1="-2.30361875" x2="-0.627040625" y2="-2.30361875" width="0.1" layer="51"/>
<wire x1="-0.60158125" y1="-2.2527" x2="-0.60158125" y2="-2.20176875" width="0.1" layer="51"/>
<wire x1="-0.60158125" y1="-2.20176875" x2="-0.60158125" y2="-2.11265" width="0.1" layer="51"/>
<wire x1="-0.60158125" y1="-2.11265" x2="-0.60158125" y2="-2.004428125" width="0.1" layer="51"/>
<wire x1="-0.60158125" y1="-2.11265" x2="2.49861875" y2="-2.11265" width="0.1" layer="51"/>
<wire x1="-0.60158125" y1="-2.004428125" x2="-0.627040625" y2="-2.004428125" width="0.1" layer="51"/>
<wire x1="-0.627040625" y1="-2.11265" x2="-2.498621875" y2="-2.11265" width="0.1" layer="51"/>
<wire x1="-2.498621875" y1="-2.004428125" x2="-0.627040625" y2="-2.004428125" width="0.1" layer="51"/>
<wire x1="-3.752709375" y1="-1.19595" x2="-3.733609375" y2="-1.285078125" width="0.1" layer="51"/>
<wire x1="-3.733609375" y1="-1.285078125" x2="-3.70178125" y2="-1.38056875" width="0.1" layer="51"/>
<wire x1="-3.70178125" y1="-1.38056875" x2="-3.65085" y2="-1.4696875" width="0.1" layer="51"/>
<wire x1="-3.65085" y1="-1.4696875" x2="-3.587190625" y2="-1.539709375" width="0.1" layer="51"/>
<wire x1="3.752709375" y1="-0.400209375" x2="3.73996875" y2="-0.3110875" width="0.1" layer="51"/>
<wire x1="3.73996875" y1="-0.3110875" x2="3.720878125" y2="-0.22196875" width="0.1" layer="51"/>
<wire x1="3.720878125" y1="-0.22196875" x2="3.67631875" y2="-0.126478125" width="0.1" layer="51"/>
<wire x1="3.67631875" y1="-0.126478125" x2="3.612659375" y2="-0.037359375" width="0.1" layer="51"/>
<wire x1="3.612659375" y1="-0.037359375" x2="3.5299" y2="0.0454" width="0.1" layer="51"/>
<wire x1="3.5299" y1="0.0454" x2="3.440778125" y2="0.09633125" width="0.1" layer="51"/>
<wire x1="3.440778125" y1="0.09633125" x2="3.345290625" y2="0.1281625" width="0.1" layer="51"/>
<wire x1="3.345290625" y1="0.1281625" x2="3.256159375" y2="0.14725" width="0.1" layer="51"/>
<wire x1="3.256159375" y1="0.14725" x2="3.19886875" y2="0.14725" width="0.1" layer="51"/>
<wire x1="3.453509375" y1="-0.400209375" x2="3.447140625" y2="-0.34291875" width="0.1" layer="51"/>
<wire x1="3.447140625" y1="-0.34291875" x2="3.421678125" y2="-0.279259375" width="0.1" layer="51"/>
<wire x1="3.421678125" y1="-0.279259375" x2="3.37075" y2="-0.22196875" width="0.1" layer="51"/>
<wire x1="3.37075" y1="-0.22196875" x2="3.313459375" y2="-0.177409375" width="0.1" layer="51"/>
<wire x1="3.313459375" y1="-0.177409375" x2="3.256159375" y2="-0.158309375" width="0.1" layer="51"/>
<wire x1="3.256159375" y1="-0.158309375" x2="3.19886875" y2="-0.145578125" width="0.1" layer="51"/>
<wire x1="-3.198871875" y1="-0.145578125" x2="-3.26253125" y2="-0.158309375" width="0.1" layer="51"/>
<wire x1="-3.26253125" y1="-0.158309375" x2="-3.319821875" y2="-0.18376875" width="0.1" layer="51"/>
<wire x1="-3.319821875" y1="-0.18376875" x2="-3.38348125" y2="-0.228328125" width="0.1" layer="51"/>
<wire x1="-3.38348125" y1="-0.228328125" x2="-3.42168125" y2="-0.285628125" width="0.1" layer="51"/>
<wire x1="-3.42168125" y1="-0.285628125" x2="-3.447140625" y2="-0.3492875" width="0.1" layer="51"/>
<wire x1="-3.447140625" y1="-0.3492875" x2="-3.453509375" y2="-0.400209375" width="0.1" layer="51"/>
<wire x1="-0.945340625" y1="-0.158309375" x2="-0.977171875" y2="-0.145578125" width="0.1" layer="51"/>
<wire x1="0.97716875" y1="-0.145578125" x2="0.945340625" y2="-0.158309375" width="0.1" layer="51"/>
<wire x1="-3.198871875" y1="0.14725" x2="-3.294359375" y2="0.140890625" width="0.1" layer="51"/>
<wire x1="-3.294359375" y1="0.140890625" x2="-3.38348125" y2="0.11543125" width="0.1" layer="51"/>
<wire x1="-3.38348125" y1="0.11543125" x2="-3.472609375" y2="0.07723125" width="0.1" layer="51"/>
<wire x1="-3.472609375" y1="0.07723125" x2="-3.56173125" y2="0.013571875" width="0.1" layer="51"/>
<wire x1="-3.56173125" y1="0.013571875" x2="-3.644490625" y2="-0.07555" width="0.1" layer="51"/>
<wire x1="-3.644490625" y1="-0.07555" x2="-3.695409375" y2="-0.164678125" width="0.1" layer="51"/>
<wire x1="-3.695409375" y1="-0.164678125" x2="-3.733609375" y2="-0.2538" width="0.1" layer="51"/>
<wire x1="-3.733609375" y1="-0.2538" x2="-3.752709375" y2="-0.34291875" width="0.1" layer="51"/>
<wire x1="-3.752709375" y1="-0.34291875" x2="-3.752709375" y2="-0.4320375" width="0.1" layer="51"/>
<wire x1="3.587190625" y1="-1.53335" x2="3.663578125" y2="-1.444228125" width="0.1" layer="51"/>
<wire x1="3.663578125" y1="-1.444228125" x2="3.714509375" y2="-1.3551" width="0.1" layer="51"/>
<wire x1="3.714509375" y1="-1.3551" x2="3.73996875" y2="-1.265978125" width="0.1" layer="51"/>
<wire x1="3.73996875" y1="-1.265978125" x2="3.752709375" y2="-1.19595" width="0.1" layer="51"/>
<wire x1="3.37711875" y1="-1.32326875" x2="3.421678125" y2="-1.265978125" width="0.1" layer="51"/>
<wire x1="3.421678125" y1="-1.265978125" x2="3.447140625" y2="-1.20231875" width="0.1" layer="51"/>
<wire x1="3.447140625" y1="-1.20231875" x2="3.453509375" y2="-1.1513875" width="0.1" layer="51"/>
<wire x1="2.594109375" y1="-2.30361875" x2="2.683228125" y2="-2.297259375" width="0.1" layer="51"/>
<wire x1="2.683228125" y1="-2.297259375" x2="2.77871875" y2="-2.2717875" width="0.1" layer="51"/>
<wire x1="2.77871875" y1="-2.2717875" x2="2.867840625" y2="-2.2336" width="0.1" layer="51"/>
<wire x1="2.867840625" y1="-2.2336" x2="2.95696875" y2="-2.1699375" width="0.1" layer="51"/>
<wire x1="2.95696875" y1="-2.1699375" x2="2.9888" y2="-2.138109375" width="0.1" layer="51"/>
<wire x1="-2.98243125" y1="-2.138109375" x2="-2.893309375" y2="-2.2145" width="0.1" layer="51"/>
<wire x1="-2.893309375" y1="-2.2145" x2="-2.804190625" y2="-2.265428125" width="0.1" layer="51"/>
<wire x1="-2.804190625" y1="-2.265428125" x2="-2.715059375" y2="-2.2908875" width="0.1" layer="51"/>
<wire x1="-2.715059375" y1="-2.2908875" x2="-2.619571875" y2="-2.30361875" width="0.1" layer="51"/>
<wire x1="-3.453509375" y1="-1.1513875" x2="-3.447140625" y2="-1.2086875" width="0.1" layer="51"/>
<wire x1="-3.447140625" y1="-1.2086875" x2="-3.42168125" y2="-1.265978125" width="0.1" layer="51"/>
<wire x1="-3.42168125" y1="-1.265978125" x2="-3.377121875" y2="-1.32326875" width="0.1" layer="51"/>
<wire x1="-2.772359375" y1="-1.928028125" x2="-2.715059375" y2="-1.9726" width="0.1" layer="51"/>
<wire x1="-2.715059375" y1="-1.9726" x2="-2.6514" y2="-1.998059375" width="0.1" layer="51"/>
<wire x1="-2.6514" y1="-1.998059375" x2="-2.594109375" y2="-2.004428125" width="0.1" layer="51"/>
<wire x1="2.594109375" y1="-2.004428125" x2="2.65776875" y2="-1.998059375" width="0.1" layer="51"/>
<wire x1="2.65776875" y1="-1.998059375" x2="2.715059375" y2="-1.9726" width="0.1" layer="51"/>
<wire x1="2.715059375" y1="-1.9726" x2="2.772359375" y2="-1.928028125" width="0.1" layer="51"/>
<wire x1="-0.627040625" y1="-2.386378125" x2="-0.63978125" y2="-2.437309375" width="0.1" layer="51"/>
<wire x1="-0.63978125" y1="-2.437309375" x2="-0.665240625" y2="-2.48186875" width="0.1" layer="51"/>
<wire x1="-0.665240625" y1="-2.48186875" x2="-0.7098" y2="-2.5137" width="0.1" layer="51"/>
<wire x1="-0.7098" y1="-2.5137" x2="-0.767090625" y2="-2.539159375" width="0.1" layer="51"/>
<wire x1="-0.767090625" y1="-2.539159375" x2="-0.83075" y2="-2.545528125" width="0.1" layer="51"/>
<wire x1="-0.60158125" y1="-2.386378125" x2="-0.58885" y2="-2.437309375" width="0.1" layer="51"/>
<wire x1="-0.58885" y1="-2.437309375" x2="-0.56338125" y2="-2.48186875" width="0.1" layer="51"/>
<wire x1="-0.56338125" y1="-2.48186875" x2="-0.518821875" y2="-2.5137" width="0.1" layer="51"/>
<wire x1="-0.518821875" y1="-2.5137" x2="-0.46153125" y2="-2.539159375" width="0.1" layer="51"/>
<wire x1="-0.46153125" y1="-2.539159375" x2="-0.397871875" y2="-2.545528125" width="0.1" layer="51"/>
<wire x1="2.49861875" y1="-2.386378125" x2="2.492259375" y2="-2.437309375" width="0.1" layer="51"/>
<wire x1="2.492259375" y1="-2.437309375" x2="2.460428125" y2="-2.48186875" width="0.1" layer="51"/>
<wire x1="2.460428125" y1="-2.48186875" x2="2.415859375" y2="-2.5137" width="0.1" layer="51"/>
<wire x1="2.415859375" y1="-2.5137" x2="2.364940625" y2="-2.539159375" width="0.1" layer="51"/>
<wire x1="2.364940625" y1="-2.539159375" x2="2.301278125" y2="-2.545528125" width="0.1" layer="51"/>
<wire x1="-0.627040625" y1="-2.20176875" x2="-0.63978125" y2="-2.2527" width="0.1" layer="51"/>
<wire x1="-0.63978125" y1="-2.2527" x2="-0.665240625" y2="-2.297259375" width="0.1" layer="51"/>
<wire x1="-0.665240625" y1="-2.297259375" x2="-0.7098" y2="-2.32271875" width="0.1" layer="51"/>
<wire x1="-0.7098" y1="-2.32271875" x2="-0.767090625" y2="-2.348178125" width="0.1" layer="51"/>
<wire x1="-0.767090625" y1="-2.348178125" x2="-0.83075" y2="-2.35455" width="0.1" layer="51"/>
<wire x1="3.994609375" y1="-0.6293875" x2="3.98825" y2="-0.5720875" width="0.1" layer="51"/>
<wire x1="3.98825" y1="-0.5720875" x2="3.962778125" y2="-0.5148" width="0.1" layer="51"/>
<wire x1="3.962778125" y1="-0.5148" x2="3.93095" y2="-0.4702375" width="0.1" layer="51"/>
<wire x1="3.93095" y1="-0.4702375" x2="3.886390625" y2="-0.444778125" width="0.1" layer="51"/>
<wire x1="3.886390625" y1="-0.444778125" x2="3.841828125" y2="-0.4320375" width="0.1" layer="51"/>
<wire x1="3.803628125" y1="-0.6293875" x2="3.79726875" y2="-0.5720875" width="0.1" layer="51"/>
<wire x1="3.79726875" y1="-0.5720875" x2="3.77816875" y2="-0.5148" width="0.1" layer="51"/>
<wire x1="3.77816875" y1="-0.5148" x2="3.73996875" y2="-0.4702375" width="0.1" layer="51"/>
<wire x1="3.73996875" y1="-0.4702375" x2="3.701778125" y2="-0.444778125" width="0.1" layer="51"/>
<wire x1="3.701778125" y1="-0.444778125" x2="3.65085" y2="-0.4320375" width="0.1" layer="51"/>
<wire x1="3.19886875" y1="0.23638125" x2="3.192509375" y2="0.2873" width="0.1" layer="51"/>
<wire x1="3.192509375" y1="0.2873" x2="3.160678125" y2="0.331871875" width="0.1" layer="51"/>
<wire x1="3.160678125" y1="0.331871875" x2="3.116109375" y2="0.3637" width="0.1" layer="51"/>
<wire x1="3.116109375" y1="0.3637" x2="3.065190625" y2="0.382790625" width="0.1" layer="51"/>
<wire x1="3.065190625" y1="0.382790625" x2="3.001528125" y2="0.39553125" width="0.1" layer="51"/>
<wire x1="3.19886875" y1="0.051771875" x2="3.192509375" y2="0.102690625" width="0.1" layer="51"/>
<wire x1="3.192509375" y1="0.102690625" x2="3.160678125" y2="0.140890625" width="0.1" layer="51"/>
<wire x1="3.160678125" y1="0.140890625" x2="3.116109375" y2="0.172721875" width="0.1" layer="51"/>
<wire x1="3.116109375" y1="0.172721875" x2="3.065190625" y2="0.19818125" width="0.1" layer="51"/>
<wire x1="3.065190625" y1="0.19818125" x2="3.001528125" y2="0.20455" width="0.1" layer="51"/>
<wire x1="-3.84183125" y1="-1.08136875" x2="-3.886390625" y2="-1.0686375" width="0.1" layer="51"/>
<wire x1="-3.886390625" y1="-1.0686375" x2="-3.93095" y2="-1.04316875" width="0.1" layer="51"/>
<wire x1="-3.93095" y1="-1.04316875" x2="-3.96278125" y2="-0.998609375" width="0.1" layer="51"/>
<wire x1="-3.96278125" y1="-0.998609375" x2="-3.98825" y2="-0.947678125" width="0.1" layer="51"/>
<wire x1="-3.98825" y1="-0.947678125" x2="-3.994609375" y2="-0.884028125" width="0.1" layer="51"/>
<wire x1="-3.65085" y1="-0.4320375" x2="-3.70178125" y2="-0.444778125" width="0.1" layer="51"/>
<wire x1="-3.70178125" y1="-0.444778125" x2="-3.73998125" y2="-0.4702375" width="0.1" layer="51"/>
<wire x1="-3.73998125" y1="-0.4702375" x2="-3.778171875" y2="-0.5148" width="0.1" layer="51"/>
<wire x1="-3.778171875" y1="-0.5148" x2="-3.797271875" y2="-0.5720875" width="0.1" layer="51"/>
<wire x1="-3.797271875" y1="-0.5720875" x2="-3.80363125" y2="-0.6293875" width="0.1" layer="51"/>
<wire x1="-3.65085" y1="-1.08136875" x2="-3.70178125" y2="-1.0686375" width="0.1" layer="51"/>
<wire x1="-3.70178125" y1="-1.0686375" x2="-3.73998125" y2="-1.04316875" width="0.1" layer="51"/>
<wire x1="-3.73998125" y1="-1.04316875" x2="-3.778171875" y2="-0.998609375" width="0.1" layer="51"/>
<wire x1="-3.778171875" y1="-0.998609375" x2="-3.797271875" y2="-0.947678125" width="0.1" layer="51"/>
<wire x1="-3.797271875" y1="-0.947678125" x2="-3.80363125" y2="-0.884028125" width="0.1" layer="51"/>
<wire x1="-2.995159375" y1="0.39553125" x2="-3.065190625" y2="0.382790625" width="0.1" layer="51"/>
<wire x1="-3.065190625" y1="0.382790625" x2="-3.116121875" y2="0.3637" width="0.1" layer="51"/>
<wire x1="-3.116121875" y1="0.3637" x2="-3.16068125" y2="0.331871875" width="0.1" layer="51"/>
<wire x1="-3.16068125" y1="0.331871875" x2="-3.192509375" y2="0.2873" width="0.1" layer="51"/>
<wire x1="-3.192509375" y1="0.2873" x2="-3.198871875" y2="0.23638125" width="0.1" layer="51"/>
<wire x1="-2.995159375" y1="0.20455" x2="-3.065190625" y2="0.19818125" width="0.1" layer="51"/>
<wire x1="-3.065190625" y1="0.19818125" x2="-3.116121875" y2="0.172721875" width="0.1" layer="51"/>
<wire x1="-3.116121875" y1="0.172721875" x2="-3.16068125" y2="0.140890625" width="0.1" layer="51"/>
<wire x1="-3.16068125" y1="0.140890625" x2="-3.192509375" y2="0.102690625" width="0.1" layer="51"/>
<wire x1="-3.192509375" y1="0.102690625" x2="-3.198871875" y2="0.051771875" width="0.1" layer="51"/>
<wire x1="-3.84183125" y1="-0.4320375" x2="-3.886390625" y2="-0.444778125" width="0.1" layer="51"/>
<wire x1="-3.886390625" y1="-0.444778125" x2="-3.93095" y2="-0.4702375" width="0.1" layer="51"/>
<wire x1="-3.93095" y1="-0.4702375" x2="-3.96278125" y2="-0.5148" width="0.1" layer="51"/>
<wire x1="-3.96278125" y1="-0.5148" x2="-3.98825" y2="-0.5720875" width="0.1" layer="51"/>
<wire x1="-3.98825" y1="-0.5720875" x2="-3.994609375" y2="-0.6293875" width="0.1" layer="51"/>
<wire x1="3.994609375" y1="-0.884028125" x2="3.98825" y2="-0.947678125" width="0.1" layer="51"/>
<wire x1="3.98825" y1="-0.947678125" x2="3.962778125" y2="-0.998609375" width="0.1" layer="51"/>
<wire x1="3.962778125" y1="-0.998609375" x2="3.93095" y2="-1.04316875" width="0.1" layer="51"/>
<wire x1="3.93095" y1="-1.04316875" x2="3.886390625" y2="-1.0686375" width="0.1" layer="51"/>
<wire x1="3.886390625" y1="-1.0686375" x2="3.841828125" y2="-1.08136875" width="0.1" layer="51"/>
<wire x1="3.803628125" y1="-0.884028125" x2="3.79726875" y2="-0.947678125" width="0.1" layer="51"/>
<wire x1="3.79726875" y1="-0.947678125" x2="3.77816875" y2="-0.998609375" width="0.1" layer="51"/>
<wire x1="3.77816875" y1="-0.998609375" x2="3.73996875" y2="-1.04316875" width="0.1" layer="51"/>
<wire x1="3.73996875" y1="-1.04316875" x2="3.701778125" y2="-1.0686375" width="0.1" layer="51"/>
<wire x1="3.701778125" y1="-1.0686375" x2="3.65085" y2="-1.08136875" width="0.1" layer="51"/>
<wire x1="-2.30128125" y1="-2.35455" x2="-2.364940625" y2="-2.348178125" width="0.1" layer="51"/>
<wire x1="-2.364940625" y1="-2.348178125" x2="-2.42223125" y2="-2.32271875" width="0.1" layer="51"/>
<wire x1="-2.42223125" y1="-2.32271875" x2="-2.46043125" y2="-2.297259375" width="0.1" layer="51"/>
<wire x1="-2.46043125" y1="-2.297259375" x2="-2.492259375" y2="-2.2527" width="0.1" layer="51"/>
<wire x1="-2.492259375" y1="-2.2527" x2="-2.498621875" y2="-2.20176875" width="0.1" layer="51"/>
<wire x1="-2.30128125" y1="-2.545528125" x2="-2.364940625" y2="-2.539159375" width="0.1" layer="51"/>
<wire x1="-2.364940625" y1="-2.539159375" x2="-2.42223125" y2="-2.5137" width="0.1" layer="51"/>
<wire x1="-2.42223125" y1="-2.5137" x2="-2.46043125" y2="-2.48186875" width="0.1" layer="51"/>
<wire x1="-2.46043125" y1="-2.48186875" x2="-2.492259375" y2="-2.437309375" width="0.1" layer="51"/>
<wire x1="-2.492259375" y1="-2.437309375" x2="-2.498621875" y2="-2.386378125" width="0.1" layer="51"/>
<wire x1="-0.60158125" y1="-2.20176875" x2="-0.58885" y2="-2.2527" width="0.1" layer="51"/>
<wire x1="-0.58885" y1="-2.2527" x2="-0.56338125" y2="-2.297259375" width="0.1" layer="51"/>
<wire x1="-0.56338125" y1="-2.297259375" x2="-0.518821875" y2="-2.32271875" width="0.1" layer="51"/>
<wire x1="-0.518821875" y1="-2.32271875" x2="-0.46153125" y2="-2.348178125" width="0.1" layer="51"/>
<wire x1="-0.46153125" y1="-2.348178125" x2="-0.397871875" y2="-2.35455" width="0.1" layer="51"/>
<wire x1="2.49861875" y1="-2.20176875" x2="2.492259375" y2="-2.2527" width="0.1" layer="51"/>
<wire x1="2.492259375" y1="-2.2527" x2="2.460428125" y2="-2.297259375" width="0.1" layer="51"/>
<wire x1="2.460428125" y1="-2.297259375" x2="2.415859375" y2="-2.32271875" width="0.1" layer="51"/>
<wire x1="2.415859375" y1="-2.32271875" x2="2.364940625" y2="-2.348178125" width="0.1" layer="51"/>
<wire x1="2.364940625" y1="-2.348178125" x2="2.301278125" y2="-2.35455" width="0.1" layer="51"/>
<wire x1="1.42915" y1="-0.164678125" x2="1.42915" y2="-0.1519375" width="0.1" layer="51"/>
<wire x1="1.174509375" y1="-0.164678125" x2="1.174509375" y2="-0.1519375" width="0.1" layer="51"/>
<wire x1="-1.174509375" y1="-0.164678125" x2="-1.174509375" y2="-0.1519375" width="0.1" layer="51"/>
<wire x1="-1.42278125" y1="-0.1519375" x2="-1.42278125" y2="-0.164678125" width="0.1" layer="51"/>
<wire x1="-3.752709375" y1="-1.08136875" x2="-3.752709375" y2="-1.19595" width="0.1" layer="51"/>
<wire x1="-3.28163125" y1="-1.425128125" x2="-3.28163125" y2="-0.5148" width="0.1" layer="51"/>
<wire x1="-3.28163125" y1="-0.5148" x2="-3.42805" y2="-0.5148" width="0.1" layer="51"/>
<wire x1="-3.42805" y1="-1.246878125" x2="-3.42805" y2="-1.18321875" width="0.1" layer="51"/>
<wire x1="-3.42805" y1="-1.18321875" x2="-3.42805" y2="-0.686678125" width="0.1" layer="51"/>
<wire x1="-3.42805" y1="-0.686678125" x2="-3.42805" y2="-0.5148" width="0.1" layer="51"/>
<wire x1="-3.42805" y1="-0.686678125" x2="-3.447140625" y2="-0.686678125" width="0.1" layer="51"/>
<wire x1="-3.447140625" y1="-1.18321875" x2="-3.42805" y2="-1.18321875" width="0.1" layer="51"/>
<wire x1="3.07791875" y1="-0.317459375" x2="3.07791875" y2="-0.164678125" width="0.1" layer="51"/>
<wire x1="3.428040625" y1="-0.686678125" x2="3.453509375" y2="-0.686678125" width="0.1" layer="51"/>
<wire x1="3.428040625" y1="-0.5148" x2="3.281628125" y2="-0.5148" width="0.1" layer="51"/>
<wire x1="3.428040625" y1="-0.5148" x2="3.428040625" y2="-0.686678125" width="0.1" layer="51"/>
<wire x1="-3.077921875" y1="-0.317459375" x2="-3.077921875" y2="-0.164678125" width="0.1" layer="51"/>
<wire x1="-3.077921875" y1="-0.164678125" x2="3.07791875" y2="-0.164678125" width="0.1" layer="51"/>
<wire x1="-3.077921875" y1="-0.317459375" x2="3.07791875" y2="-0.317459375" width="0.1" layer="51"/>
<wire x1="3.752709375" y1="-1.19595" x2="3.752709375" y2="-1.08136875" width="0.1" layer="51"/>
<wire x1="3.447140625" y1="-1.18321875" x2="3.428040625" y2="-1.18321875" width="0.1" layer="51"/>
<wire x1="3.428040625" y1="-1.18321875" x2="3.428040625" y2="-1.246878125" width="0.1" layer="51"/>
<wire x1="3.281628125" y1="-1.425128125" x2="3.281628125" y2="-0.5148" width="0.1" layer="51"/>
<wire x1="3.428040625" y1="-0.686678125" x2="3.428040625" y2="-1.18321875" width="0.1" layer="51"/>
<wire x1="3.428040625" y1="-0.5148" x2="3.421678125" y2="-0.444778125" width="0.1" layer="51"/>
<wire x1="3.421678125" y1="-0.444778125" x2="3.402578125" y2="-0.37475" width="0.1" layer="51"/>
<wire x1="3.402578125" y1="-0.37475" x2="3.35801875" y2="-0.304728125" width="0.1" layer="51"/>
<wire x1="3.35801875" y1="-0.304728125" x2="3.287990625" y2="-0.24106875" width="0.1" layer="51"/>
<wire x1="3.287990625" y1="-0.24106875" x2="3.21796875" y2="-0.196509375" width="0.1" layer="51"/>
<wire x1="3.21796875" y1="-0.196509375" x2="3.147940625" y2="-0.177409375" width="0.1" layer="51"/>
<wire x1="3.147940625" y1="-0.177409375" x2="3.07791875" y2="-0.164678125" width="0.1" layer="51"/>
<wire x1="3.281628125" y1="-0.5148" x2="3.275259375" y2="-0.46386875" width="0.1" layer="51"/>
<wire x1="3.275259375" y1="-0.46386875" x2="3.2498" y2="-0.41295" width="0.1" layer="51"/>
<wire x1="3.2498" y1="-0.41295" x2="3.205240625" y2="-0.36201875" width="0.1" layer="51"/>
<wire x1="3.205240625" y1="-0.36201875" x2="3.154309375" y2="-0.3301875" width="0.1" layer="51"/>
<wire x1="3.154309375" y1="-0.3301875" x2="3.09701875" y2="-0.317459375" width="0.1" layer="51"/>
<wire x1="3.09701875" y1="-0.317459375" x2="3.07791875" y2="-0.317459375" width="0.1" layer="51"/>
<wire x1="-3.077921875" y1="-0.164678125" x2="-3.154309375" y2="-0.177409375" width="0.1" layer="51"/>
<wire x1="-3.154309375" y1="-0.177409375" x2="-3.224340625" y2="-0.196509375" width="0.1" layer="51"/>
<wire x1="-3.224340625" y1="-0.196509375" x2="-3.294359375" y2="-0.24106875" width="0.1" layer="51"/>
<wire x1="-3.294359375" y1="-0.24106875" x2="-3.358021875" y2="-0.304728125" width="0.1" layer="51"/>
<wire x1="-3.358021875" y1="-0.304728125" x2="-3.40258125" y2="-0.37475" width="0.1" layer="51"/>
<wire x1="-3.40258125" y1="-0.37475" x2="-3.42168125" y2="-0.4511375" width="0.1" layer="51"/>
<wire x1="-3.42168125" y1="-0.4511375" x2="-3.42805" y2="-0.5148" width="0.1" layer="51"/>
<wire x1="-3.077921875" y1="-0.317459375" x2="-3.135209375" y2="-0.32381875" width="0.1" layer="51"/>
<wire x1="-3.135209375" y1="-0.32381875" x2="-3.186140625" y2="-0.3492875" width="0.1" layer="51"/>
<wire x1="-3.186140625" y1="-0.3492875" x2="-3.237071875" y2="-0.39385" width="0.1" layer="51"/>
<wire x1="-3.237071875" y1="-0.39385" x2="-3.2689" y2="-0.444778125" width="0.1" layer="51"/>
<wire x1="-3.2689" y1="-0.444778125" x2="-3.28163125" y2="-0.4957" width="0.1" layer="51"/>
<wire x1="-3.28163125" y1="-0.4957" x2="-3.28163125" y2="-0.5148" width="0.1" layer="51"/>
<text x="0" y="1.6" size="0.32" layer="25" align="center">&gt;NAME</text>
<text x="0" y="1.2" size="0.32" layer="27" align="center">&gt;VALUE</text>
</package>
</packages>
<packages3d>
<package3d name="105133-0011" urn="urn:adsk.eagle:package:7017720/2" type="model">
<packageinstances>
<packageinstance name="105133-0011"/>
</packageinstances>
</package3d>
<package3d name="47491-" urn="urn:adsk.eagle:package:7387376/2" type="model">
<packageinstances>
<packageinstance name="47491-"/>
</packageinstances>
</package3d>
</packages3d>
<symbols>
<symbol name="USB-B-MICRO-SHIELD">
<wire x1="-10.16" y1="15.24" x2="10.16" y2="15.24" width="0.254" layer="94"/>
<wire x1="10.16" y1="15.24" x2="10.16" y2="-15.24" width="0.254" layer="94"/>
<wire x1="10.16" y1="-15.24" x2="-10.16" y2="-15.24" width="0.254" layer="94"/>
<wire x1="-10.16" y1="-15.24" x2="-10.16" y2="15.24" width="0.254" layer="94"/>
<text x="-10.16" y="16.002" size="1.778" layer="95">&gt;NAME</text>
<text x="-10.16" y="-16.002" size="1.778" layer="96" rot="MR180">&gt;VALUE</text>
<pin name="D-" x="12.7" y="-12.7" length="short" rot="R180"/>
<pin name="VBUS" x="12.7" y="12.7" length="short" direction="pwr" rot="R180"/>
<pin name="GND" x="12.7" y="0" length="short" direction="pwr" rot="R180"/>
<pin name="D+" x="12.7" y="-10.16" length="short" rot="R180"/>
<pin name="SHIELD" x="12.7" y="-2.54" visible="pin" length="short" direction="pas" rot="R180"/>
<text x="-5.08" y="0" size="2.54" layer="95" rot="R90" align="center">USB</text>
<pin name="ID" x="12.7" y="-7.62" length="short" rot="R180"/>
</symbol>
</symbols>
<devicesets>
<deviceset name="47491-" prefix="CN">
<gates>
<gate name="G$1" symbol="USB-B-MICRO-SHIELD" x="0" y="0"/>
</gates>
<devices>
<device name="" package="47491-">
<connects>
<connect gate="G$1" pin="D+" pad="3"/>
<connect gate="G$1" pin="D-" pad="2"/>
<connect gate="G$1" pin="GND" pad="5"/>
<connect gate="G$1" pin="ID" pad="4"/>
<connect gate="G$1" pin="SHIELD" pad="SHIELD@1 SHIELD@2 SHIELD@3 SHIELD@4 SHIELD@5 SHIELD@6"/>
<connect gate="G$1" pin="VBUS" pad="1"/>
</connects>
<package3dinstances>
<package3dinstance package3d_urn="urn:adsk.eagle:package:7387376/2"/>
</package3dinstances>
<technologies>
<technology name="0001">
<attribute name="OC_TME" value="MX-47491-0001" constant="no"/>
</technology>
<technology name="0002">
<attribute name="OC_TME" value="" constant="no"/>
</technology>
</technologies>
</device>
</devices>
</deviceset>
<deviceset name="USB3130" prefix="CN">
<description>&lt;h1&gt;GCT USB-3130&lt;/h1&gt;

&lt;p&gt;Footprint compatible with: WELLCO MUB5B-0105B002 (Maritex)&lt;/p&gt;</description>
<gates>
<gate name="CN" symbol="USB-B-MICRO-SHIELD" x="0" y="0"/>
</gates>
<devices>
<device name="-30-A" package="USB3130">
<connects>
<connect gate="CN" pin="D+" pad="3"/>
<connect gate="CN" pin="D-" pad="2"/>
<connect gate="CN" pin="GND" pad="5"/>
<connect gate="CN" pin="ID" pad="4"/>
<connect gate="CN" pin="SHIELD" pad="SHIELD1 SHIELD2 SHIELD3 SHIELD4"/>
<connect gate="CN" pin="VBUS" pad="1"/>
</connects>
<technologies>
<technology name=""/>
</technologies>
</device>
</devices>
</deviceset>
<deviceset name="105133-0011" prefix="CN">
<gates>
<gate name="CN" symbol="USB-B-MICRO-SHIELD" x="0" y="0"/>
</gates>
<devices>
<device name="" package="105133-0011">
<connects>
<connect gate="CN" pin="D+" pad="3"/>
<connect gate="CN" pin="D-" pad="2"/>
<connect gate="CN" pin="GND" pad="5"/>
<connect gate="CN" pin="ID" pad="4"/>
<connect gate="CN" pin="SHIELD" pad="SHIELD1 SHIELD2 SHIELD3 SHIELD4 SHIELD5 SHIELD6"/>
<connect gate="CN" pin="VBUS" pad="1"/>
</connects>
<package3dinstances>
<package3dinstance package3d_urn="urn:adsk.eagle:package:7017720/2"/>
</package3dinstances>
<technologies>
<technology name=""/>
</technologies>
</device>
</devices>
</deviceset>
</devicesets>
</library>
</drawing>
<compatibility>
<note version="8.3" severity="warning">
Since Version 8.3, EAGLE supports URNs for individual library
assets (packages, symbols, and devices). The URNs of those assets
will not be understood (or retained) with this version.
</note>
<note version="8.3" severity="warning">
Since Version 8.3, EAGLE supports the association of 3D packages
with devices in libraries, schematics, and board files. Those 3D
packages will not be understood (or retained) with this version.
</note>
</compatibility>
</eagle>
