<?xml version="1.0" encoding="utf-8"?>
<!DOCTYPE eagle SYSTEM "eagle.dtd">
<eagle version="9.2.2">
<drawing>
<settings>
<setting alwaysvectorfont="no"/>
<setting keepoldvectorfont="yes"/>
<setting verticaltext="up"/>
</settings>
<grid distance="1" unitdist="mm" unit="mm" style="dots" multiple="1" display="yes" altdistance="0.1" altunitdist="mm" altunit="mm"/>
<layers>
<layer number="1" name="Top" color="4" fill="1" visible="yes" active="yes"/>
<layer number="16" name="Bottom" color="1" fill="1" visible="yes" active="yes"/>
<layer number="17" name="Pads" color="2" fill="1" visible="yes" active="yes"/>
<layer number="18" name="Vias" color="2" fill="1" visible="yes" active="yes"/>
<layer number="19" name="Unrouted" color="6" fill="1" visible="yes" active="yes"/>
<layer number="20" name="Dimension" color="15" fill="1" visible="yes" active="yes"/>
<layer number="21" name="tPlace" color="7" fill="1" visible="yes" active="yes"/>
<layer number="22" name="bPlace" color="7" fill="1" visible="yes" active="yes"/>
<layer number="23" name="tOrigins" color="15" fill="1" visible="yes" active="yes"/>
<layer number="24" name="bOrigins" color="15" fill="1" visible="yes" active="yes"/>
<layer number="25" name="tNames" color="7" fill="1" visible="yes" active="yes"/>
<layer number="26" name="bNames" color="7" fill="1" visible="yes" active="yes"/>
<layer number="27" name="tValues" color="7" fill="1" visible="yes" active="yes"/>
<layer number="28" name="bValues" color="7" fill="1" visible="yes" active="yes"/>
<layer number="29" name="tStop" color="7" fill="3" visible="yes" active="yes"/>
<layer number="30" name="bStop" color="7" fill="6" visible="no" active="yes"/>
<layer number="31" name="tCream" color="7" fill="4" visible="no" active="yes"/>
<layer number="32" name="bCream" color="7" fill="5" visible="no" active="yes"/>
<layer number="33" name="tFinish" color="6" fill="3" visible="no" active="yes"/>
<layer number="34" name="bFinish" color="6" fill="6" visible="no" active="yes"/>
<layer number="35" name="tGlue" color="7" fill="4" visible="no" active="yes"/>
<layer number="36" name="bGlue" color="7" fill="5" visible="no" active="yes"/>
<layer number="37" name="tTest" color="7" fill="1" visible="no" active="yes"/>
<layer number="38" name="bTest" color="7" fill="1" visible="no" active="yes"/>
<layer number="39" name="tKeepout" color="4" fill="11" visible="yes" active="yes"/>
<layer number="40" name="bKeepout" color="1" fill="11" visible="yes" active="yes"/>
<layer number="41" name="tRestrict" color="4" fill="10" visible="yes" active="yes"/>
<layer number="42" name="bRestrict" color="1" fill="10" visible="yes" active="yes"/>
<layer number="43" name="vRestrict" color="2" fill="10" visible="yes" active="yes"/>
<layer number="44" name="Drills" color="7" fill="1" visible="no" active="yes"/>
<layer number="45" name="Holes" color="7" fill="1" visible="no" active="yes"/>
<layer number="46" name="Milling" color="3" fill="1" visible="no" active="yes"/>
<layer number="47" name="Measures" color="7" fill="1" visible="no" active="yes"/>
<layer number="48" name="Document" color="7" fill="1" visible="yes" active="yes"/>
<layer number="49" name="Reference" color="7" fill="1" visible="yes" active="yes"/>
<layer number="51" name="tDocu" color="7" fill="1" visible="yes" active="yes"/>
<layer number="52" name="bDocu" color="7" fill="1" visible="yes" active="yes"/>
<layer number="90" name="Modules" color="5" fill="1" visible="yes" active="yes"/>
<layer number="91" name="Nets" color="2" fill="1" visible="yes" active="yes"/>
<layer number="92" name="Busses" color="1" fill="1" visible="yes" active="yes"/>
<layer number="93" name="Pins" color="2" fill="1" visible="yes" active="yes"/>
<layer number="94" name="Symbols" color="4" fill="1" visible="yes" active="yes"/>
<layer number="95" name="Names" color="7" fill="1" visible="yes" active="yes"/>
<layer number="96" name="Values" color="7" fill="1" visible="yes" active="yes"/>
<layer number="97" name="Info" color="7" fill="1" visible="yes" active="yes"/>
<layer number="98" name="Guide" color="6" fill="1" visible="yes" active="yes"/>
</layers>
<library>
<packages>
<package name="SOT89-5" urn="urn:adsk.eagle:footprint:7245062/1" locally_modified="yes">
<wire x1="2.235" y1="-1.245" x2="-2.235" y2="-1.245" width="0.127" layer="51"/>
<wire x1="2.235" y1="1.219" x2="2.235" y2="-1.245" width="0.127" layer="51"/>
<wire x1="-2.235" y1="-1.245" x2="-2.235" y2="1.219" width="0.127" layer="51"/>
<wire x1="-2.235" y1="1.219" x2="2.235" y2="1.219" width="0.127" layer="51"/>
<wire x1="-0.7874" y1="1.5748" x2="-0.3556" y2="2.0066" width="0.1998" layer="51"/>
<wire x1="-0.3556" y1="2.0066" x2="0.3556" y2="2.0066" width="0.1998" layer="51"/>
<wire x1="0.3556" y1="2.0066" x2="0.7874" y2="1.5748" width="0.1998" layer="51"/>
<wire x1="0.7874" y1="1.5748" x2="0.7874" y2="1.2954" width="0.1998" layer="51"/>
<wire x1="0.7874" y1="1.2954" x2="-0.7874" y2="1.2954" width="0.1998" layer="51"/>
<wire x1="-0.7874" y1="1.2954" x2="-0.7874" y2="1.5748" width="0.1998" layer="51"/>
<smd name="1" x="-1.5" y="-1.65" dx="0.68" dy="1.2" layer="1"/>
<smd name="3" x="1.5" y="-1.65" dx="0.68" dy="1.2" layer="1"/>
<smd name="2" x="0" y="-1.65" dx="0.76" dy="1.2" layer="1"/>
<smd name="PAD" x="0" y="0.49" dx="1.93" dy="3.05" layer="1"/>
<smd name="4" x="1.5" y="1.65" dx="0.68" dy="1.2" layer="1" rot="R180"/>
<smd name="5" x="-1.5" y="1.65" dx="0.68" dy="1.2" layer="1" rot="R180"/>
<text x="-2.54" y="3.175" size="1.27" layer="25">&gt;NAME</text>
<text x="-2.4051" y="-4.3449" size="1.27" layer="27">&gt;VALUE</text>
<rectangle x1="-1.7272" y1="-2.1082" x2="-1.27" y2="-1.27" layer="51"/>
<rectangle x1="1.27" y1="-2.1082" x2="1.7272" y2="-1.27" layer="51"/>
<rectangle x1="-0.2794" y1="-2.1082" x2="0.2794" y2="-1.27" layer="51"/>
<polygon width="0.1998" layer="51">
<vertex x="-0.7874" y="1.3208"/>
<vertex x="-0.7874" y="1.5748"/>
<vertex x="-0.3556" y="2.0066"/>
<vertex x="0.3048" y="2.0066"/>
<vertex x="0.3556" y="2.0066"/>
<vertex x="0.7874" y="1.5748"/>
<vertex x="0.7874" y="1.2954"/>
<vertex x="-0.7874" y="1.2954"/>
</polygon>
</package>
</packages>
<packages3d>
<package3d name="SOT89-5" urn="urn:adsk.eagle:package:7245070/2" locally_modified="yes" type="model">
<description>&lt;b&gt;SOT98&lt;/b&gt; PK (R-PDSO-G3)&lt;p&gt;
Source: http://focus.ti.com/lit/ds/symlink/ua78l05.pdf</description>
<packageinstances>
<packageinstance name="SOT89-5"/>
</packageinstances>
</package3d>
</packages3d>
<symbols>
<symbol name="PT4115">
<wire x1="-10.16" y1="12.7" x2="10.16" y2="12.7" width="0.4064" layer="94"/>
<wire x1="10.16" y1="12.7" x2="10.16" y2="-12.7" width="0.4064" layer="94"/>
<wire x1="10.16" y1="-12.7" x2="-10.16" y2="-12.7" width="0.4064" layer="94"/>
<wire x1="-10.16" y1="-12.7" x2="-10.16" y2="12.7" width="0.4064" layer="94"/>
<pin name="GND" x="-15.24" y="-2.54" length="middle" direction="pwr"/>
<pin name="DIM" x="-15.24" y="-10.16" length="middle" direction="in"/>
<pin name="CSN" x="15.24" y="10.16" length="middle" direction="pas" rot="R180"/>
<pin name="VIN" x="-15.24" y="10.16" length="middle" direction="pwr"/>
<pin name="SW" x="15.24" y="-10.16" length="middle" direction="oc" rot="R180"/>
<text x="-10.16" y="13.462" size="1.778" layer="95">&gt;NAME</text>
<text x="-10.16" y="-13.462" size="1.778" layer="96" rot="MR180">&gt;VALUE</text>
</symbol>
</symbols>
<devicesets>
<deviceset name="PT4115" prefix="IC">
<gates>
<gate name="A" symbol="PT4115" x="0" y="0"/>
</gates>
<devices>
<device name="" package="SOT89-5">
<connects>
<connect gate="A" pin="CSN" pad="4"/>
<connect gate="A" pin="DIM" pad="3"/>
<connect gate="A" pin="GND" pad="2 PAD"/>
<connect gate="A" pin="SW" pad="1"/>
<connect gate="A" pin="VIN" pad="5"/>
</connects>
<package3dinstances>
<package3dinstance package3d_urn="urn:adsk.eagle:package:7245070/2"/>
</package3dinstances>
<technologies>
<technology name="">
<attribute name="MF" value="POWTECH" constant="no"/>
<attribute name="MPN" value="PT4115B89E" constant="no"/>
</technology>
</technologies>
</device>
</devices>
</deviceset>
</devicesets>
</library>
</drawing>
<compatibility>
<note version="8.3" severity="warning">
Since Version 8.3, EAGLE supports URNs for individual library
assets (packages, symbols, and devices). The URNs of those assets
will not be understood (or retained) with this version.
</note>
<note version="8.3" severity="warning">
Since Version 8.3, EAGLE supports the association of 3D packages
with devices in libraries, schematics, and board files. Those 3D
packages will not be understood (or retained) with this version.
</note>
</compatibility>
</eagle>
