<?xml version="1.0" encoding="utf-8"?>
<!DOCTYPE eagle SYSTEM "eagle.dtd">
<eagle version="9.2.2">
<drawing>
<settings>
<setting alwaysvectorfont="no"/>
<setting verticaltext="up"/>
</settings>
<grid distance="1" unitdist="mm" unit="mm" style="dots" multiple="1" display="yes" altdistance="0.1" altunitdist="mm" altunit="mm"/>
<layers>
<layer number="1" name="Top" color="4" fill="1" visible="yes" active="yes"/>
<layer number="2" name="Route2" color="16" fill="1" visible="no" active="yes"/>
<layer number="15" name="Route15" color="23" fill="1" visible="no" active="yes"/>
<layer number="16" name="Bottom" color="1" fill="1" visible="yes" active="yes"/>
<layer number="17" name="Pads" color="2" fill="1" visible="yes" active="yes"/>
<layer number="18" name="Vias" color="2" fill="1" visible="yes" active="yes"/>
<layer number="19" name="Unrouted" color="6" fill="1" visible="yes" active="yes"/>
<layer number="20" name="Dimension" color="24" fill="1" visible="yes" active="yes"/>
<layer number="21" name="tPlace" color="42" fill="1" visible="yes" active="yes"/>
<layer number="22" name="bPlace" color="47" fill="1" visible="yes" active="yes"/>
<layer number="23" name="tOrigins" color="43" fill="1" visible="yes" active="yes"/>
<layer number="24" name="bOrigins" color="39" fill="1" visible="yes" active="yes"/>
<layer number="25" name="tNames" color="42" fill="1" visible="yes" active="yes"/>
<layer number="26" name="bNames" color="47" fill="1" visible="yes" active="yes"/>
<layer number="27" name="tValues" color="42" fill="1" visible="yes" active="yes"/>
<layer number="28" name="bValues" color="47" fill="1" visible="yes" active="yes"/>
<layer number="29" name="tStop" color="42" fill="3" visible="no" active="yes"/>
<layer number="30" name="bStop" color="47" fill="6" visible="no" active="yes"/>
<layer number="31" name="tCream" color="42" fill="4" visible="no" active="yes"/>
<layer number="32" name="bCream" color="47" fill="5" visible="no" active="yes"/>
<layer number="33" name="tFinish" color="6" fill="3" visible="no" active="yes"/>
<layer number="34" name="bFinish" color="6" fill="6" visible="no" active="yes"/>
<layer number="35" name="tGlue" color="7" fill="4" visible="yes" active="yes"/>
<layer number="36" name="bGlue" color="7" fill="5" visible="no" active="yes"/>
<layer number="37" name="tTest" color="7" fill="1" visible="no" active="yes"/>
<layer number="38" name="bTest" color="7" fill="1" visible="no" active="yes"/>
<layer number="39" name="tKeepout" color="4" fill="11" visible="yes" active="yes"/>
<layer number="40" name="bKeepout" color="1" fill="11" visible="yes" active="yes"/>
<layer number="41" name="tRestrict" color="4" fill="10" visible="yes" active="yes"/>
<layer number="42" name="bRestrict" color="1" fill="10" visible="yes" active="yes"/>
<layer number="43" name="vRestrict" color="2" fill="10" visible="yes" active="yes"/>
<layer number="44" name="Drills" color="7" fill="1" visible="no" active="yes"/>
<layer number="45" name="Holes" color="7" fill="1" visible="no" active="yes"/>
<layer number="46" name="Milling" color="3" fill="1" visible="no" active="yes"/>
<layer number="47" name="Measures" color="7" fill="1" visible="no" active="yes"/>
<layer number="48" name="Document" color="7" fill="1" visible="yes" active="yes"/>
<layer number="49" name="Reference" color="7" fill="1" visible="yes" active="yes"/>
<layer number="51" name="tDocu" color="42" fill="11" visible="yes" active="yes"/>
<layer number="52" name="bDocu" color="47" fill="11" visible="yes" active="yes"/>
<layer number="88" name="SimResults" color="9" fill="1" visible="yes" active="yes"/>
<layer number="89" name="SimProbes" color="9" fill="1" visible="yes" active="yes"/>
<layer number="90" name="Modules" color="5" fill="1" visible="yes" active="yes"/>
<layer number="91" name="Nets" color="2" fill="1" visible="yes" active="yes"/>
<layer number="92" name="Busses" color="1" fill="1" visible="yes" active="yes"/>
<layer number="93" name="Pins" color="2" fill="1" visible="no" active="yes"/>
<layer number="94" name="Symbols" color="4" fill="1" visible="yes" active="yes"/>
<layer number="95" name="Names" color="7" fill="1" visible="yes" active="yes"/>
<layer number="96" name="Values" color="7" fill="1" visible="yes" active="yes"/>
<layer number="97" name="Info" color="7" fill="1" visible="yes" active="yes"/>
<layer number="98" name="Guide" color="6" fill="1" visible="yes" active="yes"/>
</layers>
<library>
<packages>
<package name="PA1A-PS-HORIZONTAL" urn="urn:adsk.eagle:footprint:6226245/2" locally_modified="yes">
<pad name="1" x="-8.89" y="0" drill="0.7"/>
<pad name="2" x="-6.35" y="0" drill="0.7"/>
<pad name="NO" x="8.89" y="0" drill="1"/>
<pad name="COM" x="3.81" y="0" drill="1"/>
<wire x1="-11.2" y1="19.1" x2="11.2" y2="19.1" width="0.2032" layer="21"/>
<wire x1="11.2" y1="19.1" x2="11.2" y2="1" width="0.2032" layer="21"/>
<wire x1="11.2" y1="1" x2="-11.2" y2="1" width="0.2032" layer="21"/>
<wire x1="-11.2" y1="1" x2="-11.2" y2="19.1" width="0.2032" layer="21"/>
<wire x1="11.3" y1="15.595240625" x2="11.3" y2="3.295240625" width="0.1524" layer="51"/>
<wire x1="11.3" y1="3.295240625" x2="11.3" y2="2.995240625" width="0.1524" layer="51"/>
<wire x1="11.3" y1="2.995240625" x2="11.3" y2="1.295240625" width="0.1524" layer="51"/>
<wire x1="-11.3" y1="15.595240625" x2="-11.3" y2="3.295240625" width="0.1524" layer="51"/>
<wire x1="-11.3" y1="3.295240625" x2="-11.3" y2="2.995240625" width="0.1524" layer="51"/>
<wire x1="-11.3" y1="2.995240625" x2="-11.3" y2="1.295240625" width="0.1524" layer="51"/>
<wire x1="-9.6" y1="6.595240625" x2="-5.21" y2="6.595240625" width="0.1524" layer="51"/>
<wire x1="-5.21" y1="6.595240625" x2="-2.41" y2="6.595240625" width="0.1524" layer="51"/>
<wire x1="-2.41" y1="6.595240625" x2="4.95" y2="6.595240625" width="0.1524" layer="51"/>
<wire x1="4.95" y1="6.595240625" x2="7.75" y2="6.595240625" width="0.1524" layer="51"/>
<wire x1="7.75" y1="6.595240625" x2="9.6" y2="6.595240625" width="0.1524" layer="51"/>
<wire x1="-11.3" y1="1.295240625" x2="-10.6" y2="1.295240625" width="0.1524" layer="51"/>
<wire x1="-10.6" y1="1.595240625" x2="-10.6" y2="1.295240625" width="0.1524" layer="51"/>
<wire x1="10.6" y1="1.595240625" x2="10.6" y2="1.295240625" width="0.1524" layer="51"/>
<wire x1="10.6" y1="1.295240625" x2="11.3" y2="1.295240625" width="0.1524" layer="51"/>
<wire x1="-11.3" y1="15.595240625" x2="-10.200009375" y2="15.595240625" width="0.1524" layer="51"/>
<wire x1="-10.2" y1="15.595240625" x2="-9.8" y2="14.995240625" width="0.1524" layer="51"/>
<wire x1="10.2" y1="15.595240625" x2="11.3" y2="15.595240625" width="0.1524" layer="51"/>
<wire x1="9.8" y1="14.995240625" x2="10.074571875" y2="6.60833125" width="0.1524" layer="51"/>
<wire x1="-10.074578125" y1="6.60833125" x2="-9.8" y2="14.995240625" width="0.1524" layer="51"/>
<wire x1="9.6" y1="6.595240625" x2="9.6" y2="6.195240625" width="0.1524" layer="51"/>
<wire x1="-5.11" y1="6.195240625" x2="-2.51" y2="6.195240625" width="0.1524" layer="51"/>
<wire x1="-5.21" y1="6.595240625" x2="-5.11" y2="6.195240625" width="0.1524" layer="51"/>
<wire x1="-2.51" y1="6.195240625" x2="-2.41" y2="6.595240625" width="0.1524" layer="51"/>
<wire x1="9.6" y1="6.195240625" x2="9.67478125" y2="6.195240625" width="0.1524" layer="51"/>
<wire x1="-10.6" y1="1.595240625" x2="-9.14" y2="1.595240625" width="0.1524" layer="51"/>
<wire x1="-9.14" y1="1.595240625" x2="-8.19" y2="1.595240625" width="0.1524" layer="51"/>
<wire x1="-8.19" y1="1.595240625" x2="-6.6" y2="1.595240625" width="0.1524" layer="51"/>
<wire x1="-6.6" y1="1.595240625" x2="-5.65" y2="1.595240625" width="0.1524" layer="51"/>
<wire x1="-5.65" y1="1.595240625" x2="3.41" y2="1.595240625" width="0.1524" layer="51"/>
<wire x1="3.41" y1="1.595240625" x2="4.51" y2="1.595240625" width="0.1524" layer="51"/>
<wire x1="4.51" y1="1.595240625" x2="8.49" y2="1.595240625" width="0.1524" layer="51"/>
<wire x1="8.49" y1="1.595240625" x2="9.59" y2="1.595240625" width="0.1524" layer="51"/>
<wire x1="9.59" y1="1.595240625" x2="10.6" y2="1.595240625" width="0.1524" layer="51"/>
<wire x1="-9.6" y1="6.595240625" x2="-9.6" y2="6.195240625" width="0.1524" layer="51"/>
<wire x1="-9.6747875" y1="6.195240625" x2="-9.6" y2="6.195240625" width="0.1524" layer="51"/>
<wire x1="4.95" y1="6.595240625" x2="5.05" y2="6.195240625" width="0.1524" layer="51"/>
<wire x1="7.65" y1="6.195240625" x2="7.75" y2="6.595240625" width="0.1524" layer="51"/>
<wire x1="5.05" y1="6.195240625" x2="7.65" y2="6.195240625" width="0.1524" layer="51"/>
<wire x1="-11.3" y1="3.295240625" x2="11.3" y2="3.295240625" width="0.1524" layer="51"/>
<wire x1="-11.3" y1="2.995240625" x2="11.3" y2="2.995240625" width="0.1524" layer="51"/>
<wire x1="9.8" y1="14.995240625" x2="10.2" y2="15.595240625" width="0.1524" layer="51"/>
<wire x1="-8.69" y1="-2.704759375" x2="-9.09" y2="-2.704759375" width="0.1524" layer="51"/>
<wire x1="-9.14" y1="1.595240625" x2="-9.14" y2="-2.104759375" width="0.1524" layer="51"/>
<wire x1="-8.64" y1="1.345240625" x2="-8.64" y2="-2.104759375" width="0.1524" layer="51"/>
<wire x1="-8.64" y1="-2.104759375" x2="-8.69" y2="-2.704759375" width="0.1524" layer="51"/>
<wire x1="-9.09" y1="-2.704759375" x2="-9.14" y2="-2.104759375" width="0.1524" layer="51"/>
<wire x1="-8.19" y1="1.595240625" x2="-8.64" y2="1.345240625" width="0.1524" layer="51"/>
<wire x1="-6.15" y1="-2.704759375" x2="-6.55" y2="-2.704759375" width="0.1524" layer="51"/>
<wire x1="-6.6" y1="1.595240625" x2="-6.6" y2="-2.104759375" width="0.1524" layer="51"/>
<wire x1="-6.1" y1="1.345240625" x2="-6.1" y2="-2.104759375" width="0.1524" layer="51"/>
<wire x1="-6.1" y1="-2.104759375" x2="-6.15" y2="-2.704759375" width="0.1524" layer="51"/>
<wire x1="-6.55" y1="-2.704759375" x2="-6.6" y2="-2.104759375" width="0.1524" layer="51"/>
<wire x1="-5.65" y1="1.595240625" x2="-6.1" y2="1.345240625" width="0.1524" layer="51"/>
<wire x1="4.11" y1="-2.704759375" x2="3.51" y2="-2.704759375" width="0.1524" layer="51"/>
<wire x1="3.41" y1="1.595240625" x2="3.41" y2="-2.104759375" width="0.1524" layer="51"/>
<wire x1="4.21" y1="1.345240625" x2="4.21" y2="-2.104759375" width="0.1524" layer="51"/>
<wire x1="4.21" y1="-2.104759375" x2="4.11" y2="-2.704759375" width="0.1524" layer="51"/>
<wire x1="3.509990625" y1="-2.704759375" x2="3.41" y2="-2.104759375" width="0.1524" layer="51"/>
<wire x1="4.51" y1="1.595240625" x2="4.21" y2="1.345240625" width="0.1524" layer="51"/>
<wire x1="9.19" y1="-2.704759375" x2="8.59" y2="-2.704759375" width="0.1524" layer="51"/>
<wire x1="8.49" y1="1.595240625" x2="8.49" y2="-2.104759375" width="0.1524" layer="51"/>
<wire x1="9.29" y1="1.345240625" x2="9.29" y2="-2.104759375" width="0.1524" layer="51"/>
<wire x1="9.29" y1="-2.104759375" x2="9.19" y2="-2.704759375" width="0.1524" layer="51"/>
<wire x1="8.59" y1="-2.704759375" x2="8.49" y2="-2.104759375" width="0.1524" layer="51"/>
<wire x1="9.59" y1="1.595240625" x2="9.29" y2="1.345240625" width="0.1524" layer="51"/>
<wire x1="9.67478125" y1="6.195240625" x2="10.074565625" y2="6.60833125" width="0.1524" layer="51" curve="91.875435"/>
<wire x1="-10.07456875" y1="6.60833125" x2="-9.6747875" y2="6.195240625" width="0.1524" layer="51" curve="91.874988"/>
<text x="-12" y="2" size="1.27" layer="25" rot="R90">&gt;NAME</text>
<text x="13.0266" y="2.0984" size="1.27" layer="27" rot="R90">&gt;VALUE</text>
<circle x="11" y="5" radius="1" width="0" layer="35"/>
<circle x="-11" y="5" radius="1" width="0" layer="35"/>
</package>
<package name="PA1A-PS-VERTICAL" urn="urn:adsk.eagle:footprint:6395346/2" locally_modified="yes">
<pad name="1" x="-8.89" y="0" drill="0.7"/>
<pad name="2" x="-6.35" y="0" drill="0.7"/>
<pad name="NO" x="8.89" y="0" drill="1"/>
<pad name="COM" x="3.81" y="0" drill="1"/>
<wire x1="11.3" y1="-3.77" x2="-11.3" y2="-3.77" width="0.2032" layer="21"/>
<wire x1="11.3" y1="1.23" x2="-11.3" y2="1.23" width="0.2032" layer="21"/>
<wire x1="-11.3" y1="1.23" x2="-11.3" y2="-3.77" width="0.2032" layer="21"/>
<wire x1="11.3" y1="1.23" x2="11.3" y2="-3.77" width="0.2032" layer="21"/>
<text x="-11" y="1.5" size="1.27" layer="25">&gt;NAME</text>
<text x="-11" y="-4" size="1.27" layer="27" align="top-left">&gt;VALUE</text>
</package>
</packages>
<packages3d>
<package3d name="PA1A-PS-HORIZONTAL" urn="urn:adsk.eagle:package:6226248/5" locally_modified="yes" type="model">
<packageinstances>
<packageinstance name="PA1A-PS-HORIZONTAL"/>
</packageinstances>
</package3d>
<package3d name="PA1A-PS-VERTICAL" urn="urn:adsk.eagle:package:6395349/4" locally_modified="yes" type="model">
<packageinstances>
<packageinstance name="PA1A-PS-VERTICAL"/>
</packageinstances>
</package3d>
</packages3d>
<symbols>
<symbol name="K">
<wire x1="-3.81" y1="-1.905" x2="-1.905" y2="-1.905" width="0.254" layer="94"/>
<wire x1="3.81" y1="-1.905" x2="3.81" y2="1.905" width="0.254" layer="94"/>
<wire x1="3.81" y1="1.905" x2="1.905" y2="1.905" width="0.254" layer="94"/>
<wire x1="-3.81" y1="1.905" x2="-3.81" y2="-1.905" width="0.254" layer="94"/>
<wire x1="0" y1="-2.54" x2="0" y2="-1.905" width="0.1524" layer="94"/>
<wire x1="0" y1="-1.905" x2="3.81" y2="-1.905" width="0.254" layer="94"/>
<wire x1="0" y1="2.54" x2="0" y2="1.905" width="0.1524" layer="94"/>
<wire x1="0" y1="1.905" x2="-3.81" y2="1.905" width="0.254" layer="94"/>
<wire x1="-1.905" y1="-1.905" x2="1.905" y2="1.905" width="0.1524" layer="94"/>
<wire x1="-1.905" y1="-1.905" x2="0" y2="-1.905" width="0.254" layer="94"/>
<wire x1="1.905" y1="1.905" x2="0" y2="1.905" width="0.254" layer="94"/>
<text x="1.27" y="2.921" size="1.778" layer="96">&gt;VALUE</text>
<text x="1.27" y="5.08" size="1.778" layer="95">&gt;PART</text>
<pin name="2" x="0" y="-5.08" visible="pad" length="short" direction="pas" rot="R90"/>
<pin name="1" x="0" y="5.08" visible="pad" length="short" direction="pas" rot="R270"/>
<text x="-2.54" y="-2.54" size="1.27" layer="94" rot="R180">(+)</text>
</symbol>
<symbol name="S">
<wire x1="0" y1="3.175" x2="0" y2="1.905" width="0.254" layer="94"/>
<wire x1="0" y1="-3.175" x2="0" y2="-1.905" width="0.254" layer="94"/>
<wire x1="0" y1="-1.905" x2="-1.27" y2="1.905" width="0.254" layer="94"/>
<circle x="0" y="-1.905" radius="0.127" width="0.4064" layer="94"/>
<text x="-2.54" y="-2.54" size="1.778" layer="95" rot="R90">&gt;PART</text>
<pin name="P" x="0" y="-5.08" visible="pad" length="short" direction="pas" swaplevel="1" rot="R90"/>
<pin name="S" x="0" y="5.08" visible="pad" length="short" direction="pas" swaplevel="1" rot="R270"/>
<text x="0.762" y="3.81" size="1.27" layer="94" rot="R270">(+)</text>
</symbol>
</symbols>
<devicesets>
<deviceset name="PA1A-PS" prefix="REL">
<gates>
<gate name="K" symbol="K" x="-7.62" y="0"/>
<gate name="S" symbol="S" x="7.62" y="0"/>
</gates>
<devices>
<device name="(HORIZONTAL)" package="PA1A-PS-HORIZONTAL">
<connects>
<connect gate="K" pin="1" pad="1"/>
<connect gate="K" pin="2" pad="2"/>
<connect gate="S" pin="P" pad="COM"/>
<connect gate="S" pin="S" pad="NO"/>
</connects>
<package3dinstances>
<package3dinstance package3d_urn="urn:adsk.eagle:package:6226248/5"/>
</package3dinstances>
<technologies>
<technology name="">
<attribute name="DESCRIPTION" value="Relay socket" constant="no"/>
<attribute name="MF" value="PANASONIC"/>
<attribute name="MPN" value="PA1A-PS" constant="no"/>
</technology>
</technologies>
</device>
<device name="(VERTICAL)" package="PA1A-PS-VERTICAL">
<connects>
<connect gate="K" pin="1" pad="1"/>
<connect gate="K" pin="2" pad="2"/>
<connect gate="S" pin="P" pad="COM"/>
<connect gate="S" pin="S" pad="NO"/>
</connects>
<package3dinstances>
<package3dinstance package3d_urn="urn:adsk.eagle:package:6395349/4"/>
</package3dinstances>
<technologies>
<technology name="">
<attribute name="DESCRIPTION" value="Relay socket" constant="no"/>
<attribute name="MF" value="PANASONIC" constant="no"/>
<attribute name="MPN" value="PA1A-PS" constant="no"/>
</technology>
</technologies>
</device>
</devices>
</deviceset>
</devicesets>
</library>
</drawing>
<compatibility>
<note version="8.3" severity="warning">
Since Version 8.3, EAGLE supports URNs for individual library
assets (packages, symbols, and devices). The URNs of those assets
will not be understood (or retained) with this version.
</note>
<note version="8.3" severity="warning">
Since Version 8.3, EAGLE supports the association of 3D packages
with devices in libraries, schematics, and board files. Those 3D
packages will not be understood (or retained) with this version.
</note>
</compatibility>
</eagle>
