Partlist exported from D:/Cloud/Wago_Soft_GIT/PCB/projects/UN-C7/UN-C7-HEATER REV B/UN-C7-HEATER REV B.sch at 2019-06-19 07:47

Qty Value   Device        Package        Parts    Description                                                                                                                                                                                                                                                                                                                                                                                                                                                                                                                                                                                                                                               DESCRIPTION                                                       MF   MPN    
1           UDO-LOGO-12MM UDO-LOGO-12MM  LOGO1                                                                                                                                                                                                                                                                                                                                                                                                                                                                                                                                                                                                                                                                                                                                            
2   733-108 BOM           EXTRA-BOM-LINE X1, X2   Dummy symbol for inserting extra BOM lines.                                                                                                                                                                                                                                                                                                                                                                                                                                                                                                                                                                                                               MCS-MICRO socket, 8-way                                           WAGO 733-108
2   733-368 733-368       P-733-368      CN1, CN2 Serie 733,  Stiftleiste (für Leiterplatten) Einlötstift abgewinkelt 0,8 x 0,8 mm / Series 733,  Male header (for PCBs) Angled solder pin 0.8 x 0.8 mmPolzahl / Pole No.: 8 Rastermaß / Pitch: 2.5 - 2.5  mmBemessungsspannung / Rated Voltage: 160 VNennstrom / Nominal Current: 6 ALötstiftlänge: / Solder Pin Length: 3.7 mmFarbe / Color: lichtgrau / light gray Stand: 01.01.2014. Die jeweils aktuellen Daten zu diesem Artikel finden Sie in unserem Produktkatalog, den Sie unter www.wago.com einsehen können.  As of: 01/01/2014. Please find the newest data for this article in our product catalogue, which can be viewed under www.wago.com. Series 733, Male header (for PCBs) Angled solder pin 0.8 x 0.8 mm WAGO 733-368
