"Qty";"Value";"Package";"Parts";"DESCRIPTION";"MF";"MPN";
"2";"2059-302/998-403";"P-2059-302/998-403";"CN2, CN3";"Series 2059, SMD Terminal block in tape-and-reel packing 2-pole";"WAGO";"2059-302/998-403";
"1";"AWP-10P";"3M_10";"CN4";"IDC socket, 2x5, straight, with latch";"CONNFLY";"DS1011-10SBSIB7";
