G04 EAGLE Gerber RS-274X export*
G75*
%MOMM*%
%FSLAX34Y34*%
%LPD*%
%INBottom Copper*%
%IPPOS*%
%AMOC8*
5,1,8,0,0,1.08239X$1,22.5*%
G01*
%ADD10C,1.050000*%
%ADD11C,1.500000*%
%ADD12R,1.500000X1.500000*%
%ADD13C,2.100000*%
%ADD14C,1.650000*%
%ADD15C,3.251200*%
%ADD16C,0.604800*%

G36*
X690027Y70471D02*
X690027Y70471D01*
X690053Y70469D01*
X690227Y70491D01*
X690401Y70509D01*
X690426Y70517D01*
X690453Y70520D01*
X690618Y70576D01*
X690786Y70627D01*
X690809Y70640D01*
X690834Y70648D01*
X690986Y70735D01*
X691140Y70819D01*
X691160Y70836D01*
X691183Y70849D01*
X691436Y71064D01*
X694864Y74492D01*
X694881Y74512D01*
X694902Y74530D01*
X695009Y74668D01*
X695119Y74803D01*
X695132Y74827D01*
X695148Y74848D01*
X695226Y75005D01*
X695308Y75159D01*
X695316Y75184D01*
X695328Y75209D01*
X695373Y75378D01*
X695423Y75545D01*
X695425Y75571D01*
X695432Y75597D01*
X695459Y75928D01*
X695459Y446572D01*
X695457Y446599D01*
X695459Y446625D01*
X695437Y446799D01*
X695419Y446973D01*
X695412Y446998D01*
X695408Y447025D01*
X695353Y447190D01*
X695301Y447358D01*
X695288Y447381D01*
X695280Y447406D01*
X695193Y447558D01*
X695109Y447712D01*
X695092Y447732D01*
X695079Y447755D01*
X694864Y448008D01*
X683936Y458936D01*
X683916Y458953D01*
X683898Y458974D01*
X683760Y459081D01*
X683625Y459191D01*
X683601Y459204D01*
X683580Y459220D01*
X683423Y459298D01*
X683269Y459380D01*
X683244Y459388D01*
X683220Y459400D01*
X683050Y459445D01*
X682883Y459495D01*
X682857Y459497D01*
X682831Y459504D01*
X682500Y459531D01*
X653341Y459531D01*
X632031Y480841D01*
X632031Y515000D01*
X632029Y515027D01*
X632031Y515053D01*
X632009Y515227D01*
X631991Y515401D01*
X631984Y515426D01*
X631980Y515453D01*
X631924Y515619D01*
X631873Y515786D01*
X631860Y515809D01*
X631852Y515834D01*
X631765Y515986D01*
X631681Y516140D01*
X631664Y516160D01*
X631651Y516183D01*
X631436Y516436D01*
X623008Y524864D01*
X622988Y524881D01*
X622970Y524902D01*
X622832Y525009D01*
X622697Y525119D01*
X622673Y525132D01*
X622652Y525148D01*
X622495Y525226D01*
X622341Y525308D01*
X622316Y525316D01*
X622291Y525328D01*
X622122Y525373D01*
X621955Y525423D01*
X621929Y525425D01*
X621903Y525432D01*
X621572Y525459D01*
X252500Y525459D01*
X252482Y525457D01*
X252464Y525459D01*
X252282Y525438D01*
X252099Y525419D01*
X252082Y525414D01*
X252065Y525412D01*
X251890Y525355D01*
X251714Y525301D01*
X251699Y525293D01*
X251682Y525287D01*
X251522Y525197D01*
X251360Y525109D01*
X251347Y525098D01*
X251331Y525089D01*
X251192Y524969D01*
X251051Y524852D01*
X251040Y524838D01*
X251027Y524826D01*
X250914Y524681D01*
X250799Y524538D01*
X250791Y524522D01*
X250780Y524508D01*
X250698Y524343D01*
X250613Y524181D01*
X250608Y524164D01*
X250600Y524148D01*
X250553Y523969D01*
X250502Y523794D01*
X250500Y523776D01*
X250496Y523759D01*
X250469Y523428D01*
X250469Y501672D01*
X250471Y501654D01*
X250469Y501636D01*
X250490Y501454D01*
X250509Y501271D01*
X250514Y501254D01*
X250516Y501237D01*
X250573Y501062D01*
X250627Y500886D01*
X250635Y500871D01*
X250641Y500854D01*
X250731Y500694D01*
X250819Y500532D01*
X250830Y500519D01*
X250839Y500503D01*
X250959Y500364D01*
X251076Y500223D01*
X251090Y500212D01*
X251102Y500198D01*
X251247Y500086D01*
X251390Y499971D01*
X251406Y499963D01*
X251420Y499952D01*
X251585Y499870D01*
X251747Y499785D01*
X251764Y499780D01*
X251781Y499772D01*
X251959Y499725D01*
X252134Y499674D01*
X252152Y499672D01*
X252169Y499668D01*
X252500Y499641D01*
X254401Y499641D01*
X254401Y490068D01*
X254402Y490050D01*
X254401Y490033D01*
X254422Y489850D01*
X254441Y489668D01*
X254446Y489651D01*
X254448Y489633D01*
X254505Y489458D01*
X254559Y489283D01*
X254567Y489267D01*
X254573Y489250D01*
X254663Y489090D01*
X254750Y488929D01*
X254762Y488915D01*
X254771Y488899D01*
X254891Y488760D01*
X255008Y488619D01*
X255022Y488608D01*
X255034Y488595D01*
X255179Y488482D01*
X255322Y488367D01*
X255338Y488359D01*
X255352Y488348D01*
X255517Y488266D01*
X255544Y488252D01*
X255599Y488154D01*
X255687Y487992D01*
X255698Y487979D01*
X255707Y487963D01*
X255827Y487824D01*
X255945Y487683D01*
X255958Y487672D01*
X255970Y487658D01*
X256115Y487546D01*
X256258Y487431D01*
X256274Y487423D01*
X256288Y487412D01*
X256453Y487330D01*
X256616Y487245D01*
X256633Y487240D01*
X256649Y487232D01*
X256827Y487184D01*
X257002Y487134D01*
X257020Y487132D01*
X257037Y487128D01*
X257368Y487101D01*
X266941Y487101D01*
X266941Y485000D01*
X266943Y484982D01*
X266941Y484964D01*
X266962Y484782D01*
X266981Y484599D01*
X266986Y484582D01*
X266988Y484565D01*
X267045Y484390D01*
X267099Y484214D01*
X267107Y484199D01*
X267113Y484182D01*
X267203Y484022D01*
X267291Y483860D01*
X267302Y483847D01*
X267311Y483831D01*
X267431Y483692D01*
X267548Y483551D01*
X267562Y483540D01*
X267574Y483527D01*
X267719Y483414D01*
X267862Y483299D01*
X267878Y483291D01*
X267892Y483280D01*
X268057Y483198D01*
X268219Y483113D01*
X268236Y483108D01*
X268252Y483100D01*
X268431Y483053D01*
X268606Y483002D01*
X268624Y483000D01*
X268641Y482996D01*
X268972Y482969D01*
X270228Y482969D01*
X270246Y482971D01*
X270264Y482969D01*
X270446Y482990D01*
X270629Y483009D01*
X270646Y483014D01*
X270663Y483016D01*
X270838Y483073D01*
X271014Y483127D01*
X271029Y483135D01*
X271046Y483141D01*
X271206Y483231D01*
X271368Y483319D01*
X271381Y483330D01*
X271397Y483339D01*
X271536Y483459D01*
X271677Y483576D01*
X271688Y483590D01*
X271702Y483602D01*
X271814Y483747D01*
X271929Y483890D01*
X271937Y483906D01*
X271948Y483920D01*
X272030Y484085D01*
X272115Y484247D01*
X272120Y484264D01*
X272128Y484281D01*
X272175Y484459D01*
X272226Y484634D01*
X272228Y484652D01*
X272232Y484669D01*
X272259Y485000D01*
X272259Y498152D01*
X273748Y499641D01*
X290852Y499641D01*
X292341Y498152D01*
X292341Y481048D01*
X290852Y479559D01*
X277500Y479559D01*
X277482Y479557D01*
X277464Y479559D01*
X277282Y479538D01*
X277099Y479519D01*
X277082Y479514D01*
X277065Y479512D01*
X276890Y479455D01*
X276714Y479401D01*
X276699Y479393D01*
X276682Y479387D01*
X276522Y479297D01*
X276360Y479209D01*
X276347Y479198D01*
X276331Y479189D01*
X276192Y479069D01*
X276051Y478952D01*
X276040Y478938D01*
X276027Y478926D01*
X275914Y478781D01*
X275799Y478638D01*
X275791Y478622D01*
X275780Y478608D01*
X275698Y478443D01*
X275613Y478281D01*
X275608Y478264D01*
X275600Y478248D01*
X275553Y478069D01*
X275502Y477894D01*
X275500Y477876D01*
X275496Y477859D01*
X275469Y477528D01*
X275469Y476272D01*
X275471Y476254D01*
X275469Y476236D01*
X275490Y476054D01*
X275509Y475871D01*
X275514Y475854D01*
X275516Y475837D01*
X275573Y475662D01*
X275627Y475486D01*
X275635Y475471D01*
X275641Y475454D01*
X275731Y475294D01*
X275819Y475132D01*
X275830Y475119D01*
X275839Y475103D01*
X275959Y474964D01*
X276076Y474823D01*
X276090Y474812D01*
X276102Y474798D01*
X276247Y474686D01*
X276390Y474571D01*
X276406Y474563D01*
X276420Y474552D01*
X276585Y474470D01*
X276747Y474385D01*
X276764Y474380D01*
X276781Y474372D01*
X276959Y474325D01*
X277134Y474274D01*
X277152Y474272D01*
X277169Y474268D01*
X277500Y474241D01*
X290852Y474241D01*
X292341Y472752D01*
X292341Y455648D01*
X290852Y454159D01*
X277500Y454159D01*
X277482Y454157D01*
X277464Y454159D01*
X277282Y454138D01*
X277099Y454119D01*
X277082Y454114D01*
X277065Y454112D01*
X276890Y454055D01*
X276714Y454001D01*
X276699Y453993D01*
X276682Y453987D01*
X276522Y453897D01*
X276360Y453809D01*
X276347Y453798D01*
X276331Y453789D01*
X276192Y453669D01*
X276051Y453552D01*
X276040Y453538D01*
X276027Y453526D01*
X275914Y453381D01*
X275799Y453238D01*
X275791Y453222D01*
X275780Y453208D01*
X275698Y453043D01*
X275613Y452881D01*
X275608Y452864D01*
X275600Y452848D01*
X275553Y452669D01*
X275502Y452494D01*
X275500Y452476D01*
X275496Y452459D01*
X275469Y452128D01*
X275469Y428341D01*
X241659Y394531D01*
X147500Y394531D01*
X147473Y394529D01*
X147447Y394531D01*
X147273Y394509D01*
X147099Y394491D01*
X147074Y394484D01*
X147047Y394480D01*
X146882Y394425D01*
X146714Y394373D01*
X146691Y394360D01*
X146666Y394352D01*
X146514Y394265D01*
X146360Y394181D01*
X146340Y394164D01*
X146317Y394151D01*
X146064Y393936D01*
X138564Y386436D01*
X138547Y386416D01*
X138527Y386398D01*
X138419Y386260D01*
X138309Y386125D01*
X138296Y386101D01*
X138280Y386080D01*
X138202Y385923D01*
X138120Y385769D01*
X138112Y385744D01*
X138100Y385720D01*
X138055Y385550D01*
X138005Y385383D01*
X138003Y385357D01*
X137996Y385331D01*
X137969Y385000D01*
X137969Y330000D01*
X137971Y329973D01*
X137969Y329947D01*
X137991Y329773D01*
X138009Y329599D01*
X138017Y329574D01*
X138020Y329547D01*
X138076Y329382D01*
X138127Y329214D01*
X138140Y329191D01*
X138148Y329166D01*
X138236Y329014D01*
X138319Y328860D01*
X138336Y328840D01*
X138349Y328817D01*
X138564Y328564D01*
X148564Y318564D01*
X148584Y318547D01*
X148602Y318527D01*
X148740Y318419D01*
X148875Y318309D01*
X148899Y318296D01*
X148920Y318280D01*
X149077Y318202D01*
X149231Y318120D01*
X149256Y318112D01*
X149281Y318100D01*
X149450Y318055D01*
X149617Y318005D01*
X149643Y318003D01*
X149669Y317996D01*
X150000Y317969D01*
X435000Y317969D01*
X435027Y317971D01*
X435053Y317969D01*
X435227Y317991D01*
X435401Y318009D01*
X435426Y318017D01*
X435453Y318020D01*
X435618Y318076D01*
X435786Y318127D01*
X435809Y318140D01*
X435834Y318148D01*
X435986Y318235D01*
X436140Y318319D01*
X436160Y318336D01*
X436183Y318349D01*
X436436Y318564D01*
X448936Y331064D01*
X448942Y331071D01*
X448949Y331076D01*
X448960Y331090D01*
X448974Y331102D01*
X449081Y331240D01*
X449191Y331375D01*
X449196Y331383D01*
X449201Y331390D01*
X449209Y331406D01*
X449220Y331420D01*
X449298Y331577D01*
X449380Y331731D01*
X449383Y331739D01*
X449387Y331747D01*
X449392Y331764D01*
X449400Y331781D01*
X449445Y331950D01*
X449495Y332117D01*
X449496Y332126D01*
X449498Y332134D01*
X449500Y332152D01*
X449504Y332169D01*
X449531Y332500D01*
X449531Y396659D01*
X550841Y497969D01*
X601659Y497969D01*
X612969Y486659D01*
X612969Y447500D01*
X612971Y447473D01*
X612969Y447447D01*
X612991Y447273D01*
X613009Y447099D01*
X613017Y447074D01*
X613020Y447047D01*
X613076Y446882D01*
X613127Y446714D01*
X613140Y446691D01*
X613148Y446666D01*
X613235Y446514D01*
X613319Y446360D01*
X613336Y446340D01*
X613349Y446317D01*
X613564Y446064D01*
X627969Y431659D01*
X627969Y77500D01*
X627971Y77473D01*
X627969Y77447D01*
X627991Y77273D01*
X628009Y77099D01*
X628017Y77074D01*
X628020Y77047D01*
X628076Y76882D01*
X628127Y76714D01*
X628140Y76691D01*
X628148Y76666D01*
X628235Y76514D01*
X628319Y76360D01*
X628336Y76340D01*
X628349Y76317D01*
X628564Y76064D01*
X633564Y71064D01*
X633584Y71047D01*
X633602Y71027D01*
X633740Y70919D01*
X633875Y70809D01*
X633899Y70796D01*
X633920Y70780D01*
X634077Y70702D01*
X634231Y70620D01*
X634256Y70612D01*
X634281Y70600D01*
X634450Y70555D01*
X634617Y70505D01*
X634643Y70503D01*
X634669Y70496D01*
X635000Y70469D01*
X690000Y70469D01*
X690027Y70471D01*
G37*
G36*
X212518Y67971D02*
X212518Y67971D01*
X212536Y67969D01*
X212718Y67990D01*
X212901Y68009D01*
X212918Y68014D01*
X212935Y68016D01*
X213110Y68073D01*
X213286Y68127D01*
X213301Y68135D01*
X213318Y68141D01*
X213478Y68231D01*
X213640Y68319D01*
X213653Y68330D01*
X213669Y68339D01*
X213808Y68459D01*
X213949Y68576D01*
X213960Y68590D01*
X213974Y68602D01*
X214086Y68747D01*
X214201Y68890D01*
X214209Y68906D01*
X214220Y68920D01*
X214302Y69085D01*
X214387Y69247D01*
X214392Y69264D01*
X214400Y69281D01*
X214447Y69459D01*
X214498Y69634D01*
X214500Y69652D01*
X214504Y69669D01*
X214531Y70000D01*
X214531Y121350D01*
X214526Y121401D01*
X214529Y121452D01*
X214506Y121601D01*
X214491Y121751D01*
X214476Y121800D01*
X214469Y121850D01*
X214417Y121992D01*
X214373Y122136D01*
X214349Y122181D01*
X214331Y122229D01*
X214253Y122358D01*
X214181Y122490D01*
X214149Y122529D01*
X214122Y122573D01*
X214020Y122684D01*
X213924Y122799D01*
X213884Y122831D01*
X213849Y122869D01*
X213727Y122957D01*
X213610Y123051D01*
X213565Y123075D01*
X213523Y123105D01*
X213386Y123168D01*
X213253Y123237D01*
X213204Y123251D01*
X213157Y123272D01*
X213010Y123307D01*
X212866Y123348D01*
X212815Y123352D01*
X212765Y123364D01*
X212614Y123369D01*
X212464Y123381D01*
X212414Y123375D01*
X212363Y123377D01*
X212214Y123352D01*
X212065Y123334D01*
X212016Y123318D01*
X211966Y123310D01*
X211825Y123256D01*
X211682Y123209D01*
X211637Y123184D01*
X211590Y123166D01*
X211392Y123046D01*
X211331Y123012D01*
X211321Y123002D01*
X211306Y122994D01*
X210656Y122521D01*
X209142Y121750D01*
X207749Y121297D01*
X207749Y139282D01*
X207747Y139300D01*
X207749Y139317D01*
X207728Y139500D01*
X207709Y139682D01*
X207704Y139699D01*
X207702Y139717D01*
X207645Y139892D01*
X207614Y139992D01*
X207618Y139999D01*
X207665Y140177D01*
X207716Y140352D01*
X207718Y140370D01*
X207722Y140387D01*
X207749Y140718D01*
X207749Y158703D01*
X209142Y158250D01*
X210656Y157479D01*
X211306Y157006D01*
X211350Y156981D01*
X211390Y156949D01*
X211524Y156879D01*
X211654Y156803D01*
X211702Y156787D01*
X211747Y156763D01*
X211892Y156721D01*
X212034Y156673D01*
X212085Y156666D01*
X212134Y156652D01*
X212285Y156639D01*
X212434Y156620D01*
X212485Y156623D01*
X212536Y156619D01*
X212685Y156636D01*
X212835Y156646D01*
X212885Y156660D01*
X212935Y156666D01*
X213079Y156712D01*
X213224Y156752D01*
X213270Y156775D01*
X213318Y156791D01*
X213449Y156865D01*
X213584Y156932D01*
X213624Y156963D01*
X213669Y156988D01*
X213783Y157087D01*
X213901Y157179D01*
X213935Y157218D01*
X213974Y157252D01*
X214066Y157370D01*
X214164Y157485D01*
X214189Y157529D01*
X214220Y157570D01*
X214287Y157704D01*
X214361Y157836D01*
X214377Y157884D01*
X214400Y157930D01*
X214439Y158076D01*
X214485Y158219D01*
X214491Y158270D01*
X214504Y158319D01*
X214523Y158550D01*
X214531Y158619D01*
X214530Y158633D01*
X214531Y158650D01*
X214531Y167500D01*
X214529Y167518D01*
X214531Y167536D01*
X214510Y167718D01*
X214491Y167901D01*
X214486Y167918D01*
X214484Y167935D01*
X214427Y168110D01*
X214373Y168286D01*
X214365Y168301D01*
X214359Y168318D01*
X214269Y168478D01*
X214181Y168640D01*
X214170Y168653D01*
X214161Y168669D01*
X214041Y168808D01*
X213924Y168949D01*
X213910Y168960D01*
X213898Y168974D01*
X213753Y169086D01*
X213610Y169201D01*
X213594Y169209D01*
X213580Y169220D01*
X213415Y169302D01*
X213253Y169387D01*
X213236Y169392D01*
X213220Y169400D01*
X213041Y169447D01*
X212866Y169498D01*
X212848Y169500D01*
X212831Y169504D01*
X212500Y169531D01*
X80841Y169531D01*
X72031Y178341D01*
X72031Y369159D01*
X100841Y397969D01*
X240000Y397969D01*
X240027Y397971D01*
X240053Y397969D01*
X240227Y397991D01*
X240401Y398009D01*
X240426Y398017D01*
X240453Y398020D01*
X240618Y398076D01*
X240786Y398127D01*
X240809Y398140D01*
X240834Y398148D01*
X240986Y398235D01*
X241140Y398319D01*
X241160Y398336D01*
X241183Y398349D01*
X241436Y398564D01*
X271436Y428564D01*
X271453Y428584D01*
X271474Y428602D01*
X271581Y428740D01*
X271691Y428875D01*
X271704Y428899D01*
X271720Y428920D01*
X271798Y429077D01*
X271880Y429231D01*
X271888Y429256D01*
X271900Y429281D01*
X271945Y429450D01*
X271995Y429617D01*
X271997Y429643D01*
X272004Y429669D01*
X272031Y430000D01*
X272031Y475000D01*
X272029Y475027D01*
X272031Y475053D01*
X272009Y475227D01*
X271991Y475401D01*
X271984Y475426D01*
X271980Y475453D01*
X271925Y475618D01*
X271873Y475786D01*
X271860Y475809D01*
X271852Y475834D01*
X271765Y475986D01*
X271681Y476140D01*
X271664Y476160D01*
X271651Y476183D01*
X271436Y476436D01*
X268936Y478936D01*
X268916Y478953D01*
X268898Y478974D01*
X268760Y479081D01*
X268625Y479191D01*
X268601Y479204D01*
X268580Y479220D01*
X268423Y479298D01*
X268269Y479380D01*
X268244Y479388D01*
X268220Y479400D01*
X268050Y479445D01*
X267883Y479495D01*
X267857Y479497D01*
X267831Y479504D01*
X267500Y479531D01*
X247031Y479531D01*
X247031Y480034D01*
X247029Y480061D01*
X247031Y480088D01*
X247009Y480261D01*
X246991Y480435D01*
X246983Y480461D01*
X246980Y480487D01*
X246925Y480652D01*
X246873Y480820D01*
X246860Y480843D01*
X246859Y480847D01*
X246859Y498357D01*
X246880Y498396D01*
X246888Y498422D01*
X246900Y498446D01*
X246945Y498615D01*
X246995Y498782D01*
X246997Y498809D01*
X247004Y498835D01*
X247031Y499166D01*
X247031Y523428D01*
X247029Y523446D01*
X247031Y523464D01*
X247010Y523646D01*
X246991Y523829D01*
X246986Y523846D01*
X246984Y523863D01*
X246927Y524038D01*
X246873Y524214D01*
X246865Y524229D01*
X246859Y524246D01*
X246769Y524406D01*
X246681Y524568D01*
X246670Y524581D01*
X246661Y524597D01*
X246541Y524736D01*
X246424Y524877D01*
X246410Y524888D01*
X246398Y524902D01*
X246253Y525014D01*
X246110Y525129D01*
X246094Y525137D01*
X246080Y525148D01*
X245915Y525230D01*
X245753Y525315D01*
X245736Y525320D01*
X245720Y525328D01*
X245541Y525375D01*
X245366Y525426D01*
X245348Y525428D01*
X245331Y525432D01*
X245000Y525459D01*
X59707Y525459D01*
X59698Y525458D01*
X59689Y525459D01*
X59497Y525438D01*
X59306Y525419D01*
X59298Y525417D01*
X59289Y525416D01*
X59106Y525358D01*
X58921Y525301D01*
X58913Y525297D01*
X58905Y525294D01*
X58736Y525201D01*
X58567Y525109D01*
X58560Y525104D01*
X58553Y525099D01*
X58406Y524975D01*
X58258Y524852D01*
X58252Y524845D01*
X58246Y524839D01*
X58127Y524688D01*
X58006Y524538D01*
X58001Y524530D01*
X57996Y524523D01*
X57908Y524350D01*
X57820Y524181D01*
X57818Y524172D01*
X57814Y524164D01*
X57762Y523978D01*
X57709Y523794D01*
X57708Y523785D01*
X57706Y523776D01*
X57691Y523583D01*
X57676Y523392D01*
X57677Y523384D01*
X57676Y523375D01*
X57701Y523182D01*
X57723Y522993D01*
X57725Y522984D01*
X57727Y522975D01*
X57788Y522792D01*
X57848Y522610D01*
X57852Y522602D01*
X57855Y522594D01*
X57951Y522427D01*
X58045Y522259D01*
X58051Y522252D01*
X58056Y522245D01*
X58270Y521992D01*
X63440Y516823D01*
X68119Y508718D01*
X70541Y499679D01*
X70541Y490321D01*
X68119Y481282D01*
X63440Y473177D01*
X56823Y466560D01*
X48718Y461881D01*
X39679Y459459D01*
X30321Y459459D01*
X21282Y461881D01*
X13177Y466560D01*
X8008Y471730D01*
X8001Y471735D01*
X7996Y471742D01*
X7846Y471862D01*
X7697Y471985D01*
X7689Y471989D01*
X7682Y471994D01*
X7512Y472083D01*
X7341Y472173D01*
X7332Y472176D01*
X7325Y472180D01*
X7140Y472233D01*
X6955Y472288D01*
X6946Y472289D01*
X6938Y472291D01*
X6746Y472307D01*
X6554Y472324D01*
X6545Y472323D01*
X6536Y472324D01*
X6347Y472302D01*
X6154Y472281D01*
X6145Y472278D01*
X6137Y472277D01*
X5955Y472218D01*
X5770Y472160D01*
X5762Y472155D01*
X5754Y472152D01*
X5585Y472057D01*
X5418Y471965D01*
X5411Y471959D01*
X5403Y471955D01*
X5257Y471829D01*
X5111Y471704D01*
X5105Y471697D01*
X5098Y471691D01*
X4981Y471540D01*
X4861Y471388D01*
X4857Y471380D01*
X4852Y471373D01*
X4766Y471201D01*
X4679Y471029D01*
X4676Y471021D01*
X4672Y471013D01*
X4622Y470826D01*
X4571Y470641D01*
X4570Y470633D01*
X4568Y470624D01*
X4541Y470293D01*
X4541Y70000D01*
X4543Y69982D01*
X4541Y69964D01*
X4562Y69782D01*
X4581Y69599D01*
X4586Y69582D01*
X4588Y69565D01*
X4645Y69390D01*
X4699Y69214D01*
X4707Y69199D01*
X4713Y69182D01*
X4803Y69022D01*
X4891Y68860D01*
X4902Y68847D01*
X4911Y68831D01*
X5031Y68692D01*
X5148Y68551D01*
X5162Y68540D01*
X5174Y68527D01*
X5319Y68414D01*
X5462Y68299D01*
X5478Y68291D01*
X5492Y68280D01*
X5657Y68198D01*
X5819Y68113D01*
X5836Y68108D01*
X5852Y68100D01*
X6031Y68053D01*
X6206Y68002D01*
X6224Y68000D01*
X6241Y67996D01*
X6572Y67969D01*
X212500Y67969D01*
X212518Y67971D01*
G37*
%LPC*%
G36*
X102854Y120959D02*
X102854Y120959D01*
X98888Y122602D01*
X95852Y125638D01*
X94209Y129604D01*
X94209Y150396D01*
X95852Y154362D01*
X98888Y157398D01*
X102854Y159041D01*
X107146Y159041D01*
X111112Y157398D01*
X114148Y154362D01*
X115623Y150800D01*
X115628Y150793D01*
X115630Y150784D01*
X115723Y150615D01*
X115814Y150446D01*
X115819Y150439D01*
X115824Y150431D01*
X115948Y150283D01*
X116070Y150135D01*
X116077Y150130D01*
X116083Y150123D01*
X116233Y150003D01*
X116383Y149881D01*
X116391Y149877D01*
X116398Y149872D01*
X116567Y149785D01*
X116739Y149694D01*
X116748Y149692D01*
X116756Y149688D01*
X116938Y149636D01*
X117126Y149581D01*
X117135Y149581D01*
X117143Y149578D01*
X117334Y149563D01*
X117527Y149547D01*
X117536Y149548D01*
X117544Y149547D01*
X117735Y149570D01*
X117927Y149592D01*
X117935Y149595D01*
X117944Y149596D01*
X118125Y149655D01*
X118310Y149715D01*
X118318Y149719D01*
X118326Y149722D01*
X118493Y149817D01*
X118662Y149911D01*
X118668Y149917D01*
X118676Y149922D01*
X118822Y150049D01*
X118967Y150173D01*
X118973Y150180D01*
X118980Y150186D01*
X119097Y150338D01*
X119216Y150490D01*
X119220Y150498D01*
X119225Y150505D01*
X119377Y150800D01*
X120852Y154362D01*
X123888Y157398D01*
X127854Y159041D01*
X132146Y159041D01*
X136112Y157398D01*
X139148Y154362D01*
X140623Y150800D01*
X140628Y150793D01*
X140630Y150784D01*
X140723Y150615D01*
X140814Y150446D01*
X140819Y150439D01*
X140824Y150431D01*
X140948Y150283D01*
X141070Y150135D01*
X141077Y150130D01*
X141083Y150123D01*
X141233Y150003D01*
X141383Y149881D01*
X141391Y149877D01*
X141398Y149872D01*
X141567Y149785D01*
X141739Y149694D01*
X141748Y149692D01*
X141756Y149688D01*
X141938Y149636D01*
X142126Y149581D01*
X142135Y149581D01*
X142143Y149578D01*
X142334Y149563D01*
X142527Y149547D01*
X142536Y149548D01*
X142544Y149547D01*
X142735Y149570D01*
X142927Y149592D01*
X142935Y149595D01*
X142944Y149596D01*
X143125Y149655D01*
X143310Y149715D01*
X143318Y149719D01*
X143326Y149722D01*
X143493Y149817D01*
X143662Y149911D01*
X143668Y149917D01*
X143676Y149922D01*
X143822Y150049D01*
X143967Y150173D01*
X143973Y150180D01*
X143980Y150186D01*
X144097Y150338D01*
X144216Y150490D01*
X144220Y150498D01*
X144225Y150505D01*
X144377Y150800D01*
X145852Y154362D01*
X148888Y157398D01*
X152854Y159041D01*
X157146Y159041D01*
X161112Y157398D01*
X164148Y154362D01*
X165623Y150800D01*
X165628Y150793D01*
X165630Y150784D01*
X165723Y150614D01*
X165814Y150446D01*
X165819Y150439D01*
X165824Y150431D01*
X165948Y150283D01*
X166070Y150135D01*
X166077Y150130D01*
X166083Y150123D01*
X166233Y150003D01*
X166383Y149881D01*
X166391Y149877D01*
X166398Y149872D01*
X166568Y149784D01*
X166739Y149694D01*
X166748Y149692D01*
X166756Y149688D01*
X166940Y149636D01*
X167126Y149581D01*
X167135Y149581D01*
X167143Y149578D01*
X167334Y149563D01*
X167527Y149547D01*
X167536Y149548D01*
X167544Y149547D01*
X167736Y149570D01*
X167927Y149592D01*
X167935Y149595D01*
X167944Y149596D01*
X168126Y149656D01*
X168310Y149715D01*
X168318Y149719D01*
X168326Y149722D01*
X168494Y149818D01*
X168662Y149911D01*
X168668Y149917D01*
X168676Y149922D01*
X168822Y150049D01*
X168967Y150173D01*
X168973Y150180D01*
X168980Y150186D01*
X169097Y150338D01*
X169216Y150490D01*
X169220Y150498D01*
X169225Y150505D01*
X169377Y150800D01*
X170852Y154362D01*
X173888Y157398D01*
X177854Y159041D01*
X182146Y159041D01*
X186112Y157398D01*
X189148Y154362D01*
X190679Y150666D01*
X190721Y150588D01*
X190754Y150505D01*
X190816Y150411D01*
X190869Y150311D01*
X190926Y150243D01*
X190974Y150168D01*
X191054Y150088D01*
X191126Y150001D01*
X191195Y149945D01*
X191257Y149881D01*
X191351Y149818D01*
X191438Y149747D01*
X191517Y149706D01*
X191591Y149656D01*
X191695Y149612D01*
X191795Y149560D01*
X191880Y149535D01*
X191962Y149501D01*
X192073Y149479D01*
X192181Y149447D01*
X192270Y149439D01*
X192357Y149422D01*
X192470Y149422D01*
X192582Y149412D01*
X192671Y149422D01*
X192759Y149422D01*
X192870Y149445D01*
X192982Y149457D01*
X193067Y149484D01*
X193154Y149502D01*
X193258Y149546D01*
X193366Y149580D01*
X193443Y149624D01*
X193525Y149658D01*
X193619Y149722D01*
X193717Y149777D01*
X193785Y149835D01*
X193858Y149884D01*
X193937Y149965D01*
X194023Y150039D01*
X194078Y150109D01*
X194140Y150172D01*
X194202Y150267D01*
X194271Y150356D01*
X194311Y150435D01*
X194360Y150509D01*
X194414Y150640D01*
X194452Y150715D01*
X194464Y150760D01*
X194488Y150816D01*
X195000Y152392D01*
X195771Y153906D01*
X196769Y155280D01*
X197970Y156481D01*
X199344Y157479D01*
X200858Y158250D01*
X202251Y158703D01*
X202251Y140718D01*
X202252Y140700D01*
X202251Y140683D01*
X202272Y140500D01*
X202291Y140318D01*
X202296Y140301D01*
X202298Y140283D01*
X202355Y140108D01*
X202386Y140008D01*
X202382Y140001D01*
X202334Y139823D01*
X202284Y139648D01*
X202282Y139630D01*
X202278Y139613D01*
X202251Y139282D01*
X202251Y121297D01*
X200858Y121750D01*
X199344Y122521D01*
X197970Y123519D01*
X196769Y124720D01*
X195771Y126094D01*
X195000Y127608D01*
X194488Y129184D01*
X194452Y129266D01*
X194425Y129350D01*
X194371Y129450D01*
X194326Y129553D01*
X194275Y129626D01*
X194232Y129704D01*
X194159Y129790D01*
X194094Y129883D01*
X194030Y129944D01*
X193973Y130012D01*
X193885Y130082D01*
X193803Y130160D01*
X193728Y130207D01*
X193658Y130263D01*
X193558Y130314D01*
X193462Y130375D01*
X193379Y130406D01*
X193300Y130447D01*
X193192Y130477D01*
X193086Y130518D01*
X192998Y130532D01*
X192913Y130556D01*
X192800Y130565D01*
X192688Y130584D01*
X192600Y130581D01*
X192511Y130588D01*
X192399Y130574D01*
X192286Y130570D01*
X192200Y130550D01*
X192112Y130539D01*
X192004Y130503D01*
X191894Y130477D01*
X191814Y130440D01*
X191729Y130412D01*
X191631Y130356D01*
X191529Y130309D01*
X191457Y130257D01*
X191380Y130213D01*
X191294Y130138D01*
X191203Y130072D01*
X191143Y130007D01*
X191076Y129948D01*
X191007Y129859D01*
X190931Y129776D01*
X190885Y129700D01*
X190831Y129629D01*
X190766Y129504D01*
X190722Y129431D01*
X190707Y129388D01*
X190679Y129334D01*
X189148Y125638D01*
X186112Y122602D01*
X182146Y120959D01*
X177854Y120959D01*
X173888Y122602D01*
X170852Y125638D01*
X169377Y129200D01*
X169372Y129207D01*
X169370Y129216D01*
X169278Y129384D01*
X169186Y129554D01*
X169181Y129561D01*
X169176Y129569D01*
X169053Y129716D01*
X168930Y129865D01*
X168923Y129870D01*
X168917Y129877D01*
X168767Y129997D01*
X168617Y130119D01*
X168609Y130123D01*
X168603Y130128D01*
X168432Y130216D01*
X168261Y130306D01*
X168252Y130308D01*
X168244Y130312D01*
X168060Y130364D01*
X167874Y130419D01*
X167866Y130419D01*
X167857Y130422D01*
X167666Y130437D01*
X167473Y130453D01*
X167464Y130452D01*
X167456Y130453D01*
X167266Y130430D01*
X167073Y130408D01*
X167065Y130405D01*
X167056Y130404D01*
X166874Y130344D01*
X166690Y130285D01*
X166682Y130281D01*
X166674Y130278D01*
X166506Y130182D01*
X166338Y130089D01*
X166332Y130083D01*
X166324Y130078D01*
X166179Y129952D01*
X166033Y129827D01*
X166027Y129820D01*
X166020Y129814D01*
X165903Y129662D01*
X165784Y129510D01*
X165780Y129502D01*
X165775Y129495D01*
X165623Y129200D01*
X164148Y125638D01*
X161112Y122602D01*
X157146Y120959D01*
X152854Y120959D01*
X148888Y122602D01*
X145852Y125638D01*
X144377Y129200D01*
X144372Y129207D01*
X144370Y129216D01*
X144278Y129384D01*
X144186Y129554D01*
X144181Y129561D01*
X144176Y129569D01*
X144053Y129716D01*
X143930Y129865D01*
X143923Y129870D01*
X143917Y129877D01*
X143767Y129997D01*
X143617Y130119D01*
X143609Y130123D01*
X143603Y130128D01*
X143431Y130216D01*
X143261Y130306D01*
X143252Y130308D01*
X143244Y130312D01*
X143060Y130364D01*
X142874Y130419D01*
X142866Y130419D01*
X142857Y130422D01*
X142666Y130437D01*
X142473Y130453D01*
X142464Y130452D01*
X142456Y130453D01*
X142265Y130430D01*
X142073Y130408D01*
X142065Y130405D01*
X142056Y130404D01*
X141873Y130344D01*
X141690Y130285D01*
X141682Y130281D01*
X141674Y130278D01*
X141506Y130182D01*
X141338Y130089D01*
X141332Y130083D01*
X141324Y130078D01*
X141179Y129952D01*
X141033Y129827D01*
X141027Y129820D01*
X141020Y129814D01*
X140903Y129662D01*
X140784Y129510D01*
X140780Y129502D01*
X140775Y129495D01*
X140623Y129200D01*
X139148Y125638D01*
X136112Y122602D01*
X132146Y120959D01*
X127854Y120959D01*
X123888Y122602D01*
X120852Y125638D01*
X119377Y129200D01*
X119372Y129207D01*
X119370Y129216D01*
X119278Y129384D01*
X119186Y129554D01*
X119181Y129561D01*
X119176Y129569D01*
X119053Y129716D01*
X118930Y129865D01*
X118923Y129870D01*
X118917Y129877D01*
X118767Y129997D01*
X118617Y130119D01*
X118609Y130123D01*
X118603Y130128D01*
X118431Y130216D01*
X118261Y130306D01*
X118252Y130308D01*
X118244Y130312D01*
X118060Y130364D01*
X117874Y130419D01*
X117866Y130419D01*
X117857Y130422D01*
X117666Y130437D01*
X117473Y130453D01*
X117464Y130452D01*
X117456Y130453D01*
X117265Y130430D01*
X117073Y130408D01*
X117065Y130405D01*
X117056Y130404D01*
X116873Y130344D01*
X116690Y130285D01*
X116682Y130281D01*
X116674Y130278D01*
X116506Y130182D01*
X116338Y130089D01*
X116332Y130083D01*
X116324Y130078D01*
X116179Y129952D01*
X116033Y129827D01*
X116027Y129820D01*
X116020Y129814D01*
X115903Y129662D01*
X115784Y129510D01*
X115780Y129502D01*
X115775Y129495D01*
X115623Y129200D01*
X114148Y125638D01*
X111112Y122602D01*
X107146Y120959D01*
X102854Y120959D01*
G37*
%LPD*%
%LPC*%
G36*
X302854Y330959D02*
X302854Y330959D01*
X298888Y332602D01*
X295852Y335638D01*
X294321Y339334D01*
X294279Y339412D01*
X294246Y339495D01*
X294184Y339589D01*
X294131Y339689D01*
X294074Y339758D01*
X294026Y339832D01*
X293946Y339912D01*
X293874Y339999D01*
X293805Y340055D01*
X293743Y340119D01*
X293649Y340182D01*
X293562Y340253D01*
X293483Y340294D01*
X293410Y340344D01*
X293305Y340388D01*
X293205Y340440D01*
X293120Y340465D01*
X293038Y340499D01*
X292927Y340521D01*
X292819Y340553D01*
X292730Y340561D01*
X292643Y340578D01*
X292530Y340578D01*
X292418Y340588D01*
X292330Y340578D01*
X292241Y340578D01*
X292130Y340555D01*
X292018Y340543D01*
X291933Y340516D01*
X291846Y340498D01*
X291742Y340454D01*
X291634Y340420D01*
X291557Y340376D01*
X291475Y340342D01*
X291381Y340278D01*
X291283Y340223D01*
X291215Y340165D01*
X291142Y340116D01*
X291063Y340035D01*
X290977Y339961D01*
X290922Y339891D01*
X290860Y339828D01*
X290798Y339733D01*
X290729Y339644D01*
X290689Y339565D01*
X290640Y339491D01*
X290586Y339360D01*
X290548Y339285D01*
X290536Y339240D01*
X290512Y339184D01*
X290000Y337608D01*
X289229Y336094D01*
X288231Y334720D01*
X287030Y333519D01*
X285656Y332521D01*
X284142Y331750D01*
X282749Y331297D01*
X282749Y349282D01*
X282747Y349300D01*
X282749Y349317D01*
X282728Y349500D01*
X282709Y349682D01*
X282704Y349699D01*
X282702Y349717D01*
X282645Y349892D01*
X282614Y349992D01*
X282618Y349999D01*
X282665Y350177D01*
X282716Y350352D01*
X282718Y350370D01*
X282722Y350387D01*
X282749Y350718D01*
X282749Y368703D01*
X284142Y368250D01*
X285656Y367479D01*
X287030Y366481D01*
X288231Y365280D01*
X289229Y363906D01*
X290000Y362392D01*
X290512Y360816D01*
X290548Y360734D01*
X290575Y360650D01*
X290629Y360550D01*
X290674Y360447D01*
X290725Y360374D01*
X290768Y360296D01*
X290841Y360210D01*
X290906Y360117D01*
X290970Y360056D01*
X291027Y359988D01*
X291115Y359918D01*
X291197Y359840D01*
X291272Y359793D01*
X291342Y359737D01*
X291442Y359686D01*
X291538Y359625D01*
X291621Y359594D01*
X291700Y359553D01*
X291808Y359523D01*
X291914Y359482D01*
X292002Y359468D01*
X292087Y359444D01*
X292200Y359435D01*
X292312Y359416D01*
X292400Y359419D01*
X292489Y359412D01*
X292601Y359426D01*
X292714Y359430D01*
X292800Y359450D01*
X292888Y359461D01*
X292996Y359497D01*
X293106Y359523D01*
X293186Y359560D01*
X293271Y359588D01*
X293369Y359644D01*
X293471Y359691D01*
X293543Y359743D01*
X293620Y359787D01*
X293706Y359862D01*
X293797Y359928D01*
X293857Y359993D01*
X293924Y360052D01*
X293993Y360141D01*
X294069Y360224D01*
X294115Y360300D01*
X294169Y360371D01*
X294234Y360496D01*
X294278Y360569D01*
X294293Y360612D01*
X294321Y360666D01*
X295852Y364362D01*
X298888Y367398D01*
X302854Y369041D01*
X307146Y369041D01*
X311112Y367398D01*
X314148Y364362D01*
X315623Y360800D01*
X315628Y360793D01*
X315630Y360784D01*
X315723Y360615D01*
X315814Y360446D01*
X315819Y360439D01*
X315824Y360431D01*
X315948Y360283D01*
X316070Y360135D01*
X316077Y360130D01*
X316083Y360123D01*
X316233Y360003D01*
X316383Y359881D01*
X316391Y359877D01*
X316398Y359872D01*
X316567Y359785D01*
X316739Y359694D01*
X316748Y359692D01*
X316756Y359688D01*
X316938Y359636D01*
X317126Y359581D01*
X317135Y359581D01*
X317143Y359578D01*
X317334Y359563D01*
X317527Y359547D01*
X317536Y359548D01*
X317544Y359547D01*
X317735Y359570D01*
X317927Y359592D01*
X317935Y359595D01*
X317944Y359596D01*
X318125Y359655D01*
X318310Y359715D01*
X318318Y359719D01*
X318326Y359722D01*
X318493Y359817D01*
X318662Y359911D01*
X318668Y359917D01*
X318676Y359922D01*
X318822Y360049D01*
X318967Y360173D01*
X318973Y360180D01*
X318980Y360186D01*
X319097Y360338D01*
X319216Y360490D01*
X319220Y360498D01*
X319225Y360505D01*
X319377Y360800D01*
X320852Y364362D01*
X323888Y367398D01*
X327854Y369041D01*
X332146Y369041D01*
X336112Y367398D01*
X339148Y364362D01*
X340679Y360666D01*
X340721Y360588D01*
X340754Y360505D01*
X340816Y360411D01*
X340869Y360311D01*
X340926Y360243D01*
X340974Y360168D01*
X341054Y360088D01*
X341126Y360001D01*
X341195Y359945D01*
X341257Y359881D01*
X341351Y359818D01*
X341438Y359747D01*
X341517Y359706D01*
X341591Y359656D01*
X341695Y359612D01*
X341795Y359560D01*
X341880Y359535D01*
X341962Y359501D01*
X342073Y359479D01*
X342181Y359447D01*
X342270Y359439D01*
X342357Y359422D01*
X342470Y359422D01*
X342582Y359412D01*
X342671Y359422D01*
X342759Y359422D01*
X342870Y359445D01*
X342982Y359457D01*
X343067Y359484D01*
X343154Y359502D01*
X343258Y359546D01*
X343366Y359580D01*
X343443Y359624D01*
X343525Y359658D01*
X343619Y359722D01*
X343717Y359777D01*
X343785Y359835D01*
X343858Y359884D01*
X343937Y359965D01*
X344023Y360039D01*
X344078Y360109D01*
X344140Y360172D01*
X344202Y360267D01*
X344271Y360356D01*
X344311Y360435D01*
X344360Y360509D01*
X344414Y360640D01*
X344452Y360715D01*
X344464Y360760D01*
X344488Y360816D01*
X345000Y362392D01*
X345771Y363906D01*
X346769Y365280D01*
X347970Y366481D01*
X349344Y367479D01*
X350858Y368250D01*
X352251Y368703D01*
X352251Y350718D01*
X352252Y350700D01*
X352251Y350683D01*
X352272Y350500D01*
X352291Y350318D01*
X352296Y350301D01*
X352298Y350283D01*
X352355Y350108D01*
X352386Y350008D01*
X352382Y350001D01*
X352334Y349823D01*
X352284Y349648D01*
X352282Y349630D01*
X352278Y349613D01*
X352251Y349282D01*
X352251Y331297D01*
X350858Y331750D01*
X349344Y332521D01*
X347970Y333519D01*
X346769Y334720D01*
X345771Y336094D01*
X345000Y337608D01*
X344488Y339184D01*
X344452Y339266D01*
X344425Y339350D01*
X344371Y339450D01*
X344326Y339553D01*
X344275Y339626D01*
X344232Y339704D01*
X344159Y339790D01*
X344094Y339883D01*
X344030Y339944D01*
X343973Y340012D01*
X343885Y340082D01*
X343803Y340160D01*
X343728Y340207D01*
X343658Y340263D01*
X343558Y340314D01*
X343462Y340375D01*
X343379Y340406D01*
X343300Y340447D01*
X343192Y340477D01*
X343086Y340518D01*
X342998Y340532D01*
X342913Y340556D01*
X342800Y340565D01*
X342688Y340584D01*
X342600Y340581D01*
X342511Y340588D01*
X342399Y340574D01*
X342286Y340570D01*
X342200Y340550D01*
X342112Y340539D01*
X342004Y340503D01*
X341894Y340477D01*
X341814Y340440D01*
X341729Y340412D01*
X341631Y340356D01*
X341529Y340309D01*
X341457Y340257D01*
X341380Y340213D01*
X341294Y340138D01*
X341203Y340072D01*
X341143Y340007D01*
X341076Y339948D01*
X341007Y339859D01*
X340931Y339776D01*
X340885Y339700D01*
X340831Y339629D01*
X340766Y339504D01*
X340722Y339431D01*
X340707Y339388D01*
X340679Y339334D01*
X339148Y335638D01*
X336112Y332602D01*
X332146Y330959D01*
X327854Y330959D01*
X323888Y332602D01*
X320852Y335638D01*
X319377Y339200D01*
X319372Y339207D01*
X319370Y339216D01*
X319278Y339384D01*
X319186Y339554D01*
X319181Y339561D01*
X319176Y339569D01*
X319053Y339716D01*
X318930Y339865D01*
X318923Y339870D01*
X318917Y339877D01*
X318767Y339997D01*
X318617Y340119D01*
X318609Y340123D01*
X318603Y340128D01*
X318431Y340216D01*
X318261Y340306D01*
X318252Y340308D01*
X318244Y340312D01*
X318060Y340364D01*
X317874Y340419D01*
X317866Y340419D01*
X317857Y340422D01*
X317666Y340437D01*
X317473Y340453D01*
X317464Y340452D01*
X317456Y340453D01*
X317265Y340430D01*
X317073Y340408D01*
X317065Y340405D01*
X317056Y340404D01*
X316873Y340344D01*
X316690Y340285D01*
X316682Y340281D01*
X316674Y340278D01*
X316506Y340182D01*
X316338Y340089D01*
X316332Y340083D01*
X316324Y340078D01*
X316179Y339952D01*
X316033Y339827D01*
X316027Y339820D01*
X316020Y339814D01*
X315903Y339662D01*
X315784Y339510D01*
X315780Y339502D01*
X315775Y339495D01*
X315623Y339200D01*
X314148Y335638D01*
X311112Y332602D01*
X307146Y330959D01*
X302854Y330959D01*
G37*
%LPD*%
%LPC*%
G36*
X227854Y330959D02*
X227854Y330959D01*
X223888Y332602D01*
X220852Y335638D01*
X219321Y339334D01*
X219279Y339412D01*
X219246Y339495D01*
X219184Y339589D01*
X219131Y339689D01*
X219074Y339758D01*
X219026Y339832D01*
X218946Y339912D01*
X218874Y339999D01*
X218805Y340055D01*
X218743Y340119D01*
X218649Y340182D01*
X218562Y340253D01*
X218483Y340294D01*
X218410Y340344D01*
X218305Y340388D01*
X218205Y340440D01*
X218120Y340465D01*
X218038Y340499D01*
X217927Y340521D01*
X217819Y340553D01*
X217730Y340561D01*
X217643Y340578D01*
X217530Y340578D01*
X217418Y340588D01*
X217330Y340578D01*
X217241Y340578D01*
X217130Y340555D01*
X217018Y340543D01*
X216933Y340516D01*
X216846Y340498D01*
X216742Y340454D01*
X216634Y340420D01*
X216557Y340376D01*
X216475Y340342D01*
X216381Y340278D01*
X216283Y340223D01*
X216215Y340165D01*
X216142Y340116D01*
X216063Y340035D01*
X215977Y339961D01*
X215922Y339891D01*
X215860Y339828D01*
X215798Y339733D01*
X215729Y339644D01*
X215689Y339565D01*
X215640Y339491D01*
X215586Y339360D01*
X215548Y339285D01*
X215536Y339240D01*
X215512Y339184D01*
X215000Y337608D01*
X214229Y336094D01*
X213231Y334720D01*
X212030Y333519D01*
X210656Y332521D01*
X209142Y331750D01*
X207749Y331297D01*
X207749Y349282D01*
X207747Y349300D01*
X207749Y349317D01*
X207728Y349500D01*
X207709Y349682D01*
X207704Y349699D01*
X207702Y349717D01*
X207645Y349892D01*
X207614Y349992D01*
X207618Y349999D01*
X207665Y350177D01*
X207716Y350352D01*
X207718Y350370D01*
X207722Y350387D01*
X207749Y350718D01*
X207749Y368703D01*
X209142Y368250D01*
X210656Y367479D01*
X212030Y366481D01*
X213231Y365280D01*
X214229Y363906D01*
X215000Y362392D01*
X215512Y360816D01*
X215548Y360734D01*
X215575Y360650D01*
X215629Y360550D01*
X215674Y360447D01*
X215725Y360374D01*
X215768Y360296D01*
X215841Y360210D01*
X215906Y360117D01*
X215970Y360056D01*
X216027Y359988D01*
X216115Y359918D01*
X216197Y359840D01*
X216272Y359793D01*
X216342Y359737D01*
X216442Y359686D01*
X216538Y359625D01*
X216621Y359594D01*
X216700Y359553D01*
X216808Y359523D01*
X216914Y359482D01*
X217002Y359468D01*
X217087Y359444D01*
X217200Y359435D01*
X217312Y359416D01*
X217400Y359419D01*
X217489Y359412D01*
X217601Y359426D01*
X217714Y359430D01*
X217800Y359450D01*
X217888Y359461D01*
X217996Y359497D01*
X218106Y359523D01*
X218186Y359560D01*
X218271Y359588D01*
X218369Y359644D01*
X218471Y359691D01*
X218543Y359743D01*
X218620Y359787D01*
X218706Y359862D01*
X218797Y359928D01*
X218857Y359993D01*
X218924Y360052D01*
X218993Y360141D01*
X219069Y360224D01*
X219115Y360300D01*
X219169Y360371D01*
X219234Y360496D01*
X219278Y360569D01*
X219293Y360612D01*
X219321Y360666D01*
X220852Y364362D01*
X223888Y367398D01*
X227854Y369041D01*
X232146Y369041D01*
X236112Y367398D01*
X239148Y364362D01*
X240623Y360800D01*
X240628Y360793D01*
X240630Y360784D01*
X240723Y360615D01*
X240814Y360446D01*
X240819Y360439D01*
X240824Y360431D01*
X240948Y360283D01*
X241070Y360135D01*
X241077Y360130D01*
X241083Y360123D01*
X241233Y360003D01*
X241383Y359881D01*
X241391Y359877D01*
X241398Y359872D01*
X241567Y359785D01*
X241739Y359694D01*
X241748Y359692D01*
X241756Y359688D01*
X241938Y359636D01*
X242126Y359581D01*
X242135Y359581D01*
X242143Y359578D01*
X242334Y359563D01*
X242527Y359547D01*
X242536Y359548D01*
X242544Y359547D01*
X242735Y359570D01*
X242927Y359592D01*
X242935Y359595D01*
X242944Y359596D01*
X243125Y359655D01*
X243310Y359715D01*
X243318Y359719D01*
X243326Y359722D01*
X243493Y359817D01*
X243662Y359911D01*
X243668Y359917D01*
X243676Y359922D01*
X243822Y360049D01*
X243967Y360173D01*
X243973Y360180D01*
X243980Y360186D01*
X244097Y360338D01*
X244216Y360490D01*
X244220Y360498D01*
X244225Y360505D01*
X244377Y360800D01*
X245852Y364362D01*
X248888Y367398D01*
X252854Y369041D01*
X257146Y369041D01*
X261112Y367398D01*
X264148Y364362D01*
X265679Y360666D01*
X265721Y360588D01*
X265754Y360505D01*
X265816Y360411D01*
X265869Y360311D01*
X265926Y360243D01*
X265974Y360168D01*
X266054Y360088D01*
X266126Y360001D01*
X266195Y359945D01*
X266257Y359881D01*
X266351Y359818D01*
X266438Y359747D01*
X266517Y359706D01*
X266591Y359656D01*
X266695Y359612D01*
X266795Y359560D01*
X266880Y359535D01*
X266962Y359501D01*
X267073Y359479D01*
X267181Y359447D01*
X267270Y359439D01*
X267357Y359422D01*
X267470Y359422D01*
X267582Y359412D01*
X267671Y359422D01*
X267759Y359422D01*
X267870Y359445D01*
X267982Y359457D01*
X268067Y359484D01*
X268154Y359502D01*
X268258Y359546D01*
X268366Y359580D01*
X268443Y359624D01*
X268525Y359658D01*
X268619Y359722D01*
X268717Y359777D01*
X268785Y359835D01*
X268858Y359884D01*
X268937Y359965D01*
X269023Y360039D01*
X269078Y360109D01*
X269140Y360172D01*
X269202Y360267D01*
X269271Y360356D01*
X269311Y360435D01*
X269360Y360509D01*
X269414Y360640D01*
X269452Y360715D01*
X269464Y360760D01*
X269488Y360816D01*
X270000Y362392D01*
X270771Y363906D01*
X271769Y365280D01*
X272970Y366481D01*
X274344Y367479D01*
X275858Y368250D01*
X277251Y368703D01*
X277251Y350718D01*
X277252Y350700D01*
X277251Y350683D01*
X277272Y350500D01*
X277291Y350318D01*
X277296Y350301D01*
X277298Y350283D01*
X277355Y350108D01*
X277386Y350008D01*
X277382Y350001D01*
X277334Y349823D01*
X277284Y349648D01*
X277282Y349630D01*
X277278Y349613D01*
X277251Y349282D01*
X277251Y331297D01*
X275858Y331750D01*
X274344Y332521D01*
X272970Y333519D01*
X271769Y334720D01*
X270771Y336094D01*
X270000Y337608D01*
X269488Y339184D01*
X269452Y339266D01*
X269425Y339350D01*
X269371Y339450D01*
X269326Y339553D01*
X269275Y339626D01*
X269232Y339704D01*
X269159Y339790D01*
X269094Y339883D01*
X269030Y339944D01*
X268973Y340012D01*
X268885Y340082D01*
X268803Y340160D01*
X268728Y340207D01*
X268658Y340263D01*
X268558Y340314D01*
X268462Y340375D01*
X268379Y340406D01*
X268300Y340447D01*
X268192Y340477D01*
X268086Y340518D01*
X267998Y340532D01*
X267913Y340556D01*
X267800Y340565D01*
X267688Y340584D01*
X267600Y340581D01*
X267511Y340588D01*
X267399Y340574D01*
X267286Y340570D01*
X267200Y340550D01*
X267112Y340539D01*
X267004Y340503D01*
X266894Y340477D01*
X266814Y340440D01*
X266729Y340412D01*
X266631Y340356D01*
X266529Y340309D01*
X266457Y340257D01*
X266380Y340213D01*
X266294Y340138D01*
X266203Y340072D01*
X266143Y340007D01*
X266076Y339948D01*
X266007Y339859D01*
X265931Y339776D01*
X265885Y339700D01*
X265831Y339629D01*
X265766Y339504D01*
X265722Y339431D01*
X265707Y339388D01*
X265679Y339334D01*
X264148Y335638D01*
X261112Y332602D01*
X257146Y330959D01*
X252854Y330959D01*
X248888Y332602D01*
X245852Y335638D01*
X244377Y339200D01*
X244372Y339207D01*
X244370Y339216D01*
X244278Y339384D01*
X244186Y339554D01*
X244181Y339561D01*
X244176Y339569D01*
X244053Y339716D01*
X243930Y339865D01*
X243923Y339870D01*
X243917Y339877D01*
X243767Y339997D01*
X243617Y340119D01*
X243609Y340123D01*
X243603Y340128D01*
X243431Y340216D01*
X243261Y340306D01*
X243252Y340308D01*
X243244Y340312D01*
X243060Y340364D01*
X242874Y340419D01*
X242866Y340419D01*
X242857Y340422D01*
X242666Y340437D01*
X242473Y340453D01*
X242464Y340452D01*
X242456Y340453D01*
X242265Y340430D01*
X242073Y340408D01*
X242065Y340405D01*
X242056Y340404D01*
X241873Y340344D01*
X241690Y340285D01*
X241682Y340281D01*
X241674Y340278D01*
X241506Y340182D01*
X241338Y340089D01*
X241332Y340083D01*
X241324Y340078D01*
X241179Y339952D01*
X241033Y339827D01*
X241027Y339820D01*
X241020Y339814D01*
X240903Y339662D01*
X240784Y339510D01*
X240780Y339502D01*
X240775Y339495D01*
X240623Y339200D01*
X239148Y335638D01*
X236112Y332602D01*
X232146Y330959D01*
X227854Y330959D01*
G37*
%LPD*%
%LPC*%
G36*
X377854Y330959D02*
X377854Y330959D01*
X373888Y332602D01*
X370852Y335638D01*
X369321Y339334D01*
X369279Y339412D01*
X369246Y339495D01*
X369184Y339589D01*
X369131Y339689D01*
X369074Y339758D01*
X369026Y339832D01*
X368946Y339912D01*
X368874Y339999D01*
X368805Y340055D01*
X368743Y340119D01*
X368649Y340182D01*
X368562Y340253D01*
X368483Y340294D01*
X368410Y340344D01*
X368305Y340388D01*
X368205Y340440D01*
X368120Y340465D01*
X368038Y340499D01*
X367927Y340521D01*
X367819Y340553D01*
X367730Y340561D01*
X367643Y340578D01*
X367530Y340578D01*
X367418Y340588D01*
X367330Y340578D01*
X367241Y340578D01*
X367130Y340555D01*
X367018Y340543D01*
X366933Y340516D01*
X366846Y340498D01*
X366742Y340454D01*
X366634Y340420D01*
X366557Y340376D01*
X366475Y340342D01*
X366381Y340278D01*
X366283Y340223D01*
X366215Y340165D01*
X366142Y340116D01*
X366063Y340035D01*
X365977Y339961D01*
X365922Y339891D01*
X365860Y339828D01*
X365798Y339733D01*
X365729Y339644D01*
X365689Y339565D01*
X365640Y339491D01*
X365586Y339360D01*
X365548Y339285D01*
X365536Y339240D01*
X365512Y339184D01*
X365000Y337608D01*
X364229Y336094D01*
X363231Y334720D01*
X362030Y333519D01*
X360656Y332521D01*
X359142Y331750D01*
X357749Y331297D01*
X357749Y349282D01*
X357747Y349300D01*
X357749Y349317D01*
X357728Y349500D01*
X357709Y349682D01*
X357704Y349699D01*
X357702Y349717D01*
X357645Y349892D01*
X357614Y349992D01*
X357618Y349999D01*
X357665Y350177D01*
X357716Y350352D01*
X357718Y350370D01*
X357722Y350387D01*
X357749Y350718D01*
X357749Y368703D01*
X359142Y368250D01*
X360656Y367479D01*
X362030Y366481D01*
X363231Y365280D01*
X364229Y363906D01*
X365000Y362392D01*
X365512Y360816D01*
X365548Y360734D01*
X365575Y360650D01*
X365629Y360550D01*
X365674Y360447D01*
X365725Y360374D01*
X365768Y360296D01*
X365841Y360210D01*
X365906Y360117D01*
X365970Y360056D01*
X366027Y359988D01*
X366115Y359918D01*
X366197Y359840D01*
X366272Y359793D01*
X366342Y359737D01*
X366442Y359686D01*
X366538Y359625D01*
X366621Y359594D01*
X366700Y359553D01*
X366808Y359523D01*
X366914Y359482D01*
X367002Y359468D01*
X367087Y359444D01*
X367200Y359435D01*
X367312Y359416D01*
X367400Y359419D01*
X367489Y359412D01*
X367601Y359426D01*
X367714Y359430D01*
X367800Y359450D01*
X367888Y359461D01*
X367996Y359497D01*
X368106Y359523D01*
X368186Y359560D01*
X368271Y359588D01*
X368369Y359644D01*
X368471Y359691D01*
X368543Y359743D01*
X368620Y359787D01*
X368706Y359862D01*
X368797Y359928D01*
X368857Y359993D01*
X368924Y360052D01*
X368993Y360141D01*
X369069Y360224D01*
X369115Y360300D01*
X369169Y360371D01*
X369234Y360496D01*
X369278Y360569D01*
X369293Y360612D01*
X369321Y360666D01*
X370852Y364362D01*
X373888Y367398D01*
X377854Y369041D01*
X382146Y369041D01*
X386112Y367398D01*
X389148Y364362D01*
X390623Y360800D01*
X390628Y360793D01*
X390630Y360784D01*
X390723Y360614D01*
X390814Y360446D01*
X390819Y360439D01*
X390824Y360431D01*
X390948Y360283D01*
X391070Y360135D01*
X391077Y360130D01*
X391083Y360123D01*
X391233Y360003D01*
X391383Y359881D01*
X391391Y359877D01*
X391398Y359872D01*
X391568Y359784D01*
X391739Y359694D01*
X391748Y359692D01*
X391756Y359688D01*
X391940Y359636D01*
X392126Y359581D01*
X392135Y359581D01*
X392143Y359578D01*
X392334Y359563D01*
X392527Y359547D01*
X392536Y359548D01*
X392544Y359547D01*
X392736Y359570D01*
X392927Y359592D01*
X392935Y359595D01*
X392944Y359596D01*
X393126Y359656D01*
X393310Y359715D01*
X393318Y359719D01*
X393326Y359722D01*
X393494Y359818D01*
X393662Y359911D01*
X393668Y359917D01*
X393676Y359922D01*
X393822Y360049D01*
X393967Y360173D01*
X393973Y360180D01*
X393980Y360186D01*
X394097Y360338D01*
X394216Y360490D01*
X394220Y360498D01*
X394225Y360505D01*
X394377Y360800D01*
X395852Y364362D01*
X398888Y367398D01*
X402854Y369041D01*
X407146Y369041D01*
X411112Y367398D01*
X414148Y364362D01*
X415679Y360666D01*
X415721Y360588D01*
X415754Y360505D01*
X415816Y360411D01*
X415869Y360311D01*
X415926Y360243D01*
X415974Y360168D01*
X416054Y360088D01*
X416126Y360001D01*
X416195Y359945D01*
X416257Y359881D01*
X416351Y359818D01*
X416438Y359747D01*
X416517Y359706D01*
X416591Y359656D01*
X416695Y359612D01*
X416795Y359560D01*
X416880Y359535D01*
X416962Y359501D01*
X417073Y359479D01*
X417181Y359447D01*
X417270Y359439D01*
X417357Y359422D01*
X417470Y359422D01*
X417582Y359412D01*
X417671Y359422D01*
X417759Y359422D01*
X417870Y359445D01*
X417982Y359457D01*
X418067Y359484D01*
X418154Y359502D01*
X418258Y359546D01*
X418366Y359580D01*
X418443Y359624D01*
X418525Y359658D01*
X418619Y359722D01*
X418717Y359777D01*
X418785Y359835D01*
X418858Y359884D01*
X418937Y359965D01*
X419023Y360039D01*
X419078Y360109D01*
X419140Y360172D01*
X419202Y360267D01*
X419271Y360356D01*
X419311Y360435D01*
X419360Y360509D01*
X419414Y360640D01*
X419452Y360715D01*
X419464Y360760D01*
X419488Y360816D01*
X420000Y362392D01*
X420771Y363906D01*
X421769Y365280D01*
X422970Y366481D01*
X424344Y367479D01*
X425858Y368250D01*
X427251Y368703D01*
X427251Y350718D01*
X427252Y350700D01*
X427251Y350683D01*
X427272Y350500D01*
X427291Y350318D01*
X427296Y350301D01*
X427298Y350283D01*
X427355Y350108D01*
X427386Y350008D01*
X427382Y350001D01*
X427334Y349823D01*
X427284Y349648D01*
X427282Y349630D01*
X427278Y349613D01*
X427251Y349282D01*
X427251Y331297D01*
X425858Y331750D01*
X424344Y332521D01*
X422970Y333519D01*
X421769Y334720D01*
X420771Y336094D01*
X420000Y337608D01*
X419488Y339184D01*
X419452Y339266D01*
X419425Y339350D01*
X419371Y339450D01*
X419326Y339553D01*
X419275Y339626D01*
X419232Y339704D01*
X419159Y339790D01*
X419095Y339883D01*
X419030Y339944D01*
X418973Y340012D01*
X418885Y340082D01*
X418803Y340160D01*
X418728Y340207D01*
X418658Y340263D01*
X418558Y340314D01*
X418462Y340375D01*
X418379Y340406D01*
X418300Y340447D01*
X418191Y340477D01*
X418086Y340518D01*
X417998Y340532D01*
X417913Y340556D01*
X417800Y340565D01*
X417689Y340584D01*
X417600Y340581D01*
X417511Y340588D01*
X417399Y340574D01*
X417286Y340570D01*
X417200Y340550D01*
X417112Y340539D01*
X417004Y340503D01*
X416894Y340477D01*
X416814Y340440D01*
X416729Y340412D01*
X416631Y340356D01*
X416529Y340309D01*
X416457Y340257D01*
X416380Y340213D01*
X416294Y340139D01*
X416203Y340072D01*
X416143Y340007D01*
X416076Y339948D01*
X416007Y339859D01*
X415931Y339776D01*
X415885Y339700D01*
X415831Y339629D01*
X415766Y339503D01*
X415722Y339431D01*
X415707Y339388D01*
X415679Y339334D01*
X414148Y335638D01*
X411112Y332602D01*
X407146Y330959D01*
X402854Y330959D01*
X398888Y332602D01*
X395852Y335638D01*
X394377Y339200D01*
X394372Y339207D01*
X394370Y339216D01*
X394278Y339384D01*
X394186Y339554D01*
X394181Y339561D01*
X394176Y339569D01*
X394053Y339716D01*
X393930Y339865D01*
X393923Y339870D01*
X393917Y339877D01*
X393767Y339997D01*
X393617Y340119D01*
X393609Y340123D01*
X393603Y340128D01*
X393432Y340216D01*
X393261Y340306D01*
X393252Y340308D01*
X393244Y340312D01*
X393060Y340364D01*
X392874Y340419D01*
X392866Y340419D01*
X392857Y340422D01*
X392666Y340437D01*
X392473Y340453D01*
X392464Y340452D01*
X392456Y340453D01*
X392266Y340430D01*
X392073Y340408D01*
X392065Y340405D01*
X392056Y340404D01*
X391874Y340344D01*
X391690Y340285D01*
X391682Y340281D01*
X391674Y340278D01*
X391506Y340182D01*
X391338Y340089D01*
X391332Y340083D01*
X391324Y340078D01*
X391179Y339952D01*
X391033Y339827D01*
X391027Y339820D01*
X391020Y339814D01*
X390903Y339661D01*
X390784Y339510D01*
X390780Y339502D01*
X390775Y339495D01*
X390623Y339200D01*
X389148Y335638D01*
X386112Y332602D01*
X382146Y330959D01*
X377854Y330959D01*
G37*
%LPD*%
%LPC*%
G36*
X152854Y330959D02*
X152854Y330959D01*
X148888Y332602D01*
X145852Y335638D01*
X144209Y339604D01*
X144209Y360396D01*
X145852Y364362D01*
X148888Y367398D01*
X152854Y369041D01*
X157146Y369041D01*
X161112Y367398D01*
X164148Y364362D01*
X165623Y360800D01*
X165628Y360793D01*
X165630Y360784D01*
X165723Y360615D01*
X165814Y360446D01*
X165819Y360439D01*
X165824Y360431D01*
X165948Y360283D01*
X166070Y360135D01*
X166077Y360130D01*
X166083Y360123D01*
X166233Y360003D01*
X166383Y359881D01*
X166391Y359877D01*
X166398Y359872D01*
X166567Y359785D01*
X166739Y359694D01*
X166748Y359692D01*
X166756Y359688D01*
X166938Y359636D01*
X167126Y359581D01*
X167135Y359581D01*
X167143Y359578D01*
X167334Y359563D01*
X167527Y359547D01*
X167536Y359548D01*
X167544Y359547D01*
X167735Y359570D01*
X167927Y359592D01*
X167935Y359595D01*
X167944Y359596D01*
X168125Y359655D01*
X168310Y359715D01*
X168318Y359719D01*
X168326Y359722D01*
X168493Y359817D01*
X168662Y359911D01*
X168668Y359917D01*
X168676Y359922D01*
X168822Y360049D01*
X168967Y360173D01*
X168973Y360180D01*
X168980Y360186D01*
X169097Y360338D01*
X169216Y360490D01*
X169220Y360498D01*
X169225Y360505D01*
X169377Y360800D01*
X170852Y364362D01*
X173888Y367398D01*
X177854Y369041D01*
X182146Y369041D01*
X186112Y367398D01*
X189148Y364362D01*
X190679Y360666D01*
X190721Y360588D01*
X190754Y360505D01*
X190816Y360411D01*
X190869Y360311D01*
X190926Y360242D01*
X190974Y360168D01*
X191054Y360088D01*
X191126Y360001D01*
X191195Y359945D01*
X191257Y359881D01*
X191351Y359818D01*
X191438Y359747D01*
X191517Y359706D01*
X191590Y359656D01*
X191695Y359612D01*
X191795Y359560D01*
X191880Y359535D01*
X191962Y359501D01*
X192073Y359479D01*
X192181Y359447D01*
X192270Y359439D01*
X192357Y359422D01*
X192470Y359422D01*
X192582Y359412D01*
X192670Y359422D01*
X192759Y359422D01*
X192870Y359445D01*
X192982Y359457D01*
X193067Y359484D01*
X193154Y359502D01*
X193258Y359546D01*
X193366Y359580D01*
X193443Y359624D01*
X193525Y359658D01*
X193619Y359722D01*
X193717Y359777D01*
X193785Y359835D01*
X193858Y359884D01*
X193937Y359965D01*
X194023Y360039D01*
X194078Y360109D01*
X194140Y360172D01*
X194202Y360267D01*
X194271Y360356D01*
X194311Y360435D01*
X194360Y360509D01*
X194414Y360640D01*
X194452Y360715D01*
X194464Y360760D01*
X194488Y360816D01*
X195000Y362392D01*
X195771Y363906D01*
X196769Y365280D01*
X197970Y366481D01*
X199344Y367479D01*
X200858Y368250D01*
X202251Y368703D01*
X202251Y350718D01*
X202252Y350700D01*
X202251Y350683D01*
X202272Y350500D01*
X202291Y350318D01*
X202296Y350301D01*
X202298Y350283D01*
X202355Y350108D01*
X202386Y350008D01*
X202382Y350001D01*
X202334Y349823D01*
X202284Y349648D01*
X202282Y349630D01*
X202278Y349613D01*
X202251Y349282D01*
X202251Y331297D01*
X200858Y331750D01*
X199344Y332521D01*
X197970Y333519D01*
X196769Y334720D01*
X195771Y336094D01*
X195000Y337608D01*
X194488Y339184D01*
X194452Y339266D01*
X194425Y339350D01*
X194371Y339449D01*
X194326Y339553D01*
X194275Y339626D01*
X194232Y339704D01*
X194159Y339790D01*
X194094Y339883D01*
X194030Y339944D01*
X193973Y340012D01*
X193885Y340082D01*
X193803Y340160D01*
X193728Y340207D01*
X193658Y340263D01*
X193558Y340314D01*
X193462Y340375D01*
X193379Y340406D01*
X193300Y340447D01*
X193191Y340477D01*
X193086Y340518D01*
X192998Y340532D01*
X192913Y340556D01*
X192800Y340565D01*
X192688Y340584D01*
X192600Y340581D01*
X192511Y340587D01*
X192399Y340574D01*
X192286Y340570D01*
X192200Y340550D01*
X192112Y340539D01*
X192005Y340503D01*
X191894Y340477D01*
X191813Y340440D01*
X191729Y340412D01*
X191631Y340356D01*
X191528Y340309D01*
X191457Y340257D01*
X191380Y340213D01*
X191294Y340139D01*
X191203Y340072D01*
X191143Y340007D01*
X191076Y339948D01*
X191007Y339859D01*
X190931Y339776D01*
X190885Y339700D01*
X190831Y339629D01*
X190766Y339504D01*
X190722Y339431D01*
X190707Y339388D01*
X190679Y339334D01*
X189148Y335638D01*
X186112Y332602D01*
X182146Y330959D01*
X177854Y330959D01*
X173888Y332602D01*
X170852Y335638D01*
X169377Y339200D01*
X169372Y339207D01*
X169370Y339216D01*
X169278Y339384D01*
X169186Y339554D01*
X169181Y339561D01*
X169176Y339569D01*
X169053Y339716D01*
X168930Y339865D01*
X168923Y339870D01*
X168917Y339877D01*
X168767Y339997D01*
X168617Y340119D01*
X168609Y340123D01*
X168603Y340128D01*
X168431Y340216D01*
X168261Y340306D01*
X168252Y340308D01*
X168244Y340312D01*
X168060Y340364D01*
X167874Y340419D01*
X167866Y340419D01*
X167857Y340422D01*
X167666Y340437D01*
X167473Y340453D01*
X167464Y340452D01*
X167456Y340453D01*
X167265Y340430D01*
X167073Y340408D01*
X167065Y340405D01*
X167056Y340404D01*
X166873Y340344D01*
X166690Y340285D01*
X166682Y340281D01*
X166674Y340278D01*
X166506Y340182D01*
X166338Y340089D01*
X166332Y340083D01*
X166324Y340078D01*
X166179Y339952D01*
X166033Y339827D01*
X166027Y339820D01*
X166020Y339814D01*
X165903Y339662D01*
X165784Y339510D01*
X165780Y339502D01*
X165775Y339495D01*
X165623Y339200D01*
X164148Y335638D01*
X161112Y332602D01*
X157146Y330959D01*
X152854Y330959D01*
G37*
%LPD*%
%LPC*%
G36*
X299148Y454159D02*
X299148Y454159D01*
X297659Y455648D01*
X297659Y472752D01*
X299148Y474241D01*
X316252Y474241D01*
X317741Y472752D01*
X317741Y455648D01*
X316252Y454159D01*
X299148Y454159D01*
G37*
%LPD*%
%LPC*%
G36*
X299148Y479559D02*
X299148Y479559D01*
X297659Y481048D01*
X297659Y498152D01*
X299148Y499641D01*
X316252Y499641D01*
X317741Y498152D01*
X317741Y481048D01*
X316252Y479559D01*
X299148Y479559D01*
G37*
%LPD*%
%LPC*%
G36*
X375348Y479559D02*
X375348Y479559D01*
X373859Y481048D01*
X373859Y498152D01*
X375348Y499641D01*
X392452Y499641D01*
X393941Y498152D01*
X393941Y481048D01*
X392452Y479559D01*
X375348Y479559D01*
G37*
%LPD*%
%LPC*%
G36*
X222948Y479559D02*
X222948Y479559D01*
X221459Y481048D01*
X221459Y498152D01*
X222948Y499641D01*
X240052Y499641D01*
X241541Y498152D01*
X241541Y481048D01*
X240052Y479559D01*
X222948Y479559D01*
G37*
%LPD*%
%LPC*%
G36*
X222948Y454159D02*
X222948Y454159D01*
X221459Y455648D01*
X221459Y472752D01*
X222948Y474241D01*
X240052Y474241D01*
X241541Y472752D01*
X241541Y455648D01*
X240052Y454159D01*
X222948Y454159D01*
G37*
%LPD*%
%LPC*%
G36*
X172148Y479559D02*
X172148Y479559D01*
X170659Y481048D01*
X170659Y498152D01*
X172148Y499641D01*
X189252Y499641D01*
X190741Y498152D01*
X190741Y481048D01*
X189252Y479559D01*
X172148Y479559D01*
G37*
%LPD*%
%LPC*%
G36*
X324548Y479559D02*
X324548Y479559D01*
X323059Y481048D01*
X323059Y498152D01*
X324548Y499641D01*
X341652Y499641D01*
X343141Y498152D01*
X343141Y481048D01*
X341652Y479559D01*
X324548Y479559D01*
G37*
%LPD*%
%LPC*%
G36*
X349948Y479559D02*
X349948Y479559D01*
X348459Y481048D01*
X348459Y498152D01*
X349948Y499641D01*
X367052Y499641D01*
X368541Y498152D01*
X368541Y481048D01*
X367052Y479559D01*
X349948Y479559D01*
G37*
%LPD*%
%LPC*%
G36*
X197548Y454159D02*
X197548Y454159D01*
X196059Y455648D01*
X196059Y472752D01*
X197548Y474241D01*
X214652Y474241D01*
X216141Y472752D01*
X216141Y455648D01*
X214652Y454159D01*
X197548Y454159D01*
G37*
%LPD*%
%LPC*%
G36*
X375348Y454159D02*
X375348Y454159D01*
X373859Y455648D01*
X373859Y472752D01*
X375348Y474241D01*
X392452Y474241D01*
X393941Y472752D01*
X393941Y455648D01*
X392452Y454159D01*
X375348Y454159D01*
G37*
%LPD*%
%LPC*%
G36*
X349948Y454159D02*
X349948Y454159D01*
X348459Y455648D01*
X348459Y472752D01*
X349948Y474241D01*
X367052Y474241D01*
X368541Y472752D01*
X368541Y455648D01*
X367052Y454159D01*
X349948Y454159D01*
G37*
%LPD*%
%LPC*%
G36*
X324548Y454159D02*
X324548Y454159D01*
X323059Y455648D01*
X323059Y472752D01*
X324548Y474241D01*
X341652Y474241D01*
X343141Y472752D01*
X343141Y455648D01*
X341652Y454159D01*
X324548Y454159D01*
G37*
%LPD*%
%LPC*%
G36*
X641950Y82209D02*
X641950Y82209D01*
X639087Y83395D01*
X636895Y85587D01*
X635709Y88450D01*
X635709Y91550D01*
X636895Y94413D01*
X639087Y96605D01*
X641950Y97791D01*
X645050Y97791D01*
X647913Y96605D01*
X650105Y94413D01*
X651291Y91550D01*
X651291Y88450D01*
X650105Y85587D01*
X647913Y83395D01*
X645050Y82209D01*
X641950Y82209D01*
G37*
%LPD*%
%LPC*%
G36*
X641950Y172209D02*
X641950Y172209D01*
X639087Y173395D01*
X636895Y175587D01*
X635709Y178450D01*
X635709Y181550D01*
X636895Y184413D01*
X639087Y186605D01*
X641950Y187791D01*
X645050Y187791D01*
X647913Y186605D01*
X650105Y184413D01*
X651291Y181550D01*
X651291Y178450D01*
X650105Y175587D01*
X647913Y173395D01*
X645050Y172209D01*
X641950Y172209D01*
G37*
%LPD*%
%LPC*%
G36*
X641950Y262209D02*
X641950Y262209D01*
X639087Y263395D01*
X636895Y265587D01*
X635709Y268450D01*
X635709Y271550D01*
X636895Y274413D01*
X639087Y276605D01*
X641950Y277791D01*
X645050Y277791D01*
X647913Y276605D01*
X650105Y274413D01*
X651291Y271550D01*
X651291Y268450D01*
X650105Y265587D01*
X647913Y263395D01*
X645050Y262209D01*
X641950Y262209D01*
G37*
%LPD*%
%LPC*%
G36*
X641950Y352209D02*
X641950Y352209D01*
X639087Y353395D01*
X636895Y355587D01*
X635709Y358450D01*
X635709Y361550D01*
X636895Y364413D01*
X639087Y366605D01*
X641950Y367791D01*
X645050Y367791D01*
X647913Y366605D01*
X650105Y364413D01*
X651291Y361550D01*
X651291Y358450D01*
X650105Y355587D01*
X647913Y353395D01*
X645050Y352209D01*
X641950Y352209D01*
G37*
%LPD*%
%LPC*%
G36*
X432749Y352749D02*
X432749Y352749D01*
X432749Y368703D01*
X434142Y368250D01*
X435656Y367479D01*
X437030Y366481D01*
X438231Y365280D01*
X439229Y363906D01*
X440000Y362392D01*
X440525Y360777D01*
X440791Y359099D01*
X440791Y352749D01*
X432749Y352749D01*
G37*
%LPD*%
%LPC*%
G36*
X432749Y347251D02*
X432749Y347251D01*
X440791Y347251D01*
X440791Y340901D01*
X440525Y339223D01*
X440000Y337608D01*
X439229Y336094D01*
X438231Y334720D01*
X437030Y333519D01*
X435656Y332521D01*
X434142Y331750D01*
X432749Y331297D01*
X432749Y347251D01*
G37*
%LPD*%
%LPC*%
G36*
X208599Y492099D02*
X208599Y492099D01*
X208599Y499641D01*
X213935Y499641D01*
X214581Y499468D01*
X215160Y499133D01*
X215633Y498660D01*
X215968Y498081D01*
X216141Y497435D01*
X216141Y492099D01*
X208599Y492099D01*
G37*
%LPD*%
%LPC*%
G36*
X411799Y492099D02*
X411799Y492099D01*
X411799Y499641D01*
X417135Y499641D01*
X417781Y499468D01*
X418360Y499133D01*
X418833Y498660D01*
X419168Y498081D01*
X419341Y497435D01*
X419341Y492099D01*
X411799Y492099D01*
G37*
%LPD*%
%LPC*%
G36*
X259399Y492099D02*
X259399Y492099D01*
X259399Y499641D01*
X264735Y499641D01*
X265381Y499468D01*
X265960Y499133D01*
X266433Y498660D01*
X266768Y498081D01*
X266941Y497435D01*
X266941Y492099D01*
X259399Y492099D01*
G37*
%LPD*%
%LPC*%
G36*
X411799Y466699D02*
X411799Y466699D01*
X411799Y474241D01*
X417135Y474241D01*
X417781Y474068D01*
X418360Y473733D01*
X418833Y473260D01*
X419168Y472681D01*
X419341Y472035D01*
X419341Y466699D01*
X411799Y466699D01*
G37*
%LPD*%
%LPC*%
G36*
X183199Y466699D02*
X183199Y466699D01*
X183199Y474241D01*
X188535Y474241D01*
X189181Y474068D01*
X189760Y473733D01*
X190233Y473260D01*
X190568Y472681D01*
X190741Y472035D01*
X190741Y466699D01*
X183199Y466699D01*
G37*
%LPD*%
%LPC*%
G36*
X259399Y466699D02*
X259399Y466699D01*
X259399Y474241D01*
X264735Y474241D01*
X265381Y474068D01*
X265960Y473733D01*
X266433Y473260D01*
X266768Y472681D01*
X266941Y472035D01*
X266941Y466699D01*
X259399Y466699D01*
G37*
%LPD*%
%LPC*%
G36*
X196059Y492099D02*
X196059Y492099D01*
X196059Y497435D01*
X196232Y498081D01*
X196567Y498660D01*
X197040Y499133D01*
X197619Y499468D01*
X198265Y499641D01*
X203601Y499641D01*
X203601Y492099D01*
X196059Y492099D01*
G37*
%LPD*%
%LPC*%
G36*
X411799Y454159D02*
X411799Y454159D01*
X411799Y461701D01*
X419341Y461701D01*
X419341Y456365D01*
X419168Y455719D01*
X418833Y455140D01*
X418360Y454667D01*
X417781Y454332D01*
X417135Y454159D01*
X411799Y454159D01*
G37*
%LPD*%
%LPC*%
G36*
X259399Y454159D02*
X259399Y454159D01*
X259399Y461701D01*
X266941Y461701D01*
X266941Y456365D01*
X266768Y455719D01*
X266433Y455140D01*
X265960Y454667D01*
X265381Y454332D01*
X264735Y454159D01*
X259399Y454159D01*
G37*
%LPD*%
%LPC*%
G36*
X170659Y466699D02*
X170659Y466699D01*
X170659Y472035D01*
X170832Y472681D01*
X171167Y473260D01*
X171640Y473733D01*
X172219Y474068D01*
X172865Y474241D01*
X178201Y474241D01*
X178201Y466699D01*
X170659Y466699D01*
G37*
%LPD*%
%LPC*%
G36*
X183199Y454159D02*
X183199Y454159D01*
X183199Y461701D01*
X190741Y461701D01*
X190741Y456365D01*
X190568Y455719D01*
X190233Y455140D01*
X189760Y454667D01*
X189181Y454332D01*
X188535Y454159D01*
X183199Y454159D01*
G37*
%LPD*%
%LPC*%
G36*
X399259Y466699D02*
X399259Y466699D01*
X399259Y472035D01*
X399432Y472681D01*
X399767Y473260D01*
X400240Y473733D01*
X400819Y474068D01*
X401465Y474241D01*
X406801Y474241D01*
X406801Y466699D01*
X399259Y466699D01*
G37*
%LPD*%
%LPC*%
G36*
X246859Y466699D02*
X246859Y466699D01*
X246859Y472035D01*
X247032Y472681D01*
X247367Y473260D01*
X247840Y473733D01*
X248419Y474068D01*
X249065Y474241D01*
X254401Y474241D01*
X254401Y466699D01*
X246859Y466699D01*
G37*
%LPD*%
%LPC*%
G36*
X411799Y479559D02*
X411799Y479559D01*
X411799Y487101D01*
X419341Y487101D01*
X419341Y481765D01*
X419168Y481119D01*
X418833Y480540D01*
X418360Y480067D01*
X417781Y479732D01*
X417135Y479559D01*
X411799Y479559D01*
G37*
%LPD*%
%LPC*%
G36*
X208599Y479559D02*
X208599Y479559D01*
X208599Y487101D01*
X216141Y487101D01*
X216141Y481765D01*
X215968Y481119D01*
X215633Y480540D01*
X215160Y480067D01*
X214581Y479732D01*
X213935Y479559D01*
X208599Y479559D01*
G37*
%LPD*%
%LPC*%
G36*
X399259Y492099D02*
X399259Y492099D01*
X399259Y497435D01*
X399432Y498081D01*
X399767Y498660D01*
X400240Y499133D01*
X400819Y499468D01*
X401465Y499641D01*
X406801Y499641D01*
X406801Y492099D01*
X399259Y492099D01*
G37*
%LPD*%
%LPC*%
G36*
X172865Y454159D02*
X172865Y454159D01*
X172219Y454332D01*
X171640Y454667D01*
X171167Y455140D01*
X170832Y455719D01*
X170659Y456365D01*
X170659Y461701D01*
X178201Y461701D01*
X178201Y454159D01*
X172865Y454159D01*
G37*
%LPD*%
%LPC*%
G36*
X401465Y454159D02*
X401465Y454159D01*
X400819Y454332D01*
X400240Y454667D01*
X399767Y455140D01*
X399432Y455719D01*
X399259Y456365D01*
X399259Y461701D01*
X406801Y461701D01*
X406801Y454159D01*
X401465Y454159D01*
G37*
%LPD*%
%LPC*%
G36*
X249065Y454159D02*
X249065Y454159D01*
X248419Y454332D01*
X247840Y454667D01*
X247367Y455140D01*
X247032Y455719D01*
X246859Y456365D01*
X246859Y461701D01*
X254401Y461701D01*
X254401Y454159D01*
X249065Y454159D01*
G37*
%LPD*%
%LPC*%
G36*
X401465Y479559D02*
X401465Y479559D01*
X400819Y479732D01*
X400240Y480067D01*
X399767Y480540D01*
X399432Y481119D01*
X399259Y481765D01*
X399259Y487101D01*
X406801Y487101D01*
X406801Y479559D01*
X401465Y479559D01*
G37*
%LPD*%
%LPC*%
G36*
X198265Y479559D02*
X198265Y479559D01*
X197619Y479732D01*
X197040Y480067D01*
X196567Y480540D01*
X196232Y481119D01*
X196059Y481765D01*
X196059Y487101D01*
X203601Y487101D01*
X203601Y479559D01*
X198265Y479559D01*
G37*
%LPD*%
%LPC*%
G36*
X670931Y362031D02*
X670931Y362031D01*
X670931Y367539D01*
X671172Y367491D01*
X672590Y366904D01*
X673866Y366052D01*
X674952Y364966D01*
X675804Y363690D01*
X676391Y362272D01*
X676439Y362031D01*
X670931Y362031D01*
G37*
%LPD*%
%LPC*%
G36*
X670931Y272031D02*
X670931Y272031D01*
X670931Y277539D01*
X671172Y277491D01*
X672590Y276904D01*
X673866Y276052D01*
X674952Y274966D01*
X675804Y273690D01*
X676391Y272272D01*
X676439Y272031D01*
X670931Y272031D01*
G37*
%LPD*%
%LPC*%
G36*
X670931Y182031D02*
X670931Y182031D01*
X670931Y187539D01*
X671172Y187491D01*
X672590Y186904D01*
X673866Y186052D01*
X674952Y184966D01*
X675804Y183690D01*
X676391Y182272D01*
X676439Y182031D01*
X670931Y182031D01*
G37*
%LPD*%
%LPC*%
G36*
X670931Y92031D02*
X670931Y92031D01*
X670931Y97539D01*
X671172Y97491D01*
X672590Y96904D01*
X673866Y96052D01*
X674952Y94966D01*
X675804Y93690D01*
X676391Y92272D01*
X676439Y92031D01*
X670931Y92031D01*
G37*
%LPD*%
%LPC*%
G36*
X661361Y362031D02*
X661361Y362031D01*
X661409Y362272D01*
X661996Y363690D01*
X662848Y364966D01*
X663934Y366052D01*
X665210Y366904D01*
X666628Y367491D01*
X666869Y367539D01*
X666869Y362031D01*
X661361Y362031D01*
G37*
%LPD*%
%LPC*%
G36*
X670931Y357969D02*
X670931Y357969D01*
X676439Y357969D01*
X676391Y357728D01*
X675804Y356310D01*
X674952Y355034D01*
X673866Y353948D01*
X672590Y353096D01*
X671172Y352509D01*
X670931Y352461D01*
X670931Y357969D01*
G37*
%LPD*%
%LPC*%
G36*
X661361Y272031D02*
X661361Y272031D01*
X661409Y272272D01*
X661996Y273690D01*
X662848Y274966D01*
X663934Y276052D01*
X665210Y276904D01*
X666628Y277491D01*
X666869Y277539D01*
X666869Y272031D01*
X661361Y272031D01*
G37*
%LPD*%
%LPC*%
G36*
X670931Y267969D02*
X670931Y267969D01*
X676439Y267969D01*
X676391Y267728D01*
X675804Y266310D01*
X674952Y265034D01*
X673866Y263948D01*
X672590Y263096D01*
X671172Y262509D01*
X670931Y262461D01*
X670931Y267969D01*
G37*
%LPD*%
%LPC*%
G36*
X661361Y182031D02*
X661361Y182031D01*
X661409Y182272D01*
X661996Y183690D01*
X662848Y184966D01*
X663934Y186052D01*
X665210Y186904D01*
X666628Y187491D01*
X666869Y187539D01*
X666869Y182031D01*
X661361Y182031D01*
G37*
%LPD*%
%LPC*%
G36*
X670931Y177969D02*
X670931Y177969D01*
X676439Y177969D01*
X676391Y177728D01*
X675804Y176310D01*
X674952Y175034D01*
X673866Y173948D01*
X672590Y173096D01*
X671172Y172509D01*
X670931Y172461D01*
X670931Y177969D01*
G37*
%LPD*%
%LPC*%
G36*
X661361Y92031D02*
X661361Y92031D01*
X661409Y92272D01*
X661996Y93690D01*
X662848Y94966D01*
X663934Y96052D01*
X665210Y96904D01*
X666628Y97491D01*
X666869Y97539D01*
X666869Y92031D01*
X661361Y92031D01*
G37*
%LPD*%
%LPC*%
G36*
X670931Y87969D02*
X670931Y87969D01*
X676439Y87969D01*
X676391Y87728D01*
X675804Y86310D01*
X674952Y85034D01*
X673866Y83948D01*
X672590Y83096D01*
X671172Y82509D01*
X670931Y82461D01*
X670931Y87969D01*
G37*
%LPD*%
%LPC*%
G36*
X666628Y352509D02*
X666628Y352509D01*
X665210Y353096D01*
X663934Y353948D01*
X662848Y355034D01*
X661996Y356310D01*
X661409Y357728D01*
X661361Y357969D01*
X666869Y357969D01*
X666869Y352461D01*
X666628Y352509D01*
G37*
%LPD*%
%LPC*%
G36*
X666628Y262509D02*
X666628Y262509D01*
X665210Y263096D01*
X663934Y263948D01*
X662848Y265034D01*
X661996Y266310D01*
X661409Y267728D01*
X661361Y267969D01*
X666869Y267969D01*
X666869Y262461D01*
X666628Y262509D01*
G37*
%LPD*%
%LPC*%
G36*
X666628Y172509D02*
X666628Y172509D01*
X665210Y173096D01*
X663934Y173948D01*
X662848Y175034D01*
X661996Y176310D01*
X661409Y177728D01*
X661361Y177969D01*
X666869Y177969D01*
X666869Y172461D01*
X666628Y172509D01*
G37*
%LPD*%
%LPC*%
G36*
X666628Y82509D02*
X666628Y82509D01*
X665210Y83096D01*
X663934Y83948D01*
X662848Y85034D01*
X661996Y86310D01*
X661409Y87728D01*
X661361Y87969D01*
X666869Y87969D01*
X666869Y82461D01*
X666628Y82509D01*
G37*
%LPD*%
D10*
X668900Y360000D03*
X643500Y360000D03*
D11*
X491100Y360000D03*
X541900Y360000D03*
D10*
X668900Y270000D03*
X643500Y270000D03*
D11*
X491100Y270000D03*
X541900Y270000D03*
D12*
X180700Y464200D03*
X180700Y489600D03*
X206100Y464200D03*
X206100Y489600D03*
X231500Y464200D03*
X231500Y489600D03*
X256900Y489600D03*
X282300Y464200D03*
X282300Y489600D03*
X307700Y464200D03*
X307700Y489600D03*
X333100Y464200D03*
X333100Y489600D03*
X358500Y464200D03*
X358500Y489600D03*
X383900Y464200D03*
X383900Y489600D03*
X409300Y464200D03*
X409300Y489600D03*
X256900Y464200D03*
D13*
X559000Y463500D02*
X559000Y484500D01*
X594000Y484500D02*
X594000Y463500D01*
D10*
X668900Y180000D03*
X643500Y180000D03*
D11*
X491100Y180000D03*
X541900Y180000D03*
D10*
X668900Y90000D03*
X643500Y90000D03*
D11*
X491100Y90000D03*
X541900Y90000D03*
D14*
X430000Y341750D02*
X430000Y358250D01*
X405000Y358250D02*
X405000Y341750D01*
X380000Y341750D02*
X380000Y358250D01*
X355000Y358250D02*
X355000Y341750D01*
X330000Y341750D02*
X330000Y358250D01*
X305000Y358250D02*
X305000Y341750D01*
X280000Y341750D02*
X280000Y358250D01*
X255000Y358250D02*
X255000Y341750D01*
X230000Y341750D02*
X230000Y358250D01*
X205000Y358250D02*
X205000Y341750D01*
X180000Y341750D02*
X180000Y358250D01*
X155000Y358250D02*
X155000Y341750D01*
X430000Y148250D02*
X430000Y131750D01*
X405000Y131750D02*
X405000Y148250D01*
X380000Y148250D02*
X380000Y131750D01*
X355000Y131750D02*
X355000Y148250D01*
X280000Y148250D02*
X280000Y131750D01*
X255000Y131750D02*
X255000Y148250D01*
X230000Y148250D02*
X230000Y131750D01*
X205000Y131750D02*
X205000Y148250D01*
X180000Y148250D02*
X180000Y131750D01*
X155000Y131750D02*
X155000Y148250D01*
X130000Y148250D02*
X130000Y131750D01*
X105000Y131750D02*
X105000Y148250D01*
D15*
X491100Y180000D02*
X491100Y90000D01*
X491100Y180000D02*
X491100Y270000D01*
X491100Y360000D01*
D16*
X80000Y430000D03*
X130000Y430000D03*
X180000Y430000D03*
X220000Y430000D03*
X60500Y96000D03*
X118000Y96500D03*
X142500Y119500D03*
X143000Y160000D03*
X33000Y131000D03*
X32500Y181500D03*
X32500Y234500D03*
X32000Y299000D03*
X32000Y363500D03*
X49000Y410500D03*
X153500Y460000D03*
X93000Y460000D03*
X28000Y437000D03*
X5500Y352000D03*
X5500Y271500D03*
X6500Y207000D03*
X6500Y153000D03*
X16000Y81500D03*
X82000Y72000D03*
X166500Y81500D03*
X60500Y122500D03*
X58500Y168000D03*
X59000Y219000D03*
X58500Y264500D03*
X59500Y332500D03*
X61000Y379000D03*
X113000Y404000D03*
X165500Y404000D03*
X209500Y403000D03*
X252000Y418500D03*
X267000Y447000D03*
X241000Y504500D03*
X199500Y521000D03*
X143000Y522500D03*
X83000Y521500D03*
X7000Y467000D03*
X204500Y163000D03*
X193000Y73500D03*
X207500Y114500D03*
X87500Y140000D03*
M02*
