"Qty";"Value";"Package";"Parts";"DESCRIPTION";"MF";"MPN";"SPICEPREFIX";
"4";"009175002701196";"0091750027";"CN2, CN3, CN4, CN5";"IDC connector, 2-way, AWG 28, wire stop";"AVX";"009175002701196";"";
"2";"009175002702996";"0091750027";"CN6, CN8";"IDC connector, 2-way, AWG 26, wire stop";"AVX";"009175002702996";"";
"1";"009175003702996";"0091750037";"CN7";"IDC connector, 3-way, AWG 26, wire stop";"AVX";"009175003702996";"";
"1";"009176002701196";"0091760027";"CN1";"IDC connector, 2-way, AWG 18, wire stop";"AVX";"009176002701196";"";
"2";"0R";"R0805";"R2, R5";"";"";"";"R";
"1";"0R";"R1206";"R6";"";"";"";"R";
"1";"10126-52B2PC";"10126-52B2PC";"CN9";"MDR plug, 26-pin, right angle, ground lock";"3M";"10126-52B2PC";"";
"1";"31V DC";"CT/CN1812";"R1";"Metal oxide varistor, generic, 31V DC, 1812";"EPCOS";"B72580V250K62";"";
"1";"APAN3124";"EXTRA-BOM-LINE";"X1";"24V relay, mechanical";"PANASONIC";"APAN3124";"";
"1";"AWP-20P";"3M_20";"CN10";"IDC socket, 2x10, straight, with latch";"CONNFLY";"DS1011-20SBSIB7";"";
"2";"LL4148";"MINIMELF";"D1, D2";"Diode, generic, 100V/0.15A, MiniMELF";"any";"LL4148";"";
"1";"PA1A-PS";"PA1A-PS-HORIZONTAL";"REL1";"Relay socket";"PANASONIC";"PA1A-PS";"";
