"Qty";"Value";"Package";"Parts";"DESCRIPTION";"MF";"MPN";
"5";"733-104";"EXTRA-BOM-LINE";"X1, X2, X3, X4, X5";"MCS-MICRO socket, wire, 4-way";"WAGO";"733-104";
"5";"733-364";"P-733-364";"CN2, CN3, CN4, CN5, CN14";"Series 733, Male header (for PCBs) Angled solder pin 0.8 x 0.8 mm";"WAGO";"733-364";
"1";"AWP-20K";"3M_20L";"CN1";"IDC socket, 2x10, right angle, with latch";"CONNFLY";"DS1011-20RBSIB7";
"1";"DS1016-20MASIBB";"EXTRA-BOM-LINE";"X23";"IDC 2x10 female connector, with strain relief, generic";"CONNFLY";"DS1016-20MASIBB";
