"Qty";"Value";"Package";"Parts";"DESCRIPTION";"MF";"MPN";"SPICEPREFIX";
"4";"009175002701196";"0091750027";"X1, X11, X12, X13";"IDC connector, 2-way, AWG 28, wire stop";"AVX";"009175002701196";"";
"4";"009175003702996";"0091750037";"X7, X8, X9, X10";"IDC connector, 3-way, AWG 26, wire stop";"AVX";"009175003702996";"";
"1";"009176002001006";"0091760020";"X2";"IDC connector, 2-way, AWG 18";"AVX";"009176002001006";"";
"1";"009176002032006";"0091760020";"X5";"IDC connector, 2-way, AWG 24";"AVX";"009176002032006";"";
"2";"0R";"R0805";"R2, R5";"";"";"";"R";
"1";"10126-52B2PC";"10126-52B2PC";"CN2";"MDR plug, 26-pin, right angle, ground lock";"3M";"10126-52B2PC";"";
"1";"609176002016099";"EXTRA-BOM-LINE";"X6";"9176 cap, 2-way, wire stop, AWG 24-22";"AVX";"609176002016099";"";
"1";"609176002021199";"EXTRA-BOM-LINE";"X3";"9176 cap, 2-way, wire stop, AWG 20-18";"AVX";"609176002021199";"";
"1";"APAN3124";"EXTRA-BOM-LINE";"X4";"Form A relay, 24V, 5A";"PANASONIC";"APAN3124";"";
"1";"AWP-20P";"3M_20";"CN3";"";"";"";"";
"2";"DNM";"R0805";"R3, R4";"";"";"";"R";
"1";"PA1A-PS";"PA1A-PS-VERTICAL";"REL1";"Relay socket";"PANASONIC";"PA1A-PS";"";
"2";"S1B";"DO214AC";"D1, D2";"Diode, generic, 1A/100V";"";"";"";
