<?xml version="1.0" encoding="utf-8"?>
<!DOCTYPE eagle SYSTEM "eagle.dtd">
<eagle version="9.3.1">
<drawing>
<settings>
<setting alwaysvectorfont="yes"/>
<setting verticaltext="up"/>
</settings>
<grid distance="0.1" unitdist="mm" unit="mm" style="lines" multiple="1" display="yes" altdistance="5" altunitdist="mil" altunit="mil"/>
<layers>
<layer number="1" name="Top" color="4" fill="1" visible="yes" active="yes"/>
<layer number="2" name="Route2" color="16" fill="1" visible="no" active="no"/>
<layer number="15" name="Route15" color="23" fill="1" visible="no" active="no"/>
<layer number="16" name="Bottom" color="1" fill="1" visible="yes" active="yes"/>
<layer number="17" name="Pads" color="2" fill="1" visible="yes" active="yes"/>
<layer number="18" name="Vias" color="2" fill="1" visible="yes" active="yes"/>
<layer number="19" name="Unrouted" color="6" fill="1" visible="yes" active="yes"/>
<layer number="20" name="Dimension" color="24" fill="1" visible="yes" active="yes"/>
<layer number="21" name="tPlace" color="7" fill="1" visible="yes" active="yes"/>
<layer number="22" name="bPlace" color="7" fill="1" visible="yes" active="yes"/>
<layer number="23" name="tOrigins" color="15" fill="1" visible="yes" active="yes"/>
<layer number="24" name="bOrigins" color="15" fill="1" visible="yes" active="yes"/>
<layer number="25" name="tNames" color="7" fill="1" visible="yes" active="yes"/>
<layer number="26" name="bNames" color="7" fill="1" visible="yes" active="yes"/>
<layer number="27" name="tValues" color="7" fill="1" visible="no" active="yes"/>
<layer number="28" name="bValues" color="7" fill="1" visible="no" active="yes"/>
<layer number="29" name="tStop" color="7" fill="3" visible="no" active="yes"/>
<layer number="30" name="bStop" color="7" fill="6" visible="no" active="yes"/>
<layer number="31" name="tCream" color="7" fill="4" visible="no" active="yes"/>
<layer number="32" name="bCream" color="7" fill="5" visible="no" active="yes"/>
<layer number="33" name="tFinish" color="6" fill="3" visible="no" active="yes"/>
<layer number="34" name="bFinish" color="6" fill="6" visible="no" active="yes"/>
<layer number="35" name="tGlue" color="7" fill="4" visible="no" active="yes"/>
<layer number="36" name="bGlue" color="7" fill="5" visible="no" active="yes"/>
<layer number="37" name="tTest" color="7" fill="1" visible="no" active="yes"/>
<layer number="38" name="bTest" color="7" fill="1" visible="no" active="yes"/>
<layer number="39" name="tKeepout" color="4" fill="11" visible="yes" active="yes"/>
<layer number="40" name="bKeepout" color="1" fill="11" visible="yes" active="yes"/>
<layer number="41" name="tRestrict" color="4" fill="10" visible="yes" active="yes"/>
<layer number="42" name="bRestrict" color="1" fill="10" visible="yes" active="yes"/>
<layer number="43" name="vRestrict" color="2" fill="10" visible="yes" active="yes"/>
<layer number="44" name="Drills" color="7" fill="1" visible="no" active="yes"/>
<layer number="45" name="Holes" color="7" fill="1" visible="yes" active="yes"/>
<layer number="46" name="Milling" color="3" fill="1" visible="no" active="yes"/>
<layer number="47" name="Measures" color="7" fill="1" visible="yes" active="yes"/>
<layer number="48" name="Document" color="7" fill="1" visible="yes" active="yes"/>
<layer number="49" name="Reference" color="7" fill="1" visible="yes" active="yes"/>
<layer number="50" name="dxf" color="7" fill="1" visible="no" active="no"/>
<layer number="51" name="tDocu" color="7" fill="1" visible="yes" active="yes"/>
<layer number="52" name="bDocu" color="7" fill="1" visible="yes" active="yes"/>
<layer number="53" name="tGND_GNDA" color="7" fill="9" visible="no" active="no"/>
<layer number="54" name="bGND_GNDA" color="1" fill="9" visible="no" active="no"/>
<layer number="56" name="wert" color="7" fill="1" visible="no" active="no"/>
<layer number="57" name="tCAD" color="7" fill="1" visible="no" active="no"/>
<layer number="88" name="SimResults" color="9" fill="1" visible="no" active="no"/>
<layer number="89" name="SimProbes" color="9" fill="1" visible="no" active="no"/>
<layer number="90" name="Modules" color="5" fill="1" visible="no" active="no"/>
<layer number="91" name="Nets" color="2" fill="1" visible="no" active="no"/>
<layer number="92" name="Busses" color="1" fill="1" visible="no" active="no"/>
<layer number="93" name="Pins" color="2" fill="1" visible="no" active="no"/>
<layer number="94" name="Symbols" color="4" fill="1" visible="no" active="no"/>
<layer number="95" name="Names" color="7" fill="1" visible="no" active="no"/>
<layer number="96" name="Values" color="7" fill="1" visible="no" active="no"/>
<layer number="97" name="Info" color="7" fill="1" visible="no" active="no"/>
<layer number="98" name="Guide" color="6" fill="1" visible="no" active="no"/>
<layer number="99" name="SpiceOrder" color="5" fill="1" visible="no" active="no"/>
<layer number="100" name="Warning" color="59" fill="1" visible="yes" active="yes"/>
<layer number="101" name="Patch_Top" color="12" fill="4" visible="yes" active="yes"/>
<layer number="102" name="Vscore" color="7" fill="1" visible="yes" active="yes"/>
<layer number="103" name="tMap" color="7" fill="1" visible="yes" active="yes"/>
<layer number="104" name="Name" color="16" fill="1" visible="yes" active="yes"/>
<layer number="105" name="tPlate" color="7" fill="1" visible="yes" active="yes"/>
<layer number="106" name="bPlate" color="7" fill="1" visible="yes" active="yes"/>
<layer number="107" name="Crop" color="7" fill="1" visible="yes" active="yes"/>
<layer number="108" name="tplace-old" color="10" fill="1" visible="yes" active="yes"/>
<layer number="109" name="ref-old" color="11" fill="1" visible="yes" active="yes"/>
<layer number="110" name="fp0" color="7" fill="1" visible="yes" active="yes"/>
<layer number="111" name="LPC17xx" color="7" fill="1" visible="yes" active="yes"/>
<layer number="112" name="tSilk" color="7" fill="1" visible="yes" active="yes"/>
<layer number="113" name="IDFDebug" color="4" fill="1" visible="yes" active="yes"/>
<layer number="116" name="Patch_BOT" color="9" fill="4" visible="yes" active="yes"/>
<layer number="121" name="_tsilk" color="7" fill="1" visible="yes" active="yes"/>
<layer number="122" name="_bsilk" color="7" fill="1" visible="yes" active="yes"/>
<layer number="123" name="tTestmark" color="7" fill="1" visible="yes" active="yes"/>
<layer number="124" name="bTestmark" color="7" fill="1" visible="yes" active="yes"/>
<layer number="125" name="_tNames" color="7" fill="1" visible="yes" active="yes"/>
<layer number="126" name="_bNames" color="7" fill="1" visible="yes" active="yes"/>
<layer number="127" name="_tValues" color="7" fill="1" visible="yes" active="yes"/>
<layer number="128" name="_bValues" color="7" fill="1" visible="yes" active="yes"/>
<layer number="131" name="tAdjust" color="7" fill="1" visible="yes" active="yes"/>
<layer number="132" name="bAdjust" color="7" fill="1" visible="yes" active="yes"/>
<layer number="144" name="Drill_legend" color="7" fill="1" visible="yes" active="yes"/>
<layer number="150" name="Notes" color="7" fill="1" visible="yes" active="yes"/>
<layer number="151" name="HeatSink" color="7" fill="1" visible="yes" active="yes"/>
<layer number="152" name="_bDocu" color="7" fill="1" visible="yes" active="yes"/>
<layer number="153" name="FabDoc1" color="7" fill="1" visible="yes" active="yes"/>
<layer number="154" name="FabDoc2" color="7" fill="1" visible="yes" active="yes"/>
<layer number="155" name="FabDoc3" color="7" fill="1" visible="yes" active="yes"/>
<layer number="199" name="Contour" color="7" fill="1" visible="yes" active="yes"/>
<layer number="200" name="200bmp" color="1" fill="10" visible="yes" active="yes"/>
<layer number="201" name="201bmp" color="2" fill="10" visible="yes" active="yes"/>
<layer number="202" name="202bmp" color="3" fill="10" visible="yes" active="yes"/>
<layer number="203" name="203bmp" color="4" fill="10" visible="yes" active="yes"/>
<layer number="204" name="204bmp" color="5" fill="10" visible="yes" active="yes"/>
<layer number="205" name="205bmp" color="6" fill="10" visible="yes" active="yes"/>
<layer number="206" name="206bmp" color="7" fill="10" visible="yes" active="yes"/>
<layer number="207" name="207bmp" color="8" fill="10" visible="yes" active="yes"/>
<layer number="208" name="208bmp" color="9" fill="10" visible="yes" active="yes"/>
<layer number="209" name="209bmp" color="7" fill="1" visible="yes" active="yes"/>
<layer number="210" name="210bmp" color="7" fill="1" visible="yes" active="yes"/>
<layer number="211" name="211bmp" color="7" fill="1" visible="yes" active="yes"/>
<layer number="212" name="212bmp" color="7" fill="1" visible="yes" active="yes"/>
<layer number="213" name="213bmp" color="7" fill="1" visible="yes" active="yes"/>
<layer number="214" name="214bmp" color="7" fill="1" visible="yes" active="yes"/>
<layer number="215" name="215bmp" color="7" fill="1" visible="yes" active="yes"/>
<layer number="216" name="216bmp" color="7" fill="1" visible="yes" active="yes"/>
<layer number="217" name="217bmp" color="18" fill="1" visible="no" active="no"/>
<layer number="218" name="218bmp" color="19" fill="1" visible="no" active="no"/>
<layer number="219" name="219bmp" color="20" fill="1" visible="no" active="no"/>
<layer number="220" name="220bmp" color="21" fill="1" visible="no" active="no"/>
<layer number="221" name="221bmp" color="22" fill="1" visible="no" active="no"/>
<layer number="222" name="222bmp" color="23" fill="1" visible="no" active="no"/>
<layer number="223" name="223bmp" color="24" fill="1" visible="no" active="no"/>
<layer number="224" name="224bmp" color="25" fill="1" visible="no" active="no"/>
<layer number="225" name="225bmp" color="7" fill="1" visible="yes" active="yes"/>
<layer number="226" name="226bmp" color="7" fill="1" visible="yes" active="yes"/>
<layer number="227" name="227bmp" color="7" fill="1" visible="yes" active="yes"/>
<layer number="228" name="228bmp" color="7" fill="1" visible="yes" active="yes"/>
<layer number="229" name="229bmp" color="7" fill="1" visible="yes" active="yes"/>
<layer number="230" name="230bmp" color="7" fill="1" visible="yes" active="yes"/>
<layer number="231" name="231bmp" color="7" fill="1" visible="yes" active="yes"/>
<layer number="248" name="Housing" color="7" fill="1" visible="yes" active="yes"/>
<layer number="249" name="Edge" color="7" fill="1" visible="yes" active="yes"/>
<layer number="250" name="Descript" color="3" fill="1" visible="no" active="no"/>
<layer number="251" name="SMDround" color="12" fill="11" visible="no" active="no"/>
<layer number="254" name="cooling" color="7" fill="1" visible="yes" active="yes"/>
</layers>
<board>
<plain>
<wire x1="41.4" y1="50" x2="21" y2="50" width="0.1524" layer="20"/>
<wire x1="21" y1="50" x2="20" y2="49" width="0.1524" layer="20" curve="90"/>
<wire x1="20" y1="49" x2="20" y2="1" width="0.1524" layer="20"/>
<wire x1="20" y1="1" x2="21" y2="0" width="0.1524" layer="20" curve="90"/>
<wire x1="21" y1="0" x2="40.1" y2="0" width="0.1524" layer="20"/>
<hole x="30" y="45" drill="3"/>
<hole x="30" y="5" drill="3"/>
<circle x="30" y="5" radius="3" width="0.1524" layer="39"/>
<circle x="30" y="45" radius="3" width="0.1524" layer="39"/>
<wire x1="50" y1="13.1" x2="50" y2="16.5" width="0.1524" layer="20"/>
<wire x1="50" y1="22" x2="50" y2="28" width="0.1524" layer="20"/>
<wire x1="50" y1="33.5" x2="50" y2="39.5" width="0.1524" layer="20"/>
<wire x1="44" y1="9.5" x2="44" y2="1" width="0.2032" layer="20"/>
<wire x1="44" y1="1" x2="43" y2="0" width="0.2032" layer="20" curve="-90"/>
<wire x1="43" y1="0" x2="40.1" y2="0" width="0.2032" layer="20"/>
<wire x1="44" y1="9.5" x2="45" y2="10.5" width="0.2032" layer="20" curve="-90"/>
<wire x1="48" y1="8.5" x2="49" y2="8.5" width="0.2032" layer="20"/>
<wire x1="49" y1="8.5" x2="50" y2="9.5" width="0.2032" layer="20" curve="90"/>
<wire x1="50" y1="9.5" x2="50" y2="13.1" width="0.2032" layer="20"/>
<wire x1="48" y1="8.5" x2="47" y2="9.5" width="0.2032" layer="20" curve="-90"/>
<wire x1="47" y1="9.5" x2="46" y2="10.5" width="0.2032" layer="20" curve="90"/>
<wire x1="46" y1="10.5" x2="45" y2="10.5" width="0.2032" layer="20"/>
<wire x1="47" y1="17.5" x2="46" y2="16.5" width="0.2032" layer="20" curve="-90"/>
<wire x1="46" y1="16.5" x2="45" y2="16.5" width="0.2032" layer="20"/>
<wire x1="45" y1="16.5" x2="44" y2="17.5" width="0.2032" layer="20" curve="-90"/>
<wire x1="50" y1="22" x2="50" y2="21" width="0.2032" layer="20"/>
<wire x1="50" y1="21" x2="49" y2="20" width="0.2032" layer="20" curve="-90"/>
<wire x1="49" y1="20" x2="48" y2="20" width="0.2032" layer="20"/>
<wire x1="48" y1="20" x2="47" y2="21" width="0.2032" layer="20" curve="-90"/>
<wire x1="47" y1="21" x2="46" y2="22" width="0.2032" layer="20" curve="90"/>
<wire x1="46" y1="22" x2="45" y2="22" width="0.2032" layer="20"/>
<wire x1="45" y1="22" x2="44" y2="21" width="0.2032" layer="20" curve="90"/>
<wire x1="44" y1="21" x2="44" y2="17.5" width="0.2032" layer="20"/>
<wire x1="46" y1="28" x2="45" y2="28" width="0.2032" layer="20"/>
<wire x1="45" y1="28" x2="44" y2="29" width="0.2032" layer="20" curve="-90"/>
<wire x1="49" y1="31.5" x2="48" y2="31.5" width="0.2032" layer="20"/>
<wire x1="48" y1="31.5" x2="47" y2="32.5" width="0.2032" layer="20" curve="-90"/>
<wire x1="47" y1="32.5" x2="46" y2="33.5" width="0.2032" layer="20" curve="90"/>
<wire x1="46" y1="33.5" x2="45" y2="33.5" width="0.2032" layer="20"/>
<wire x1="45" y1="33.5" x2="44" y2="32.5" width="0.2032" layer="20" curve="90"/>
<wire x1="44" y1="32.5" x2="44" y2="29" width="0.2032" layer="20"/>
<wire x1="46" y1="39.5" x2="45" y2="39.5" width="0.2032" layer="20"/>
<wire x1="45" y1="39.5" x2="44" y2="40.5" width="0.2032" layer="20" curve="-90"/>
<wire x1="44" y1="40.5" x2="44" y2="49" width="0.2032" layer="20"/>
<wire x1="44" y1="49" x2="43" y2="50" width="0.2032" layer="20" curve="90"/>
<wire x1="43" y1="50" x2="41.4" y2="50" width="0.2032" layer="20"/>
<wire x1="49" y1="30" x2="48" y2="30" width="0.2032" layer="20"/>
<wire x1="48" y1="30" x2="47" y2="29" width="0.2032" layer="20" curve="90"/>
<wire x1="47" y1="29" x2="46" y2="28" width="0.2032" layer="20" curve="-90"/>
<wire x1="47" y1="40.5" x2="46" y2="39.5" width="0.2032" layer="20" curve="-90"/>
<wire x1="50" y1="16.5" x2="50" y2="17.5" width="0.2032" layer="20"/>
<wire x1="50" y1="17.5" x2="49" y2="18.5" width="0.2032" layer="20" curve="90"/>
<wire x1="49" y1="18.5" x2="48" y2="18.5" width="0.2032" layer="20"/>
<wire x1="48" y1="18.5" x2="47" y2="17.5" width="0.2032" layer="20" curve="90"/>
<wire x1="50" y1="28" x2="50" y2="29" width="0.2032" layer="20"/>
<wire x1="50" y1="29" x2="49" y2="30" width="0.2032" layer="20" curve="90"/>
<wire x1="50" y1="33.5" x2="50" y2="32.5" width="0.2032" layer="20"/>
<wire x1="50" y1="32.5" x2="49" y2="31.5" width="0.2032" layer="20" curve="-90"/>
<wire x1="50" y1="39.5" x2="50" y2="40.5" width="0.2032" layer="20"/>
<wire x1="50" y1="40.5" x2="49" y2="41.5" width="0.2032" layer="20" curve="90"/>
<wire x1="49" y1="41.5" x2="48" y2="41.5" width="0.2032" layer="20"/>
<wire x1="48" y1="41.5" x2="47" y2="40.5" width="0.2032" layer="20" curve="90"/>
<text x="27.1" y="27.1" size="0.8128" layer="25">DGND</text>
<text x="27.2" y="29.7" size="0.8128" layer="25">+24V</text>
</plain>
<libraries>
<library name="udo-wago-terminal-blocks" urn="urn:adsk.eagle:library:9251134">
<packages>
<package name="P-2059-303/998-403" urn="urn:adsk.eagle:footprint:9251142/1" library_version="1">
<wire x1="-3.475" y1="3.65" x2="2.325" y2="3.65" width="0.01" layer="51"/>
<wire x1="-3.125" y1="2.6" x2="-3.125" y2="3.4" width="0.01" layer="51"/>
<wire x1="-3.825" y1="2.6" x2="-3.825" y2="3.4" width="0.2" layer="51"/>
<wire x1="3.825" y1="2.6" x2="3.825" y2="3.4" width="0.01" layer="51"/>
<wire x1="3.125" y1="2.6" x2="3.125" y2="3.4" width="0.01" layer="51"/>
<wire x1="-3.475" y1="0.65" x2="2.325" y2="0.65" width="0.01" layer="51"/>
<wire x1="-3.475" y1="2.35" x2="2.325" y2="2.35" width="0.01" layer="51"/>
<wire x1="-3.125" y1="-0.4" x2="-3.125" y2="0.4" width="0.01" layer="51"/>
<wire x1="-3.825" y1="-0.4" x2="-3.825" y2="0.4" width="0.2" layer="51"/>
<wire x1="3.825" y1="-0.4" x2="3.825" y2="0.4" width="0.01" layer="51"/>
<wire x1="3.125" y1="-0.4" x2="3.125" y2="0.4" width="0.01" layer="51"/>
<wire x1="-3.475" y1="-2.35" x2="2.325" y2="-2.35" width="0.01" layer="51"/>
<wire x1="-3.475" y1="-0.65" x2="2.325" y2="-0.65" width="0.01" layer="51"/>
<wire x1="-3.125" y1="-3.4" x2="-3.125" y2="-2.6" width="0.01" layer="51"/>
<wire x1="-3.825" y1="-3.4" x2="-3.825" y2="-2.6" width="0.2" layer="51"/>
<wire x1="-3.475" y1="-3.65" x2="2.325" y2="-3.65" width="0.01" layer="51"/>
<wire x1="3.825" y1="-3.4" x2="3.825" y2="-2.6" width="0.01" layer="51"/>
<wire x1="3.125" y1="-3.4" x2="3.125" y2="-2.6" width="0.01" layer="51"/>
<wire x1="2.9166" y1="2.6" x2="2.9166" y2="3.4" width="0.01" layer="51"/>
<wire x1="2.9166" y1="-0.4" x2="2.9166" y2="0.4" width="0.01" layer="51"/>
<wire x1="2.9166" y1="-3.4" x2="2.9166" y2="-2.6" width="0.01" layer="51"/>
<wire x1="-2.7656" y1="2.6" x2="-2.7656" y2="3.4" width="0.01" layer="51"/>
<wire x1="-2.7656" y1="-0.4" x2="-2.7656" y2="0.4" width="0.01" layer="51"/>
<wire x1="-2.7656" y1="-3.4" x2="-2.7656" y2="-2.6" width="0.01" layer="51"/>
<wire x1="2.6292" y1="2.6" x2="2.6292" y2="3.4" width="0.01" layer="51"/>
<wire x1="2.6292" y1="-0.4" x2="2.6292" y2="0.4" width="0.01" layer="51"/>
<wire x1="2.6292" y1="-3.4" x2="2.6292" y2="-2.6" width="0.01" layer="51"/>
<wire x1="1.325" y1="2.6" x2="1.325" y2="3.4" width="0.01" layer="51"/>
<wire x1="2.525" y1="2.6" x2="2.525" y2="3.4" width="0.01" layer="51"/>
<wire x1="1.325" y1="-0.4" x2="1.325" y2="0.4" width="0.01" layer="51"/>
<wire x1="2.525" y1="-0.4" x2="2.525" y2="0.4" width="0.01" layer="51"/>
<wire x1="2.525" y1="-3.4" x2="2.525" y2="-2.6" width="0.01" layer="51"/>
<wire x1="1.325" y1="-3.4" x2="1.325" y2="-2.6" width="0.01" layer="51"/>
<wire x1="1.231" y1="2.6" x2="1.231" y2="3.4" width="0.01" layer="51"/>
<wire x1="1.231" y1="-0.4" x2="1.231" y2="0.4" width="0.01" layer="51"/>
<wire x1="1.231" y1="-3.4" x2="1.231" y2="-2.6" width="0.01" layer="51"/>
<wire x1="-2.6712" y1="3.4" x2="-2.6712" y2="2.6" width="0.01" layer="51"/>
<wire x1="-3.475" y1="3.5057" x2="2.325" y2="3.5057" width="0.01" layer="51"/>
<wire x1="3.925" y1="3.4" x2="1.0163" y2="3.4" width="0.01" layer="51"/>
<wire x1="3.925" y1="2.6" x2="1.0163" y2="2.6" width="0.01" layer="51"/>
<wire x1="1.0163" y1="2.6" x2="1.0163" y2="3.4" width="0.01" layer="51"/>
<wire x1="2.325" y1="2.5336" x2="3.725" y2="2.5336" width="0.01" layer="51"/>
<wire x1="2.325" y1="3.4664" x2="3.725" y2="3.4664" width="0.01" layer="51"/>
<wire x1="-3.475" y1="2.4943" x2="2.325" y2="2.4943" width="0.01" layer="51"/>
<wire x1="-2.6712" y1="0.4" x2="-2.6712" y2="-0.4" width="0.01" layer="51"/>
<wire x1="-3.475" y1="0.5057" x2="2.325" y2="0.5057" width="0.01" layer="51"/>
<wire x1="3.925" y1="-0.4" x2="1.0163" y2="-0.4" width="0.01" layer="51"/>
<wire x1="1.0163" y1="-0.4" x2="1.0163" y2="0.4" width="0.01" layer="51"/>
<wire x1="3.925" y1="0.4" x2="1.0163" y2="0.4" width="0.01" layer="51"/>
<wire x1="-3.475" y1="-0.5057" x2="2.325" y2="-0.5057" width="0.01" layer="51"/>
<wire x1="2.325" y1="-0.4664" x2="3.725" y2="-0.4664" width="0.01" layer="51"/>
<wire x1="2.325" y1="0.4664" x2="3.725" y2="0.4664" width="0.01" layer="51"/>
<wire x1="-2.6712" y1="-2.6" x2="-2.6712" y2="-3.4" width="0.01" layer="51"/>
<wire x1="3.925" y1="-2.6" x2="1.0163" y2="-2.6" width="0.01" layer="51"/>
<wire x1="-3.475" y1="-2.4943" x2="2.325" y2="-2.4943" width="0.01" layer="51"/>
<wire x1="1.0163" y1="-3.4" x2="1.0163" y2="-2.6" width="0.01" layer="51"/>
<wire x1="3.925" y1="-3.4" x2="1.0163" y2="-3.4" width="0.01" layer="51"/>
<wire x1="-3.475" y1="-3.5057" x2="2.325" y2="-3.5057" width="0.01" layer="51"/>
<wire x1="2.325" y1="-2.5336" x2="3.725" y2="-2.5336" width="0.01" layer="51"/>
<wire x1="2.325" y1="-3.4664" x2="3.725" y2="-3.4664" width="0.01" layer="51"/>
<wire x1="3.725" y1="2.5336" x2="3.725" y2="3.4664" width="0.01" layer="51"/>
<wire x1="3.725" y1="-0.4664" x2="3.725" y2="0.4664" width="0.01" layer="51"/>
<wire x1="3.725" y1="-3.4664" x2="3.725" y2="-2.5336" width="0.01" layer="51"/>
<wire x1="2.325" y1="3.4664" x2="2.325" y2="4.3538" width="0.01" layer="51"/>
<wire x1="2.325" y1="4.3538" x2="2.325" y2="4.45" width="0.01" layer="21"/>
<wire x1="2.325" y1="-4.45" x2="2.325" y2="-4.3538" width="0.01" layer="21"/>
<wire x1="2.325" y1="-4.3538" x2="2.325" y2="-3.4664" width="0.01" layer="51"/>
<wire x1="2.325" y1="1.4552" x2="3.925" y2="1.4552" width="0.01" layer="51"/>
<wire x1="2.325" y1="-1.5448" x2="3.925" y2="-1.5448" width="0.01" layer="51"/>
<wire x1="2.325" y1="-2.5336" x2="2.325" y2="-1.4552" width="0.01" layer="51"/>
<wire x1="2.325" y1="-1.4552" x2="2.325" y2="-0.4664" width="0.01" layer="51"/>
<wire x1="2.325" y1="-1.4552" x2="3.925" y2="-1.4552" width="0.01" layer="51"/>
<wire x1="2.325" y1="1.5448" x2="3.925" y2="1.5448" width="0.01" layer="51"/>
<wire x1="2.325" y1="0.4664" x2="2.325" y2="2.5336" width="0.01" layer="51"/>
<wire x1="2.325" y1="-4.3538" x2="3.925" y2="-4.3538" width="0.01" layer="21"/>
<wire x1="2.325" y1="4.3538" x2="3.925" y2="4.3538" width="0.01" layer="21"/>
<wire x1="1.925" y1="3.8" x2="1.925" y2="2.2" width="0.01" layer="51"/>
<wire x1="1.925" y1="2.2" x2="3.7565" y2="2.2" width="0.01" layer="51"/>
<wire x1="3.7565" y1="3.8" x2="1.925" y2="3.8" width="0.01" layer="51"/>
<wire x1="1.925" y1="0.8" x2="1.925" y2="-0.8" width="0.01" layer="51"/>
<wire x1="1.925" y1="-0.8" x2="3.7565" y2="-0.8" width="0.01" layer="51"/>
<wire x1="3.7565" y1="0.8" x2="1.925" y2="0.8" width="0.01" layer="51"/>
<wire x1="1.925" y1="-2.2" x2="1.925" y2="-3.8" width="0.01" layer="51"/>
<wire x1="1.925" y1="-3.8" x2="3.7565" y2="-3.8" width="0.01" layer="51"/>
<wire x1="3.7565" y1="-2.2" x2="1.925" y2="-2.2" width="0.01" layer="51"/>
<wire x1="-1.31" y1="-3" x2="0.16" y2="-3" width="0.01" layer="51"/>
<wire x1="-0.575" y1="-3.735" x2="-0.575" y2="-2.265" width="0.01" layer="51"/>
<wire x1="-1.31" y1="3" x2="0.16" y2="3" width="0.01" layer="51"/>
<wire x1="-0.575" y1="2.265" x2="-0.575" y2="3.735" width="0.01" layer="51"/>
<wire x1="-1.31" y1="0" x2="0.16" y2="0" width="0.01" layer="51"/>
<wire x1="-0.575" y1="-0.735" x2="-0.575" y2="0.735" width="0.01" layer="51"/>
<wire x1="-2.6712" y1="2.6" x2="-3.475" y2="2.6" width="0.01" layer="51"/>
<wire x1="-3.475" y1="3.4" x2="-2.6712" y2="3.4" width="0.01" layer="51"/>
<wire x1="-3.925" y1="2.6" x2="-3.925" y2="3.4" width="0.2" layer="51"/>
<wire x1="-2.6712" y1="-0.4" x2="-3.475" y2="-0.4" width="0.01" layer="51"/>
<wire x1="-3.475" y1="0.4" x2="-2.6712" y2="0.4" width="0.01" layer="51"/>
<wire x1="-3.925" y1="-0.4" x2="-3.925" y2="0.4" width="0.2" layer="51"/>
<wire x1="-2.6712" y1="-3.4" x2="-3.475" y2="-3.4" width="0.01" layer="51"/>
<wire x1="-3.475" y1="-2.6" x2="-2.6712" y2="-2.6" width="0.01" layer="51"/>
<wire x1="-3.925" y1="-3.4" x2="-3.925" y2="-2.6" width="0.2" layer="51"/>
<wire x1="3.925" y1="-4.45" x2="3.925" y2="4.45" width="0.2" layer="51"/>
<wire x1="3.858" y1="-4.45" x2="3.858" y2="-3.7804" width="0.01" layer="51"/>
<wire x1="3.858" y1="-2.2196" x2="3.858" y2="-0.7804" width="0.01" layer="51"/>
<wire x1="3.858" y1="0.7804" x2="3.858" y2="2.2196" width="0.01" layer="51"/>
<wire x1="3.858" y1="3.7804" x2="3.858" y2="4.45" width="0.01" layer="51"/>
<wire x1="3.208" y1="-4.45" x2="3.208" y2="4.45" width="0.01" layer="51"/>
<wire x1="3.925" y1="-4.45" x2="-3.475" y2="-4.45" width="0.2" layer="21"/>
<wire x1="3.925" y1="4.45" x2="-3.475" y2="4.45" width="0.2" layer="21"/>
<wire x1="-3.475" y1="-4.45" x2="-3.475" y2="-3.4" width="0.2" layer="51"/>
<wire x1="-3.475" y1="-3.4" x2="-3.475" y2="-2.6" width="0.2" layer="51"/>
<wire x1="-3.475" y1="-2.6" x2="-3.475" y2="-0.4" width="0.2" layer="51"/>
<wire x1="-3.475" y1="-0.4" x2="-3.475" y2="0.4" width="0.2" layer="51"/>
<wire x1="-3.475" y1="0.4" x2="-3.475" y2="2.6" width="0.2" layer="51"/>
<wire x1="-3.475" y1="2.6" x2="-3.475" y2="3.4" width="0.2" layer="51"/>
<wire x1="-3.475" y1="3.4" x2="-3.475" y2="4.45" width="0.2" layer="51"/>
<wire x1="-2.475" y1="-4.45" x2="-2.475" y2="4.45" width="0.01" layer="51"/>
<wire x1="2.775" y1="-4.45" x2="2.775" y2="4.45" width="0.01" layer="51"/>
<wire x1="-3.475" y1="3.4" x2="-3.925" y2="3.4" width="0.2" layer="51"/>
<wire x1="-3.475" y1="2.6" x2="-3.925" y2="2.6" width="0.2" layer="51"/>
<wire x1="-3.475" y1="0.4" x2="-3.925" y2="0.4" width="0.2" layer="51"/>
<wire x1="-3.475" y1="-0.4" x2="-3.925" y2="-0.4" width="0.2" layer="51"/>
<wire x1="-3.475" y1="-2.6" x2="-3.925" y2="-2.6" width="0.2" layer="51"/>
<wire x1="-3.475" y1="-3.4" x2="-3.925" y2="-3.4" width="0.2" layer="51"/>
<circle x="-0.575" y="3" radius="0.55" width="0.01" layer="51"/>
<circle x="-0.575" y="-3" radius="0.55" width="0.01" layer="51"/>
<circle x="-0.575" y="-3" radius="0.7" width="0.01" layer="51"/>
<circle x="-0.575" y="3" radius="0.7" width="0.01" layer="51"/>
<circle x="-0.575" y="0" radius="0.55" width="0.01" layer="51"/>
<circle x="-0.575" y="0" radius="0.7" width="0.01" layer="51"/>
<smd name="1@2" x="2.775" y="3" dx="2.5" dy="1.4" layer="1"/>
<smd name="1@1" x="-2.625" y="3" dx="2.5" dy="1.4" layer="1"/>
<smd name="2@2" x="2.775" y="0" dx="2.5" dy="1.4" layer="1"/>
<smd name="2@1" x="-2.625" y="0" dx="2.5" dy="1.4" layer="1"/>
<smd name="3@2" x="2.775" y="-3" dx="2.5" dy="1.4" layer="1"/>
<smd name="3@1" x="-2.625" y="-3" dx="2.5" dy="1.4" layer="1"/>
<text x="-3.695" y="5.72" size="2" layer="25" font="vector" ratio="10">&gt;NAME</text>
<text x="-3.695" y="-6.98" size="2" layer="27" font="vector" ratio="10">&gt;VALUE</text>
<text x="7.215" y="3.18" size="2" layer="51" font="vector" ratio="10" rot="R90">1</text>
</package>
</packages>
<packages3d>
<package3d name="P-2059-303/998-403" urn="urn:adsk.eagle:package:9251146/1" type="box" library_version="1">
<packageinstances>
<packageinstance name="P-2059-303/998-403"/>
</packageinstances>
</package3d>
</packages3d>
</library>
<library name="udo-idc">
<packages>
<package name="3M_10" urn="urn:adsk.eagle:footprint:6910/1" locally_modified="yes">
<description>&lt;b&gt;3M&lt;/b&gt;</description>
<wire x1="15.875" y1="-4.2418" x2="15.875" y2="4.3" width="0.3048" layer="21"/>
<wire x1="-15.875" y1="4.3" x2="-15.875" y2="-4.2418" width="0.3048" layer="21"/>
<wire x1="-15.875" y1="-4.3" x2="-2.54" y2="-4.3" width="0.3048" layer="21"/>
<wire x1="-2.54" y1="-4.3" x2="-2.54" y2="-3.048" width="0.3048" layer="21"/>
<wire x1="2.54" y1="-3.048" x2="2.54" y2="-4.3" width="0.3048" layer="21"/>
<wire x1="2.54" y1="-4.3" x2="15.621" y2="-4.3" width="0.3048" layer="21"/>
<wire x1="15.875" y1="4.3" x2="-15.875" y2="4.3" width="0.3048" layer="21"/>
<wire x1="8.89" y1="-3" x2="2.54" y2="-3" width="0.3048" layer="21"/>
<wire x1="-2.54" y1="-3" x2="-8.89" y2="-3" width="0.3048" layer="21"/>
<wire x1="-8.89" y1="-3" x2="-8.89" y2="-1.27" width="0.3048" layer="21"/>
<wire x1="8.763" y1="3" x2="-8.89" y2="3" width="0.3048" layer="21"/>
<wire x1="-8.89" y1="1.27" x2="-8.89" y2="3" width="0.3048" layer="21"/>
<wire x1="-8.89" y1="-1.27" x2="-15.748" y2="-1.27" width="0.3048" layer="21"/>
<wire x1="-8.89" y1="1.27" x2="-15.748" y2="1.27" width="0.3048" layer="21"/>
<wire x1="-2.54" y1="-4.318" x2="2.54" y2="-4.318" width="0.3048" layer="21"/>
<wire x1="8.89" y1="-3" x2="8.89" y2="-1.27" width="0.3048" layer="21"/>
<wire x1="8.89" y1="1.27" x2="8.89" y2="3" width="0.3048" layer="21"/>
<wire x1="8.89" y1="-1.27" x2="15.748" y2="-1.27" width="0.3048" layer="21"/>
<wire x1="8.89" y1="1.27" x2="15.748" y2="1.27" width="0.3048" layer="21"/>
<pad name="1" x="-5.08" y="-1.27" drill="1" shape="square"/>
<pad name="2" x="-5.08" y="1.27" drill="1" shape="square"/>
<pad name="3" x="-2.54" y="-1.27" drill="1" shape="square"/>
<pad name="4" x="-2.54" y="1.27" drill="1" shape="square"/>
<pad name="5" x="0" y="-1.27" drill="1" shape="square"/>
<pad name="6" x="0" y="1.27" drill="1" shape="square"/>
<pad name="8" x="2.54" y="1.27" drill="1" shape="square"/>
<pad name="9" x="5.08" y="-1.27" drill="1" shape="square"/>
<pad name="10" x="5.08" y="1.27" drill="1" shape="square"/>
<pad name="7" x="2.54" y="-1.27" drill="1" shape="square"/>
<text x="-15.24" y="5.08" size="2.54" layer="25">&gt;NAME</text>
<text x="2.54" y="5.08" size="2.54" layer="27">&gt;VALUE</text>
</package>
</packages>
<packages3d>
<package3d name="3M_10" urn="urn:adsk.eagle:package:6397704/2" locally_modified="yes" type="model">
<description>3M</description>
<packageinstances>
<packageinstance name="3M_10"/>
</packageinstances>
</package3d>
</packages3d>
</library>
</libraries>
<attributes>
</attributes>
<variantdefs>
</variantdefs>
<classes>
<class number="0" name="default" width="0" drill="0">
</class>
</classes>
<designrules name="default *">
<description language="de">&lt;b&gt;EAGLE Design Rules&lt;/b&gt;
&lt;p&gt;
Die Standard-Design-Rules sind so gewählt, dass sie für 
die meisten Anwendungen passen. Sollte ihre Platine 
besondere Anforderungen haben, treffen Sie die erforderlichen
Einstellungen hier und speichern die Design Rules unter 
einem neuen Namen ab.</description>
<description language="en">&lt;b&gt;EAGLE Design Rules&lt;/b&gt;
&lt;p&gt;
The default Design Rules have been set to cover
a wide range of applications. Your particular design
may have different requirements, so please make the
necessary adjustments and save your customized
design rules under a new name.</description>
<param name="layerSetup" value="(1*16)"/>
<param name="mtCopper" value="0.035mm 0.035mm 0.035mm 0.035mm 0.035mm 0.035mm 0.035mm 0.035mm 0.035mm 0.035mm 0.035mm 0.035mm 0.035mm 0.035mm 0.035mm 0.035mm"/>
<param name="mtIsolate" value="1.5mm 0.15mm 0.2mm 0.15mm 0.2mm 0.15mm 0.2mm 0.15mm 0.2mm 0.15mm 0.2mm 0.15mm 0.2mm 0.15mm 0.2mm"/>
<param name="mdWireWire" value="7mil"/>
<param name="mdWirePad" value="7mil"/>
<param name="mdWireVia" value="7mil"/>
<param name="mdPadPad" value="7mil"/>
<param name="mdPadVia" value="7mil"/>
<param name="mdViaVia" value="7mil"/>
<param name="mdSmdPad" value="7mil"/>
<param name="mdSmdVia" value="7mil"/>
<param name="mdSmdSmd" value="7mil"/>
<param name="mdViaViaSameLayer" value="6mil"/>
<param name="mnLayersViaInSmd" value="2"/>
<param name="mdCopperDimension" value="40mil"/>
<param name="mdDrill" value="6mil"/>
<param name="mdSmdStop" value="0mil"/>
<param name="msWidth" value="6mil"/>
<param name="msDrill" value="0.35mm"/>
<param name="msMicroVia" value="9.99mm"/>
<param name="msBlindViaRatio" value="0.5"/>
<param name="rvPadTop" value="0.25"/>
<param name="rvPadInner" value="0.25"/>
<param name="rvPadBottom" value="0.25"/>
<param name="rvViaOuter" value="0.25"/>
<param name="rvViaInner" value="0.25"/>
<param name="rvMicroViaOuter" value="0.25"/>
<param name="rvMicroViaInner" value="0.25"/>
<param name="rlMinPadTop" value="10mil"/>
<param name="rlMaxPadTop" value="20mil"/>
<param name="rlMinPadInner" value="10mil"/>
<param name="rlMaxPadInner" value="20mil"/>
<param name="rlMinPadBottom" value="10mil"/>
<param name="rlMaxPadBottom" value="20mil"/>
<param name="rlMinViaOuter" value="8mil"/>
<param name="rlMaxViaOuter" value="20mil"/>
<param name="rlMinViaInner" value="8mil"/>
<param name="rlMaxViaInner" value="20mil"/>
<param name="rlMinMicroViaOuter" value="4mil"/>
<param name="rlMaxMicroViaOuter" value="20mil"/>
<param name="rlMinMicroViaInner" value="4mil"/>
<param name="rlMaxMicroViaInner" value="20mil"/>
<param name="psTop" value="-1"/>
<param name="psBottom" value="-1"/>
<param name="psFirst" value="-1"/>
<param name="psElongationLong" value="100"/>
<param name="psElongationOffset" value="100"/>
<param name="mvStopFrame" value="1"/>
<param name="mvCreamFrame" value="0"/>
<param name="mlMinStopFrame" value="4mil"/>
<param name="mlMaxStopFrame" value="4mil"/>
<param name="mlMinCreamFrame" value="0mil"/>
<param name="mlMaxCreamFrame" value="0mil"/>
<param name="mlViaStopLimit" value="0mil"/>
<param name="srRoundness" value="0"/>
<param name="srMinRoundness" value="0mil"/>
<param name="srMaxRoundness" value="0mil"/>
<param name="slThermalIsolate" value="10mil"/>
<param name="slThermalsForVias" value="0"/>
<param name="dpMaxLengthDifference" value="10mm"/>
<param name="dpGapFactor" value="2.5"/>
<param name="checkAngle" value="0"/>
<param name="checkFont" value="1"/>
<param name="checkRestrict" value="1"/>
<param name="checkStop" value="0"/>
<param name="checkValues" value="0"/>
<param name="checkNames" value="1"/>
<param name="checkWireStubs" value="1"/>
<param name="checkPolygonWidth" value="0"/>
<param name="useDiameter" value="13"/>
<param name="maxErrors" value="50"/>
</designrules>
<autorouter>
<pass name="Default">
<param name="RoutingGrid" value="50mil"/>
<param name="AutoGrid" value="1"/>
<param name="Efforts" value="0"/>
<param name="TopRouterVariant" value="1"/>
<param name="tpViaShape" value="round"/>
<param name="PrefDir.1" value="a"/>
<param name="PrefDir.2" value="0"/>
<param name="PrefDir.3" value="0"/>
<param name="PrefDir.4" value="0"/>
<param name="PrefDir.5" value="0"/>
<param name="PrefDir.6" value="0"/>
<param name="PrefDir.7" value="0"/>
<param name="PrefDir.8" value="0"/>
<param name="PrefDir.9" value="0"/>
<param name="PrefDir.10" value="0"/>
<param name="PrefDir.11" value="0"/>
<param name="PrefDir.12" value="0"/>
<param name="PrefDir.13" value="0"/>
<param name="PrefDir.14" value="0"/>
<param name="PrefDir.15" value="0"/>
<param name="PrefDir.16" value="a"/>
<param name="cfVia" value="8"/>
<param name="cfNonPref" value="5"/>
<param name="cfChangeDir" value="2"/>
<param name="cfOrthStep" value="2"/>
<param name="cfDiagStep" value="3"/>
<param name="cfExtdStep" value="0"/>
<param name="cfBonusStep" value="1"/>
<param name="cfMalusStep" value="1"/>
<param name="cfPadImpact" value="4"/>
<param name="cfSmdImpact" value="4"/>
<param name="cfBusImpact" value="0"/>
<param name="cfHugging" value="3"/>
<param name="cfAvoid" value="4"/>
<param name="cfPolygon" value="10"/>
<param name="cfBase.1" value="0"/>
<param name="cfBase.2" value="1"/>
<param name="cfBase.3" value="1"/>
<param name="cfBase.4" value="1"/>
<param name="cfBase.5" value="1"/>
<param name="cfBase.6" value="1"/>
<param name="cfBase.7" value="1"/>
<param name="cfBase.8" value="1"/>
<param name="cfBase.9" value="1"/>
<param name="cfBase.10" value="1"/>
<param name="cfBase.11" value="1"/>
<param name="cfBase.12" value="1"/>
<param name="cfBase.13" value="1"/>
<param name="cfBase.14" value="1"/>
<param name="cfBase.15" value="1"/>
<param name="cfBase.16" value="0"/>
<param name="mnVias" value="20"/>
<param name="mnSegments" value="9999"/>
<param name="mnExtdSteps" value="9999"/>
<param name="mnRipupLevel" value="10"/>
<param name="mnRipupSteps" value="100"/>
<param name="mnRipupTotal" value="100"/>
</pass>
<pass name="Follow-me" refer="Default" active="yes">
</pass>
<pass name="Busses" refer="Default" active="yes">
<param name="cfNonPref" value="4"/>
<param name="cfBusImpact" value="4"/>
<param name="cfHugging" value="0"/>
<param name="mnVias" value="0"/>
</pass>
<pass name="Route" refer="Default" active="yes">
</pass>
<pass name="Optimize1" refer="Default" active="yes">
<param name="cfVia" value="99"/>
<param name="cfExtdStep" value="10"/>
<param name="cfHugging" value="1"/>
<param name="mnExtdSteps" value="1"/>
<param name="mnRipupLevel" value="0"/>
</pass>
<pass name="Optimize2" refer="Optimize1" active="yes">
<param name="cfNonPref" value="0"/>
<param name="cfChangeDir" value="6"/>
<param name="cfExtdStep" value="0"/>
<param name="cfBonusStep" value="2"/>
<param name="cfMalusStep" value="2"/>
<param name="cfPadImpact" value="2"/>
<param name="cfSmdImpact" value="2"/>
<param name="cfHugging" value="0"/>
</pass>
<pass name="Optimize3" refer="Optimize2" active="yes">
<param name="cfChangeDir" value="8"/>
<param name="cfPadImpact" value="0"/>
<param name="cfSmdImpact" value="0"/>
</pass>
<pass name="Optimize4" refer="Optimize3" active="yes">
<param name="cfChangeDir" value="25"/>
</pass>
</autorouter>
<elements>
<element name="AIR_LIM_+" library="udo-wago-terminal-blocks" library_urn="urn:adsk.eagle:library:9251134" package="P-2059-303/998-403" package3d_urn="urn:adsk.eagle:package:9251146/1" value="2059-303/998-403" x="35" y="25" smashed="yes">
<attribute name="DESCRIPTION" value="Series 2059, SMD Terminal block in tape-and-reel packing 3-pole" x="73.1" y="16.11" size="1.778" layer="27" display="off"/>
<attribute name="MF" value="WAGO" x="73.1" y="16.11" size="1.778" layer="27" display="off"/>
<attribute name="MPN" value="2059-303/998-403" x="73.1" y="16.11" size="1.778" layer="27" display="off"/>
<attribute name="NAME" x="32.575" y="30.0532" size="0.8128" layer="25" font="vector" ratio="10"/>
<attribute name="VALUE" x="31.305" y="18.02" size="2" layer="27" font="vector" ratio="10"/>
</element>
<element name="AIR_LIM_-" library="udo-wago-terminal-blocks" library_urn="urn:adsk.eagle:library:9251134" package="P-2059-303/998-403" package3d_urn="urn:adsk.eagle:package:9251146/1" value="2059-303/998-403" x="35" y="13.5" smashed="yes">
<attribute name="DESCRIPTION" value="Series 2059, SMD Terminal block in tape-and-reel packing 3-pole" x="73.1" y="-11.9" size="1.778" layer="27" display="off"/>
<attribute name="MF" value="WAGO" x="73.1" y="-11.9" size="1.778" layer="27" display="off"/>
<attribute name="MPN" value="2059-303/998-403" x="73.1" y="-11.9" size="1.778" layer="27" display="off"/>
<attribute name="NAME" x="32.5306" y="18.504" size="0.8128" layer="25" font="vector" ratio="10"/>
<attribute name="VALUE" x="31.305" y="6.52" size="2" layer="27" font="vector" ratio="10"/>
</element>
<element name="CN1" library="udo-idc" package="3M_10" package3d_urn="urn:adsk.eagle:package:6397704/2" value="AWP-10P" x="25" y="25" smashed="yes" rot="R90">
<attribute name="DESCRIPTION" value="IDC socket, 2x5, straight, with latch" x="80.88" y="58.02" size="1.778" layer="27" rot="R90" display="off"/>
<attribute name="MF" value="CONNFLY" x="80.88" y="58.02" size="1.778" layer="27" rot="R90" display="off"/>
<attribute name="MPN" value="DS1011-10SBSIB7" x="80.88" y="58.02" size="1.778" layer="27" rot="R90" display="off"/>
<attribute name="NAME" x="27.2352" y="14.6368" size="1.27" layer="25" rot="R270"/>
<attribute name="VALUE" x="19.92" y="27.54" size="2.54" layer="27" rot="R90"/>
</element>
<element name="INS_SENSOR" library="udo-wago-terminal-blocks" library_urn="urn:adsk.eagle:library:9251134" package="P-2059-303/998-403" package3d_urn="urn:adsk.eagle:package:9251146/1" value="2059-303/998-403" x="35" y="36.5" smashed="yes">
<attribute name="DESCRIPTION" value="Series 2059, SMD Terminal block in tape-and-reel packing 3-pole" x="73.1" y="-5.41" size="1.778" layer="27" display="off"/>
<attribute name="MF" value="WAGO" x="73.1" y="-5.41" size="1.778" layer="27" display="off"/>
<attribute name="MPN" value="2059-303/998-403" x="73.1" y="-5.41" size="1.778" layer="27" display="off"/>
<attribute name="NAME" x="32.5306" y="41.4472" size="0.8128" layer="25" font="vector" ratio="10"/>
<attribute name="VALUE" x="31.305" y="29.52" size="2" layer="27" font="vector" ratio="10"/>
</element>
</elements>
<signals>
<signal name="DGND">
<contactref element="AIR_LIM_+" pad="3@1"/>
<contactref element="AIR_LIM_+" pad="3@2"/>
<contactref element="AIR_LIM_-" pad="3@1"/>
<contactref element="AIR_LIM_-" pad="3@2"/>
<contactref element="INS_SENSOR" pad="3@1"/>
<contactref element="INS_SENSOR" pad="3@2"/>
<contactref element="CN1" pad="8"/>
<contactref element="CN1" pad="7"/>
<wire x1="32.9" y1="10.5" x2="32.375" y2="10.5" width="0.8128" layer="1"/>
<wire x1="32.375" y1="22" x2="32.075" y2="22" width="0.8128" layer="1"/>
<wire x1="26.27" y1="27.54" x2="23.73" y2="27.54" width="0.8128" layer="1"/>
<wire x1="26.27" y1="27.54" x2="27.24" y2="27.54" width="0.8128" layer="1"/>
<wire x1="27.24" y1="27.54" x2="28.5" y2="28.8" width="0.8128" layer="1"/>
<wire x1="28.5" y1="28.8" x2="28.5" y2="31.5" width="0.8128" layer="1"/>
<wire x1="30.5" y1="33.5" x2="32.375" y2="33.5" width="0.8128" layer="1"/>
<wire x1="28.5" y1="31.5" x2="30.5" y2="33.5" width="0.8128" layer="1"/>
<wire x1="32.375" y1="30.77618125" x2="34.4092" y2="28.74198125" width="0.8128" layer="1"/>
<wire x1="34.4092" y1="11.85801875" x2="33.05118125" y2="10.5" width="0.8128" layer="1"/>
<wire x1="32.375" y1="10.5" x2="33.05118125" y2="10.5" width="0.8128" layer="1"/>
<wire x1="34.4092" y1="28.74198125" x2="34.4092" y2="22" width="0.8128" layer="1"/>
<wire x1="34.4092" y1="22" x2="34.4092" y2="11.85801875" width="0.8128" layer="1"/>
<wire x1="32.375" y1="33.5" x2="32.375" y2="30.77618125" width="0.8128" layer="1"/>
<wire x1="32.375" y1="22" x2="34.4092" y2="22" width="0.8128" layer="1"/>
<wire x1="32.375" y1="33.5" x2="37.775" y2="33.5" width="0" layer="19" extent="1-1"/>
<wire x1="37.775" y1="22" x2="34.4092" y2="22" width="0" layer="19" extent="1-1"/>
<wire x1="37.775" y1="10.5" x2="34.4092" y2="11.85801875" width="0" layer="19" extent="1-1"/>
</signal>
<signal name="+24V">
<contactref element="AIR_LIM_+" pad="2@1"/>
<contactref element="AIR_LIM_+" pad="2@2"/>
<contactref element="INS_SENSOR" pad="2@1"/>
<contactref element="INS_SENSOR" pad="2@2"/>
<contactref element="AIR_LIM_-" pad="2@1"/>
<contactref element="AIR_LIM_-" pad="2@2"/>
<contactref element="CN1" pad="10"/>
<contactref element="CN1" pad="9"/>
<wire x1="37.275" y1="25" x2="37.775" y2="25" width="0.8128" layer="1"/>
<wire x1="23.73" y1="30.08" x2="25.1" y2="30.08" width="0.8128" layer="1"/>
<wire x1="25.1" y1="30.08" x2="26.27" y2="30.08" width="0.8128" layer="1"/>
<wire x1="32.375" y1="36.5" x2="29.3" y2="36.5" width="0.8128" layer="1"/>
<wire x1="29.3" y1="36.5" x2="25" y2="32.2" width="0.8128" layer="1"/>
<wire x1="25" y1="32.2" x2="25" y2="30.18" width="0.8128" layer="1"/>
<wire x1="25" y1="30.18" x2="25.1" y2="30.08" width="0.8128" layer="1"/>
<wire x1="32.375" y1="36.5" x2="32.475" y2="36.4" width="0.8128" layer="1"/>
<wire x1="32.475" y1="36.4" x2="33.8" y2="36.4" width="0.8128" layer="1"/>
<wire x1="33.8" y1="36.4" x2="35.6" y2="34.6" width="0.8128" layer="1"/>
<wire x1="35.6" y1="34.6" x2="35.6" y2="25" width="0.8128" layer="1"/>
<wire x1="35.6" y1="25" x2="35.6" y2="15" width="0.8128" layer="1"/>
<wire x1="35.6" y1="15" x2="37.1" y2="13.5" width="0.8128" layer="1"/>
<wire x1="37.775" y1="13.5" x2="37.1" y2="13.5" width="0.8128" layer="1"/>
<wire x1="38.2" y1="13.2" x2="38.075" y2="13.2" width="0.8128" layer="1"/>
<wire x1="38.075" y1="13.2" x2="37.775" y2="13.5" width="0.8128" layer="1"/>
<wire x1="37.775" y1="25" x2="35.6" y2="25" width="0.8128" layer="1"/>
<wire x1="35.6" y1="34.6" x2="37.775" y2="36.5" width="0" layer="19" extent="1-1"/>
<wire x1="32.375" y1="25" x2="35.6" y2="25" width="0" layer="19" extent="1-1"/>
<wire x1="32.375" y1="13.5" x2="35.6" y2="15" width="0" layer="19" extent="1-1"/>
</signal>
<signal name="AIR_LIM+">
<contactref element="AIR_LIM_+" pad="1@1"/>
<contactref element="AIR_LIM_+" pad="1@2"/>
<contactref element="CN1" pad="5"/>
<wire x1="31.4" y1="28.1" x2="32.375" y2="28" width="0.4064" layer="1"/>
<wire x1="26.27" y1="25" x2="27.6" y2="25" width="0.4064" layer="1"/>
<wire x1="27.6" y1="25" x2="30.6" y2="28" width="0.4064" layer="1"/>
<wire x1="30.6" y1="28" x2="32.375" y2="28" width="0.4064" layer="1"/>
<wire x1="32.375" y1="28" x2="37.775" y2="28" width="0" layer="19" extent="1-1"/>
</signal>
<signal name="AIR_LIM-">
<contactref element="AIR_LIM_-" pad="1@1"/>
<contactref element="AIR_LIM_-" pad="1@2"/>
<contactref element="CN1" pad="3"/>
<wire x1="26.27" y1="22.46" x2="28.44" y2="22.46" width="0.4064" layer="1"/>
<wire x1="28.44" y1="22.46" x2="29.3" y2="21.6" width="0.4064" layer="1"/>
<wire x1="29.3" y1="21.6" x2="29.3" y2="17.3" width="0.4064" layer="1"/>
<wire x1="29.3" y1="17.3" x2="30.1" y2="16.5" width="0.4064" layer="1"/>
<wire x1="30.1" y1="16.5" x2="32.375" y2="16.5" width="0.4064" layer="1"/>
<wire x1="32.375" y1="16.5" x2="37.775" y2="16.5" width="0" layer="19" extent="1-1"/>
</signal>
<signal name="INSIDE_SENSOR">
<contactref element="INS_SENSOR" pad="1@1"/>
<contactref element="INS_SENSOR" pad="1@2"/>
<contactref element="CN1" pad="6"/>
<wire x1="23.73" y1="25" x2="23" y2="25" width="0.4064" layer="1"/>
<wire x1="23" y1="25" x2="22.3" y2="25.7" width="0.4064" layer="1"/>
<wire x1="22.3" y1="25.7" x2="22.3" y2="32.1" width="0.4064" layer="1"/>
<wire x1="22.3" y1="32.1" x2="29.7" y2="39.5" width="0.4064" layer="1"/>
<wire x1="29.7" y1="39.5" x2="32.375" y2="39.5" width="0.4064" layer="1"/>
<wire x1="32.375" y1="39.5" x2="37.775" y2="39.5" width="0" layer="19" extent="1-1"/>
</signal>
</signals>
<mfgpreviewcolors>
<mfgpreviewcolor name="soldermaskcolor" color="0xC8008000"/>
<mfgpreviewcolor name="silkscreencolor" color="0xFFFEFEFE"/>
<mfgpreviewcolor name="backgroundcolor" color="0xFF282828"/>
<mfgpreviewcolor name="coppercolor" color="0xFFFFBF00"/>
<mfgpreviewcolor name="substratecolor" color="0xFF786E46"/>
</mfgpreviewcolors>
</board>
</drawing>
<compatibility>
<note version="8.2" severity="warning">
Since Version 8.2, EAGLE supports online libraries. The ids
of those online libraries will not be understood (or retained)
with this version.
</note>
<note version="8.3" severity="warning">
Since Version 8.3, EAGLE supports URNs for individual library
assets (packages, symbols, and devices). The URNs of those assets
will not be understood (or retained) with this version.
</note>
<note version="8.3" severity="warning">
Since Version 8.3, EAGLE supports the association of 3D packages
with devices in libraries, schematics, and board files. Those 3D
packages will not be understood (or retained) with this version.
</note>
</compatibility>
</eagle>
