"Qty";"Value";"Package";"Parts";"DESCRIPTION";"MF";"MPN";
"1";"2059-302/998-403";"P-2059-302/998-403";"CN17";"Series 2059, SMD Terminal block in tape-and-reel packing 2-pole";"WAGO";"2059-302/998-403";
"5";"2059-303/998-403";"P-2059-303/998-403";"CN12, CN13, CN14, CN15, CN16";"Series 2059, SMD Terminal block in tape-and-reel packing 3-pole";"WAGO";"2059-303/998-403";
"4";"2060-452/998-404";"P-2060-452/998-404";"CN18, CN19, CN20, CN21";"Series 2060, SMD terminal block with push-buttons in tape-and-reel packing 2-pole";"WAGO";"2060-452/998-404";
