<?xml version="1.0" encoding="utf-8"?>
<!DOCTYPE eagle SYSTEM "eagle.dtd">
<eagle version="9.4.1">
<drawing>
<settings>
<setting alwaysvectorfont="yes"/>
<setting verticaltext="up"/>
</settings>
<grid distance="0.25" unitdist="mm" unit="mm" style="dots" multiple="4" display="yes" altdistance="0.05" altunitdist="mm" altunit="mm"/>
<layers>
<layer number="1" name="Top" color="4" fill="1" visible="yes" active="yes"/>
<layer number="2" name="Route2" color="16" fill="1" visible="no" active="no"/>
<layer number="15" name="Route15" color="23" fill="1" visible="no" active="no"/>
<layer number="16" name="Bottom" color="1" fill="1" visible="no" active="yes"/>
<layer number="17" name="Pads" color="2" fill="1" visible="yes" active="yes"/>
<layer number="18" name="Vias" color="2" fill="1" visible="yes" active="yes"/>
<layer number="19" name="Unrouted" color="6" fill="1" visible="yes" active="yes"/>
<layer number="20" name="Dimension" color="24" fill="1" visible="yes" active="yes"/>
<layer number="21" name="tPlace" color="42" fill="1" visible="yes" active="yes"/>
<layer number="22" name="bPlace" color="47" fill="1" visible="yes" active="yes"/>
<layer number="23" name="tOrigins" color="43" fill="1" visible="yes" active="yes"/>
<layer number="24" name="bOrigins" color="39" fill="1" visible="yes" active="yes"/>
<layer number="25" name="tNames" color="42" fill="1" visible="yes" active="yes"/>
<layer number="26" name="bNames" color="47" fill="1" visible="yes" active="yes"/>
<layer number="27" name="tValues" color="42" fill="1" visible="no" active="yes"/>
<layer number="28" name="bValues" color="47" fill="1" visible="no" active="yes"/>
<layer number="29" name="tStop" color="42" fill="3" visible="no" active="yes"/>
<layer number="30" name="bStop" color="47" fill="6" visible="no" active="yes"/>
<layer number="31" name="tCream" color="42" fill="4" visible="no" active="yes"/>
<layer number="32" name="bCream" color="47" fill="5" visible="no" active="yes"/>
<layer number="33" name="tFinish" color="6" fill="3" visible="no" active="yes"/>
<layer number="34" name="bFinish" color="6" fill="6" visible="no" active="yes"/>
<layer number="35" name="tGlue" color="7" fill="4" visible="no" active="yes"/>
<layer number="36" name="bGlue" color="7" fill="5" visible="no" active="yes"/>
<layer number="37" name="tTest" color="7" fill="1" visible="no" active="yes"/>
<layer number="38" name="bTest" color="7" fill="1" visible="no" active="yes"/>
<layer number="39" name="tKeepout" color="4" fill="11" visible="yes" active="yes"/>
<layer number="40" name="bKeepout" color="1" fill="11" visible="yes" active="yes"/>
<layer number="41" name="tRestrict" color="4" fill="10" visible="yes" active="yes"/>
<layer number="42" name="bRestrict" color="1" fill="10" visible="yes" active="yes"/>
<layer number="43" name="vRestrict" color="2" fill="10" visible="yes" active="yes"/>
<layer number="44" name="Drills" color="7" fill="1" visible="no" active="yes"/>
<layer number="45" name="Holes" color="7" fill="1" visible="yes" active="yes"/>
<layer number="46" name="Milling" color="3" fill="1" visible="no" active="yes"/>
<layer number="47" name="Measures" color="7" fill="1" visible="yes" active="yes"/>
<layer number="48" name="Document" color="7" fill="1" visible="yes" active="yes"/>
<layer number="49" name="Reference" color="7" fill="1" visible="yes" active="yes"/>
<layer number="50" name="dxf" color="7" fill="1" visible="no" active="no"/>
<layer number="51" name="tDocu" color="42" fill="11" visible="yes" active="yes"/>
<layer number="52" name="bDocu" color="47" fill="11" visible="yes" active="yes"/>
<layer number="53" name="tGND_GNDA" color="7" fill="9" visible="no" active="no"/>
<layer number="54" name="bGND_GNDA" color="1" fill="9" visible="no" active="no"/>
<layer number="56" name="wert" color="7" fill="1" visible="no" active="no"/>
<layer number="57" name="tCAD" color="7" fill="1" visible="no" active="no"/>
<layer number="88" name="SimResults" color="9" fill="1" visible="no" active="no"/>
<layer number="89" name="SimProbes" color="9" fill="1" visible="no" active="no"/>
<layer number="90" name="Modules" color="5" fill="1" visible="no" active="no"/>
<layer number="91" name="Nets" color="2" fill="1" visible="no" active="no"/>
<layer number="92" name="Busses" color="1" fill="1" visible="no" active="no"/>
<layer number="93" name="Pins" color="2" fill="1" visible="no" active="no"/>
<layer number="94" name="Symbols" color="4" fill="1" visible="no" active="no"/>
<layer number="95" name="Names" color="7" fill="1" visible="no" active="no"/>
<layer number="96" name="Values" color="7" fill="1" visible="no" active="no"/>
<layer number="97" name="Info" color="7" fill="1" visible="no" active="no"/>
<layer number="98" name="Guide" color="6" fill="1" visible="no" active="no"/>
<layer number="99" name="SpiceOrder" color="5" fill="1" visible="no" active="no"/>
<layer number="100" name="Warning" color="59" fill="1" visible="yes" active="yes"/>
<layer number="101" name="Patch_Top" color="12" fill="4" visible="yes" active="yes"/>
<layer number="102" name="Vscore" color="7" fill="1" visible="yes" active="yes"/>
<layer number="103" name="tMap" color="7" fill="1" visible="yes" active="yes"/>
<layer number="104" name="Name" color="16" fill="1" visible="yes" active="yes"/>
<layer number="105" name="tPlate" color="7" fill="1" visible="yes" active="yes"/>
<layer number="106" name="bPlate" color="7" fill="1" visible="yes" active="yes"/>
<layer number="107" name="Crop" color="7" fill="1" visible="yes" active="yes"/>
<layer number="108" name="tplace-old" color="10" fill="1" visible="yes" active="yes"/>
<layer number="109" name="ref-old" color="11" fill="1" visible="yes" active="yes"/>
<layer number="110" name="fp0" color="7" fill="1" visible="yes" active="yes"/>
<layer number="111" name="LPC17xx" color="7" fill="1" visible="yes" active="yes"/>
<layer number="112" name="tSilk" color="7" fill="1" visible="yes" active="yes"/>
<layer number="113" name="IDFDebug" color="4" fill="1" visible="yes" active="yes"/>
<layer number="116" name="Patch_BOT" color="9" fill="4" visible="yes" active="yes"/>
<layer number="121" name="_tsilk" color="7" fill="1" visible="yes" active="yes"/>
<layer number="122" name="_bsilk" color="7" fill="1" visible="yes" active="yes"/>
<layer number="123" name="tTestmark" color="7" fill="1" visible="yes" active="yes"/>
<layer number="124" name="bTestmark" color="7" fill="1" visible="yes" active="yes"/>
<layer number="125" name="_tNames" color="7" fill="1" visible="yes" active="yes"/>
<layer number="126" name="_bNames" color="7" fill="1" visible="yes" active="yes"/>
<layer number="127" name="_tValues" color="7" fill="1" visible="yes" active="yes"/>
<layer number="128" name="_bValues" color="7" fill="1" visible="yes" active="yes"/>
<layer number="131" name="tAdjust" color="7" fill="1" visible="yes" active="yes"/>
<layer number="132" name="bAdjust" color="7" fill="1" visible="yes" active="yes"/>
<layer number="144" name="Drill_legend" color="7" fill="1" visible="yes" active="yes"/>
<layer number="150" name="Notes" color="7" fill="1" visible="yes" active="yes"/>
<layer number="151" name="HeatSink" color="7" fill="1" visible="yes" active="yes"/>
<layer number="152" name="_bDocu" color="7" fill="1" visible="yes" active="yes"/>
<layer number="153" name="FabDoc1" color="7" fill="1" visible="yes" active="yes"/>
<layer number="154" name="FabDoc2" color="7" fill="1" visible="yes" active="yes"/>
<layer number="155" name="FabDoc3" color="7" fill="1" visible="yes" active="yes"/>
<layer number="199" name="Contour" color="7" fill="1" visible="yes" active="yes"/>
<layer number="200" name="200bmp" color="1" fill="10" visible="no" active="yes"/>
<layer number="201" name="201bmp" color="2" fill="10" visible="yes" active="yes"/>
<layer number="202" name="202bmp" color="3" fill="10" visible="yes" active="yes"/>
<layer number="203" name="203bmp" color="4" fill="10" visible="yes" active="yes"/>
<layer number="204" name="204bmp" color="5" fill="10" visible="yes" active="yes"/>
<layer number="205" name="205bmp" color="6" fill="10" visible="yes" active="yes"/>
<layer number="206" name="206bmp" color="7" fill="10" visible="yes" active="yes"/>
<layer number="207" name="207bmp" color="8" fill="10" visible="yes" active="yes"/>
<layer number="208" name="208bmp" color="9" fill="10" visible="yes" active="yes"/>
<layer number="209" name="209bmp" color="7" fill="1" visible="yes" active="yes"/>
<layer number="210" name="210bmp" color="7" fill="1" visible="yes" active="yes"/>
<layer number="211" name="211bmp" color="7" fill="1" visible="yes" active="yes"/>
<layer number="212" name="212bmp" color="7" fill="1" visible="yes" active="yes"/>
<layer number="213" name="213bmp" color="7" fill="1" visible="yes" active="yes"/>
<layer number="214" name="214bmp" color="7" fill="1" visible="yes" active="yes"/>
<layer number="215" name="215bmp" color="7" fill="1" visible="yes" active="yes"/>
<layer number="216" name="216bmp" color="7" fill="1" visible="yes" active="yes"/>
<layer number="217" name="217bmp" color="18" fill="1" visible="no" active="no"/>
<layer number="218" name="218bmp" color="19" fill="1" visible="no" active="no"/>
<layer number="219" name="219bmp" color="20" fill="1" visible="no" active="no"/>
<layer number="220" name="220bmp" color="21" fill="1" visible="no" active="no"/>
<layer number="221" name="221bmp" color="22" fill="1" visible="no" active="no"/>
<layer number="222" name="222bmp" color="23" fill="1" visible="no" active="no"/>
<layer number="223" name="223bmp" color="24" fill="1" visible="no" active="no"/>
<layer number="224" name="224bmp" color="25" fill="1" visible="no" active="no"/>
<layer number="225" name="225bmp" color="7" fill="1" visible="yes" active="yes"/>
<layer number="226" name="226bmp" color="7" fill="1" visible="yes" active="yes"/>
<layer number="227" name="227bmp" color="7" fill="1" visible="yes" active="yes"/>
<layer number="228" name="228bmp" color="7" fill="1" visible="yes" active="yes"/>
<layer number="229" name="229bmp" color="7" fill="1" visible="yes" active="yes"/>
<layer number="230" name="230bmp" color="7" fill="1" visible="yes" active="yes"/>
<layer number="231" name="231bmp" color="7" fill="1" visible="yes" active="yes"/>
<layer number="248" name="Housing" color="7" fill="1" visible="yes" active="yes"/>
<layer number="249" name="Edge" color="7" fill="1" visible="yes" active="yes"/>
<layer number="250" name="Descript" color="3" fill="1" visible="no" active="no"/>
<layer number="251" name="SMDround" color="12" fill="11" visible="no" active="no"/>
<layer number="254" name="cooling" color="7" fill="1" visible="yes" active="yes"/>
</layers>
<board>
<fusionsync huburn="a.cGVyc29uYWw6dWUyODM1Y2Vi" projecturn="a.cGVyc29uYWw6dWUyODM1Y2ViIzIwMTgxMTA4MTU5MTM1Mzgx" f3durn="urn:adsk.wipprod:dm.lineage:BLSwNRn7R4-bnM5dzHSgGQ" pcbguid="2a319701-ab08-4da2-b01b-87737d9ae0e6" lastpulledtime="" lastsyncedchangeguid="98ab64bb-d5b3-f32d-91d1-aa4cc157168e"/>
<plain>
<wire x1="0" y1="18" x2="0" y2="1" width="0.4" layer="20"/>
<wire x1="0" y1="1" x2="1" y2="0" width="0.4" layer="20" curve="90"/>
<wire x1="1" y1="0" x2="28" y2="0" width="0.4" layer="20"/>
<wire x1="28" y1="0" x2="29" y2="1" width="0.4" layer="20" curve="90"/>
<wire x1="29" y1="1" x2="29" y2="18" width="0.4" layer="20"/>
<wire x1="29" y1="18" x2="28" y2="19" width="0.4" layer="20" curve="90"/>
<wire x1="28" y1="19" x2="1" y2="19" width="0.4" layer="20"/>
<wire x1="1" y1="19" x2="0" y2="18" width="0.4" layer="20" curve="90"/>
<text x="14.75" y="1.75" size="1" layer="21" font="vector" ratio="20" align="center">&gt;DRAWING_NAME</text>
<text x="23" y="15.5" size="1" layer="21" font="vector" ratio="20" rot="R180" align="center-right">BROWN</text>
<text x="6.25" y="15.5" size="1" layer="21" font="vector" ratio="20" align="center-right">1/WN</text>
<text x="6.25" y="13" size="1" layer="21" font="vector" ratio="20" align="center-right">2/BN</text>
<text x="6.25" y="10.5" size="1" layer="21" font="vector" ratio="20" align="center-right">3/GN</text>
<text x="17.25" y="13" size="1" layer="21" font="vector" ratio="20" rot="R90" align="center">CASSETTE
SENSOR</text>
<text x="11" y="13" size="1" layer="21" font="vector" ratio="20" rot="SR270" align="center">C13-MAIN</text>
<wire x1="12" y1="16.75" x2="1" y2="16.75" width="0.254" layer="21"/>
<wire x1="1" y1="16.75" x2="1" y2="9.25" width="0.254" layer="21"/>
<wire x1="1" y1="9.25" x2="12" y2="9.25" width="0.254" layer="21"/>
<wire x1="12" y1="9.25" x2="12" y2="16.75" width="0.254" layer="21"/>
<wire x1="15.5" y1="16.75" x2="28" y2="16.75" width="0.254" layer="21"/>
<wire x1="28" y1="16.75" x2="28" y2="9.25" width="0.254" layer="21"/>
<wire x1="28" y1="9.25" x2="15.5" y2="9.25" width="0.254" layer="21"/>
<wire x1="15.5" y1="9.25" x2="15.5" y2="16.75" width="0.254" layer="21"/>
<hole x="4" y="4" drill="3.2"/>
<circle x="4" y="4" radius="3.2" width="0" layer="41"/>
<dimension x1="29" y1="19" x2="0" y2="19" x3="14.5" y3="22" textsize="1" textratio="20" layer="47" visible="yes"/>
<dimension x1="0" y1="19" x2="0" y2="0" x3="-3" y3="9.5" textsize="1" textratio="20" layer="47" visible="yes"/>
<hole x="25" y="4" drill="3.2"/>
<circle x="25" y="4" radius="3.2" width="0" layer="41"/>
<text x="23" y="13" size="1" layer="21" font="vector" ratio="20" rot="R180" align="center-right">BLACK</text>
<text x="23" y="10.5" size="1" layer="21" font="vector" ratio="20" rot="R180" align="center-right">BLUE</text>
</plain>
<libraries>
<library name="udo-logo">
<packages>
<package name="UDO-LOGO-10MM" urn="urn:adsk.eagle:footprint:6649251/1">
<rectangle x1="1.397" y1="0.127" x2="1.82118125" y2="0.21158125" layer="21"/>
<rectangle x1="3.85318125" y1="0.127" x2="4.191" y2="0.21158125" layer="21"/>
<rectangle x1="4.953" y1="0.127" x2="5.03681875" y2="0.21158125" layer="21"/>
<rectangle x1="5.63118125" y1="0.127" x2="5.715" y2="0.21158125" layer="21"/>
<rectangle x1="6.223" y1="0.127" x2="6.30681875" y2="0.21158125" layer="21"/>
<rectangle x1="7.06881875" y1="0.127" x2="7.40918125" y2="0.21158125" layer="21"/>
<rectangle x1="8.84681875" y1="0.127" x2="8.93318125" y2="0.21158125" layer="21"/>
<rectangle x1="1.22681875" y1="0.21158125" x2="1.905" y2="0.29641875" layer="21"/>
<rectangle x1="2.159" y1="0.21158125" x2="2.32918125" y2="0.29641875" layer="21"/>
<rectangle x1="2.75081875" y1="0.21158125" x2="2.83718125" y2="0.29641875" layer="21"/>
<rectangle x1="2.921" y1="0.21158125" x2="3.09118125" y2="0.29641875" layer="21"/>
<rectangle x1="3.34518125" y1="0.21158125" x2="3.59918125" y2="0.29641875" layer="21"/>
<rectangle x1="3.683" y1="0.21158125" x2="4.36118125" y2="0.29641875" layer="21"/>
<rectangle x1="4.78281875" y1="0.21158125" x2="5.207" y2="0.29641875" layer="21"/>
<rectangle x1="5.461" y1="0.21158125" x2="5.79881875" y2="0.29641875" layer="21"/>
<rectangle x1="6.05281875" y1="0.21158125" x2="6.477" y2="0.29641875" layer="21"/>
<rectangle x1="6.90118125" y1="0.21158125" x2="7.57681875" y2="0.29641875" layer="21"/>
<rectangle x1="7.747" y1="0.21158125" x2="7.91718125" y2="0.29641875" layer="21"/>
<rectangle x1="8.33881875" y1="0.21158125" x2="8.509" y2="0.29641875" layer="21"/>
<rectangle x1="8.67918125" y1="0.21158125" x2="9.10081875" y2="0.29641875" layer="21"/>
<rectangle x1="1.22681875" y1="0.29641875" x2="1.397" y2="0.381" layer="21"/>
<rectangle x1="1.82118125" y1="0.29641875" x2="1.98881875" y2="0.381" layer="21"/>
<rectangle x1="2.159" y1="0.29641875" x2="2.32918125" y2="0.381" layer="21"/>
<rectangle x1="2.75081875" y1="0.29641875" x2="2.83718125" y2="0.381" layer="21"/>
<rectangle x1="2.921" y1="0.29641875" x2="3.09118125" y2="0.381" layer="21"/>
<rectangle x1="3.25881875" y1="0.29641875" x2="3.429" y2="0.381" layer="21"/>
<rectangle x1="3.683" y1="0.29641875" x2="3.85318125" y2="0.381" layer="21"/>
<rectangle x1="4.27481875" y1="0.29641875" x2="4.445" y2="0.381" layer="21"/>
<rectangle x1="4.699" y1="0.29641875" x2="4.86918125" y2="0.381" layer="21"/>
<rectangle x1="5.12318125" y1="0.29641875" x2="5.29081875" y2="0.381" layer="21"/>
<rectangle x1="5.37718125" y1="0.29641875" x2="5.54481875" y2="0.381" layer="21"/>
<rectangle x1="5.715" y1="0.29641875" x2="5.88518125" y2="0.381" layer="21"/>
<rectangle x1="5.969" y1="0.29641875" x2="6.13918125" y2="0.381" layer="21"/>
<rectangle x1="6.39318125" y1="0.29641875" x2="6.56081875" y2="0.381" layer="21"/>
<rectangle x1="6.81481875" y1="0.29641875" x2="6.985" y2="0.381" layer="21"/>
<rectangle x1="7.493" y1="0.29641875" x2="7.66318125" y2="0.381" layer="21"/>
<rectangle x1="7.747" y1="0.29641875" x2="7.91718125" y2="0.381" layer="21"/>
<rectangle x1="8.33881875" y1="0.29641875" x2="8.509" y2="0.381" layer="21"/>
<rectangle x1="8.59281875" y1="0.29641875" x2="8.763" y2="0.381" layer="21"/>
<rectangle x1="8.93318125" y1="0.29641875" x2="9.18718125" y2="0.381" layer="21"/>
<rectangle x1="1.143" y1="0.381" x2="1.31318125" y2="0.46558125" layer="21"/>
<rectangle x1="1.905" y1="0.381" x2="2.07518125" y2="0.46558125" layer="21"/>
<rectangle x1="2.159" y1="0.381" x2="2.32918125" y2="0.46558125" layer="21"/>
<rectangle x1="2.75081875" y1="0.381" x2="2.83718125" y2="0.46558125" layer="21"/>
<rectangle x1="2.921" y1="0.381" x2="3.09118125" y2="0.46558125" layer="21"/>
<rectangle x1="3.175" y1="0.381" x2="3.34518125" y2="0.46558125" layer="21"/>
<rectangle x1="3.683" y1="0.381" x2="3.85318125" y2="0.46558125" layer="21"/>
<rectangle x1="4.36118125" y1="0.381" x2="4.52881875" y2="0.46558125" layer="21"/>
<rectangle x1="4.699" y1="0.381" x2="4.78281875" y2="0.46558125" layer="21"/>
<rectangle x1="5.207" y1="0.381" x2="5.37718125" y2="0.46558125" layer="21"/>
<rectangle x1="5.715" y1="0.381" x2="5.88518125" y2="0.46558125" layer="21"/>
<rectangle x1="5.969" y1="0.381" x2="6.05281875" y2="0.46558125" layer="21"/>
<rectangle x1="6.477" y1="0.381" x2="6.56081875" y2="0.46558125" layer="21"/>
<rectangle x1="6.81481875" y1="0.381" x2="6.90118125" y2="0.46558125" layer="21"/>
<rectangle x1="7.57681875" y1="0.381" x2="7.66318125" y2="0.46558125" layer="21"/>
<rectangle x1="7.747" y1="0.381" x2="7.91718125" y2="0.46558125" layer="21"/>
<rectangle x1="8.33881875" y1="0.381" x2="8.67918125" y2="0.46558125" layer="21"/>
<rectangle x1="9.017" y1="0.381" x2="9.18718125" y2="0.46558125" layer="21"/>
<rectangle x1="1.143" y1="0.46558125" x2="1.22681875" y2="0.55041875" layer="21"/>
<rectangle x1="1.905" y1="0.46558125" x2="2.07518125" y2="0.55041875" layer="21"/>
<rectangle x1="2.159" y1="0.46558125" x2="2.32918125" y2="0.55041875" layer="21"/>
<rectangle x1="2.75081875" y1="0.46558125" x2="2.83718125" y2="0.55041875" layer="21"/>
<rectangle x1="2.921" y1="0.46558125" x2="3.09118125" y2="0.55041875" layer="21"/>
<rectangle x1="3.175" y1="0.46558125" x2="3.34518125" y2="0.55041875" layer="21"/>
<rectangle x1="3.683" y1="0.46558125" x2="3.85318125" y2="0.55041875" layer="21"/>
<rectangle x1="4.445" y1="0.46558125" x2="4.78281875" y2="0.55041875" layer="21"/>
<rectangle x1="5.207" y1="0.46558125" x2="5.37718125" y2="0.55041875" layer="21"/>
<rectangle x1="5.54481875" y1="0.46558125" x2="5.79881875" y2="0.55041875" layer="21"/>
<rectangle x1="5.88518125" y1="0.46558125" x2="6.64718125" y2="0.55041875" layer="21"/>
<rectangle x1="6.731" y1="0.46558125" x2="6.90118125" y2="0.55041875" layer="21"/>
<rectangle x1="7.57681875" y1="0.46558125" x2="7.91718125" y2="0.55041875" layer="21"/>
<rectangle x1="8.33881875" y1="0.46558125" x2="9.18718125" y2="0.55041875" layer="21"/>
<rectangle x1="1.05918125" y1="0.55041875" x2="1.22681875" y2="0.635" layer="21"/>
<rectangle x1="1.98881875" y1="0.55041875" x2="2.07518125" y2="0.635" layer="21"/>
<rectangle x1="2.159" y1="0.55041875" x2="2.32918125" y2="0.635" layer="21"/>
<rectangle x1="2.75081875" y1="0.55041875" x2="2.83718125" y2="0.635" layer="21"/>
<rectangle x1="2.921" y1="0.55041875" x2="3.09118125" y2="0.635" layer="21"/>
<rectangle x1="3.175" y1="0.55041875" x2="3.34518125" y2="0.635" layer="21"/>
<rectangle x1="3.683" y1="0.55041875" x2="3.85318125" y2="0.635" layer="21"/>
<rectangle x1="4.445" y1="0.55041875" x2="4.78281875" y2="0.635" layer="21"/>
<rectangle x1="5.207" y1="0.55041875" x2="5.715" y2="0.635" layer="21"/>
<rectangle x1="5.88518125" y1="0.55041875" x2="6.05281875" y2="0.635" layer="21"/>
<rectangle x1="6.13918125" y1="0.55041875" x2="6.39318125" y2="0.635" layer="21"/>
<rectangle x1="6.477" y1="0.55041875" x2="6.64718125" y2="0.635" layer="21"/>
<rectangle x1="6.731" y1="0.55041875" x2="6.90118125" y2="0.635" layer="21"/>
<rectangle x1="7.57681875" y1="0.55041875" x2="7.91718125" y2="0.635" layer="21"/>
<rectangle x1="8.33881875" y1="0.55041875" x2="8.67918125" y2="0.635" layer="21"/>
<rectangle x1="8.763" y1="0.55041875" x2="9.18718125" y2="0.635" layer="21"/>
<rectangle x1="1.05918125" y1="0.635" x2="1.22681875" y2="0.71958125" layer="21"/>
<rectangle x1="1.98881875" y1="0.635" x2="2.07518125" y2="0.71958125" layer="21"/>
<rectangle x1="2.159" y1="0.635" x2="2.32918125" y2="0.71958125" layer="21"/>
<rectangle x1="2.667" y1="0.635" x2="2.83718125" y2="0.71958125" layer="21"/>
<rectangle x1="2.921" y1="0.635" x2="3.09118125" y2="0.71958125" layer="21"/>
<rectangle x1="3.175" y1="0.635" x2="3.34518125" y2="0.71958125" layer="21"/>
<rectangle x1="3.683" y1="0.635" x2="3.85318125" y2="0.71958125" layer="21"/>
<rectangle x1="4.445" y1="0.635" x2="4.61518125" y2="0.71958125" layer="21"/>
<rectangle x1="4.699" y1="0.635" x2="4.86918125" y2="0.71958125" layer="21"/>
<rectangle x1="5.12318125" y1="0.635" x2="5.29081875" y2="0.71958125" layer="21"/>
<rectangle x1="5.37718125" y1="0.635" x2="5.54481875" y2="0.71958125" layer="21"/>
<rectangle x1="5.715" y1="0.635" x2="5.88518125" y2="0.71958125" layer="21"/>
<rectangle x1="5.969" y1="0.635" x2="6.13918125" y2="0.71958125" layer="21"/>
<rectangle x1="6.39318125" y1="0.635" x2="6.56081875" y2="0.71958125" layer="21"/>
<rectangle x1="6.731" y1="0.635" x2="6.90118125" y2="0.71958125" layer="21"/>
<rectangle x1="7.57681875" y1="0.635" x2="7.747" y2="0.71958125" layer="21"/>
<rectangle x1="7.83081875" y1="0.635" x2="8.001" y2="0.71958125" layer="21"/>
<rectangle x1="8.255" y1="0.635" x2="8.42518125" y2="0.71958125" layer="21"/>
<rectangle x1="8.509" y1="0.635" x2="8.67918125" y2="0.71958125" layer="21"/>
<rectangle x1="9.017" y1="0.635" x2="9.18718125" y2="0.71958125" layer="21"/>
<rectangle x1="1.05918125" y1="0.71958125" x2="1.22681875" y2="0.80441875" layer="21"/>
<rectangle x1="1.98881875" y1="0.71958125" x2="2.07518125" y2="0.80441875" layer="21"/>
<rectangle x1="2.159" y1="0.71958125" x2="2.75081875" y2="0.80441875" layer="21"/>
<rectangle x1="2.921" y1="0.71958125" x2="3.59918125" y2="0.80441875" layer="21"/>
<rectangle x1="3.683" y1="0.71958125" x2="3.85318125" y2="0.80441875" layer="21"/>
<rectangle x1="4.445" y1="0.71958125" x2="4.61518125" y2="0.80441875" layer="21"/>
<rectangle x1="4.78281875" y1="0.71958125" x2="5.29081875" y2="0.80441875" layer="21"/>
<rectangle x1="5.37718125" y1="0.71958125" x2="5.88518125" y2="0.80441875" layer="21"/>
<rectangle x1="6.05281875" y1="0.71958125" x2="6.56081875" y2="0.80441875" layer="21"/>
<rectangle x1="6.731" y1="0.71958125" x2="6.90118125" y2="0.80441875" layer="21"/>
<rectangle x1="7.57681875" y1="0.71958125" x2="8.33881875" y2="0.80441875" layer="21"/>
<rectangle x1="8.59281875" y1="0.71958125" x2="9.10081875" y2="0.80441875" layer="21"/>
<rectangle x1="1.05918125" y1="0.80441875" x2="1.22681875" y2="0.889" layer="21"/>
<rectangle x1="1.98881875" y1="0.80441875" x2="2.07518125" y2="0.889" layer="21"/>
<rectangle x1="2.159" y1="0.80441875" x2="2.24281875" y2="0.889" layer="21"/>
<rectangle x1="2.413" y1="0.80441875" x2="2.667" y2="0.889" layer="21"/>
<rectangle x1="2.921" y1="0.80441875" x2="3.00481875" y2="0.889" layer="21"/>
<rectangle x1="3.09118125" y1="0.80441875" x2="3.59918125" y2="0.889" layer="21"/>
<rectangle x1="3.683" y1="0.80441875" x2="3.85318125" y2="0.889" layer="21"/>
<rectangle x1="4.445" y1="0.80441875" x2="4.61518125" y2="0.889" layer="21"/>
<rectangle x1="4.86918125" y1="0.80441875" x2="5.12318125" y2="0.889" layer="21"/>
<rectangle x1="5.54481875" y1="0.80441875" x2="5.715" y2="0.889" layer="21"/>
<rectangle x1="6.13918125" y1="0.80441875" x2="6.39318125" y2="0.889" layer="21"/>
<rectangle x1="6.81481875" y1="0.80441875" x2="6.90118125" y2="0.889" layer="21"/>
<rectangle x1="7.57681875" y1="0.80441875" x2="7.66318125" y2="0.889" layer="21"/>
<rectangle x1="8.001" y1="0.80441875" x2="8.255" y2="0.889" layer="21"/>
<rectangle x1="8.67918125" y1="0.80441875" x2="9.017" y2="0.889" layer="21"/>
<rectangle x1="1.05918125" y1="0.889" x2="1.22681875" y2="0.97358125" layer="21"/>
<rectangle x1="1.98881875" y1="0.889" x2="2.07518125" y2="0.97358125" layer="21"/>
<rectangle x1="2.921" y1="0.889" x2="3.09118125" y2="0.97358125" layer="21"/>
<rectangle x1="3.175" y1="0.889" x2="3.34518125" y2="0.97358125" layer="21"/>
<rectangle x1="3.683" y1="0.889" x2="3.85318125" y2="0.97358125" layer="21"/>
<rectangle x1="4.36118125" y1="0.889" x2="4.52881875" y2="0.97358125" layer="21"/>
<rectangle x1="6.81481875" y1="0.889" x2="6.985" y2="0.97358125" layer="21"/>
<rectangle x1="7.493" y1="0.889" x2="7.66318125" y2="0.97358125" layer="21"/>
<rectangle x1="1.05918125" y1="0.97358125" x2="1.22681875" y2="1.05841875" layer="21"/>
<rectangle x1="1.98881875" y1="0.97358125" x2="2.07518125" y2="1.05841875" layer="21"/>
<rectangle x1="2.921" y1="0.97358125" x2="3.00481875" y2="1.05841875" layer="21"/>
<rectangle x1="3.175" y1="0.97358125" x2="3.34518125" y2="1.05841875" layer="21"/>
<rectangle x1="3.683" y1="0.97358125" x2="3.85318125" y2="1.05841875" layer="21"/>
<rectangle x1="4.27481875" y1="0.97358125" x2="4.445" y2="1.05841875" layer="21"/>
<rectangle x1="6.90118125" y1="0.97358125" x2="7.57681875" y2="1.05841875" layer="21"/>
<rectangle x1="1.05918125" y1="1.05841875" x2="1.22681875" y2="1.143" layer="21"/>
<rectangle x1="1.98881875" y1="1.05841875" x2="2.07518125" y2="1.143" layer="21"/>
<rectangle x1="3.175" y1="1.05841875" x2="3.34518125" y2="1.143" layer="21"/>
<rectangle x1="3.683" y1="1.05841875" x2="4.36118125" y2="1.143" layer="21"/>
<rectangle x1="7.06881875" y1="1.05841875" x2="7.40918125" y2="1.143" layer="21"/>
<rectangle x1="3.76681875" y1="1.143" x2="4.191" y2="1.22758125" layer="21"/>
<rectangle x1="1.82118125" y1="1.56641875" x2="8.255" y2="1.651" layer="21"/>
<rectangle x1="1.397" y1="1.651" x2="8.59281875" y2="1.73558125" layer="21"/>
<rectangle x1="1.143" y1="1.73558125" x2="8.84681875" y2="1.82041875" layer="21"/>
<rectangle x1="1.05918125" y1="1.82041875" x2="9.017" y2="1.905" layer="21"/>
<rectangle x1="0.889" y1="1.905" x2="1.651" y2="1.98958125" layer="21"/>
<rectangle x1="4.86918125" y1="1.905" x2="9.10081875" y2="1.98958125" layer="21"/>
<rectangle x1="0.80518125" y1="1.98958125" x2="1.397" y2="2.07441875" layer="21"/>
<rectangle x1="4.78281875" y1="1.98958125" x2="9.271" y2="2.07441875" layer="21"/>
<rectangle x1="0.635" y1="2.07441875" x2="1.22681875" y2="2.159" layer="21"/>
<rectangle x1="4.78281875" y1="2.07441875" x2="9.35481875" y2="2.159" layer="21"/>
<rectangle x1="0.55118125" y1="2.159" x2="1.05918125" y2="2.24358125" layer="21"/>
<rectangle x1="4.699" y1="2.159" x2="9.44118125" y2="2.24358125" layer="21"/>
<rectangle x1="0.46481875" y1="2.24358125" x2="0.97281875" y2="2.32841875" layer="21"/>
<rectangle x1="4.699" y1="2.24358125" x2="9.525" y2="2.32841875" layer="21"/>
<rectangle x1="0.46481875" y1="2.32841875" x2="0.80518125" y2="2.413" layer="21"/>
<rectangle x1="4.699" y1="2.32841875" x2="9.60881875" y2="2.413" layer="21"/>
<rectangle x1="0.381" y1="2.413" x2="0.71881875" y2="2.49758125" layer="21"/>
<rectangle x1="4.61518125" y1="2.413" x2="9.60881875" y2="2.49758125" layer="21"/>
<rectangle x1="0.29718125" y1="2.49758125" x2="0.71881875" y2="2.58241875" layer="21"/>
<rectangle x1="4.61518125" y1="2.49758125" x2="9.69518125" y2="2.58241875" layer="21"/>
<rectangle x1="0.29718125" y1="2.58241875" x2="0.635" y2="2.667" layer="21"/>
<rectangle x1="4.61518125" y1="2.58241875" x2="9.779" y2="2.667" layer="21"/>
<rectangle x1="0.21081875" y1="2.667" x2="0.55118125" y2="2.75158125" layer="21"/>
<rectangle x1="4.52881875" y1="2.667" x2="9.779" y2="2.75158125" layer="21"/>
<rectangle x1="0.21081875" y1="2.75158125" x2="0.55118125" y2="2.83641875" layer="21"/>
<rectangle x1="1.82118125" y1="2.75158125" x2="2.24281875" y2="2.83641875" layer="21"/>
<rectangle x1="2.921" y1="2.75158125" x2="3.51281875" y2="2.83641875" layer="21"/>
<rectangle x1="4.52881875" y1="2.75158125" x2="9.86281875" y2="2.83641875" layer="21"/>
<rectangle x1="0.127" y1="2.83641875" x2="0.46481875" y2="2.921" layer="21"/>
<rectangle x1="1.56718125" y1="2.83641875" x2="2.413" y2="2.921" layer="21"/>
<rectangle x1="2.83718125" y1="2.83641875" x2="3.683" y2="2.921" layer="21"/>
<rectangle x1="4.52881875" y1="2.83641875" x2="5.29081875" y2="2.921" layer="21"/>
<rectangle x1="5.969" y1="2.83641875" x2="6.64718125" y2="2.921" layer="21"/>
<rectangle x1="6.81481875" y1="2.83641875" x2="7.493" y2="2.921" layer="21"/>
<rectangle x1="7.66318125" y1="2.83641875" x2="8.17118125" y2="2.921" layer="21"/>
<rectangle x1="8.67918125" y1="2.83641875" x2="9.86281875" y2="2.921" layer="21"/>
<rectangle x1="0.127" y1="2.921" x2="0.46481875" y2="3.00558125" layer="21"/>
<rectangle x1="1.48081875" y1="2.921" x2="2.58318125" y2="3.00558125" layer="21"/>
<rectangle x1="2.83718125" y1="2.921" x2="3.85318125" y2="3.00558125" layer="21"/>
<rectangle x1="4.52881875" y1="2.921" x2="5.12318125" y2="3.00558125" layer="21"/>
<rectangle x1="6.13918125" y1="2.921" x2="6.64718125" y2="3.00558125" layer="21"/>
<rectangle x1="6.81481875" y1="2.921" x2="7.493" y2="3.00558125" layer="21"/>
<rectangle x1="7.747" y1="2.921" x2="8.001" y2="3.00558125" layer="21"/>
<rectangle x1="8.763" y1="2.921" x2="9.86281875" y2="3.00558125" layer="21"/>
<rectangle x1="0.127" y1="3.00558125" x2="0.381" y2="3.09041875" layer="21"/>
<rectangle x1="1.397" y1="3.00558125" x2="2.667" y2="3.09041875" layer="21"/>
<rectangle x1="2.921" y1="3.00558125" x2="3.937" y2="3.09041875" layer="21"/>
<rectangle x1="4.52881875" y1="3.00558125" x2="5.03681875" y2="3.09041875" layer="21"/>
<rectangle x1="5.54481875" y1="3.00558125" x2="5.715" y2="3.09041875" layer="21"/>
<rectangle x1="6.223" y1="3.00558125" x2="6.64718125" y2="3.09041875" layer="21"/>
<rectangle x1="6.81481875" y1="3.00558125" x2="7.493" y2="3.09041875" layer="21"/>
<rectangle x1="7.747" y1="3.00558125" x2="7.91718125" y2="3.09041875" layer="21"/>
<rectangle x1="8.255" y1="3.00558125" x2="8.59281875" y2="3.09041875" layer="21"/>
<rectangle x1="8.84681875" y1="3.00558125" x2="9.94918125" y2="3.09041875" layer="21"/>
<rectangle x1="0.04318125" y1="3.09041875" x2="0.381" y2="3.175" layer="21"/>
<rectangle x1="1.31318125" y1="3.09041875" x2="1.73481875" y2="3.175" layer="21"/>
<rectangle x1="2.24281875" y1="3.09041875" x2="2.667" y2="3.175" layer="21"/>
<rectangle x1="3.59918125" y1="3.09041875" x2="4.02081875" y2="3.175" layer="21"/>
<rectangle x1="4.52881875" y1="3.09041875" x2="4.953" y2="3.175" layer="21"/>
<rectangle x1="5.29081875" y1="3.09041875" x2="5.969" y2="3.175" layer="21"/>
<rectangle x1="6.30681875" y1="3.09041875" x2="6.64718125" y2="3.175" layer="21"/>
<rectangle x1="6.81481875" y1="3.09041875" x2="7.493" y2="3.175" layer="21"/>
<rectangle x1="7.747" y1="3.09041875" x2="7.91718125" y2="3.175" layer="21"/>
<rectangle x1="8.08481875" y1="3.09041875" x2="8.67918125" y2="3.175" layer="21"/>
<rectangle x1="8.84681875" y1="3.09041875" x2="9.94918125" y2="3.175" layer="21"/>
<rectangle x1="0.04318125" y1="3.175" x2="0.381" y2="3.25958125" layer="21"/>
<rectangle x1="1.31318125" y1="3.175" x2="1.651" y2="3.25958125" layer="21"/>
<rectangle x1="2.413" y1="3.175" x2="2.75081875" y2="3.25958125" layer="21"/>
<rectangle x1="3.683" y1="3.175" x2="4.02081875" y2="3.25958125" layer="21"/>
<rectangle x1="4.52881875" y1="3.175" x2="4.953" y2="3.25958125" layer="21"/>
<rectangle x1="5.207" y1="3.175" x2="6.05281875" y2="3.25958125" layer="21"/>
<rectangle x1="6.30681875" y1="3.175" x2="6.64718125" y2="3.25958125" layer="21"/>
<rectangle x1="6.81481875" y1="3.175" x2="7.493" y2="3.25958125" layer="21"/>
<rectangle x1="7.66318125" y1="3.175" x2="7.83081875" y2="3.25958125" layer="21"/>
<rectangle x1="8.08481875" y1="3.175" x2="9.94918125" y2="3.25958125" layer="21"/>
<rectangle x1="0.04318125" y1="3.25958125" x2="0.29718125" y2="3.34441875" layer="21"/>
<rectangle x1="1.22681875" y1="3.25958125" x2="1.56718125" y2="3.34441875" layer="21"/>
<rectangle x1="2.49681875" y1="3.25958125" x2="2.75081875" y2="3.34441875" layer="21"/>
<rectangle x1="3.76681875" y1="3.25958125" x2="4.10718125" y2="3.34441875" layer="21"/>
<rectangle x1="4.445" y1="3.25958125" x2="4.86918125" y2="3.34441875" layer="21"/>
<rectangle x1="5.12318125" y1="3.25958125" x2="6.13918125" y2="3.34441875" layer="21"/>
<rectangle x1="6.39318125" y1="3.25958125" x2="6.64718125" y2="3.34441875" layer="21"/>
<rectangle x1="6.81481875" y1="3.25958125" x2="7.493" y2="3.34441875" layer="21"/>
<rectangle x1="7.66318125" y1="3.25958125" x2="7.83081875" y2="3.34441875" layer="21"/>
<rectangle x1="8.93318125" y1="3.25958125" x2="9.94918125" y2="3.34441875" layer="21"/>
<rectangle x1="0.04318125" y1="3.34441875" x2="0.29718125" y2="3.429" layer="21"/>
<rectangle x1="1.22681875" y1="3.34441875" x2="1.48081875" y2="3.429" layer="21"/>
<rectangle x1="2.49681875" y1="3.34441875" x2="2.83718125" y2="3.429" layer="21"/>
<rectangle x1="3.76681875" y1="3.34441875" x2="4.10718125" y2="3.429" layer="21"/>
<rectangle x1="4.445" y1="3.34441875" x2="4.86918125" y2="3.429" layer="21"/>
<rectangle x1="5.12318125" y1="3.34441875" x2="6.13918125" y2="3.429" layer="21"/>
<rectangle x1="6.39318125" y1="3.34441875" x2="6.64718125" y2="3.429" layer="21"/>
<rectangle x1="6.81481875" y1="3.34441875" x2="7.493" y2="3.429" layer="21"/>
<rectangle x1="7.66318125" y1="3.34441875" x2="7.83081875" y2="3.429" layer="21"/>
<rectangle x1="8.93318125" y1="3.34441875" x2="9.94918125" y2="3.429" layer="21"/>
<rectangle x1="0.04318125" y1="3.429" x2="0.29718125" y2="3.51358125" layer="21"/>
<rectangle x1="1.143" y1="3.429" x2="1.48081875" y2="3.51358125" layer="21"/>
<rectangle x1="2.49681875" y1="3.429" x2="2.83718125" y2="3.51358125" layer="21"/>
<rectangle x1="3.85318125" y1="3.429" x2="4.10718125" y2="3.51358125" layer="21"/>
<rectangle x1="4.445" y1="3.429" x2="4.78281875" y2="3.51358125" layer="21"/>
<rectangle x1="5.03681875" y1="3.429" x2="6.13918125" y2="3.51358125" layer="21"/>
<rectangle x1="6.39318125" y1="3.429" x2="6.64718125" y2="3.51358125" layer="21"/>
<rectangle x1="6.81481875" y1="3.429" x2="7.493" y2="3.51358125" layer="21"/>
<rectangle x1="7.66318125" y1="3.429" x2="7.83081875" y2="3.51358125" layer="21"/>
<rectangle x1="8.08481875" y1="3.429" x2="8.67918125" y2="3.51358125" layer="21"/>
<rectangle x1="8.93318125" y1="3.429" x2="9.94918125" y2="3.51358125" layer="21"/>
<rectangle x1="0.04318125" y1="3.51358125" x2="0.29718125" y2="3.59841875" layer="21"/>
<rectangle x1="1.143" y1="3.51358125" x2="1.48081875" y2="3.59841875" layer="21"/>
<rectangle x1="2.58318125" y1="3.51358125" x2="2.83718125" y2="3.59841875" layer="21"/>
<rectangle x1="3.85318125" y1="3.51358125" x2="4.191" y2="3.59841875" layer="21"/>
<rectangle x1="4.445" y1="3.51358125" x2="4.78281875" y2="3.59841875" layer="21"/>
<rectangle x1="5.03681875" y1="3.51358125" x2="6.223" y2="3.59841875" layer="21"/>
<rectangle x1="6.477" y1="3.51358125" x2="6.64718125" y2="3.59841875" layer="21"/>
<rectangle x1="6.90118125" y1="3.51358125" x2="7.40918125" y2="3.59841875" layer="21"/>
<rectangle x1="7.66318125" y1="3.51358125" x2="7.91718125" y2="3.59841875" layer="21"/>
<rectangle x1="8.08481875" y1="3.51358125" x2="8.67918125" y2="3.59841875" layer="21"/>
<rectangle x1="8.84681875" y1="3.51358125" x2="9.94918125" y2="3.59841875" layer="21"/>
<rectangle x1="0.04318125" y1="3.59841875" x2="0.29718125" y2="3.683" layer="21"/>
<rectangle x1="1.143" y1="3.59841875" x2="1.48081875" y2="3.683" layer="21"/>
<rectangle x1="2.58318125" y1="3.59841875" x2="2.83718125" y2="3.683" layer="21"/>
<rectangle x1="3.85318125" y1="3.59841875" x2="4.191" y2="3.683" layer="21"/>
<rectangle x1="4.445" y1="3.59841875" x2="4.78281875" y2="3.683" layer="21"/>
<rectangle x1="5.03681875" y1="3.59841875" x2="6.223" y2="3.683" layer="21"/>
<rectangle x1="6.477" y1="3.59841875" x2="6.64718125" y2="3.683" layer="21"/>
<rectangle x1="6.985" y1="3.59841875" x2="7.32281875" y2="3.683" layer="21"/>
<rectangle x1="7.66318125" y1="3.59841875" x2="7.91718125" y2="3.683" layer="21"/>
<rectangle x1="8.17118125" y1="3.59841875" x2="8.59281875" y2="3.683" layer="21"/>
<rectangle x1="8.84681875" y1="3.59841875" x2="9.94918125" y2="3.683" layer="21"/>
<rectangle x1="0.04318125" y1="3.683" x2="0.29718125" y2="3.76758125" layer="21"/>
<rectangle x1="1.143" y1="3.683" x2="1.48081875" y2="3.76758125" layer="21"/>
<rectangle x1="2.58318125" y1="3.683" x2="2.83718125" y2="3.76758125" layer="21"/>
<rectangle x1="3.85318125" y1="3.683" x2="4.10718125" y2="3.76758125" layer="21"/>
<rectangle x1="4.445" y1="3.683" x2="4.78281875" y2="3.76758125" layer="21"/>
<rectangle x1="5.03681875" y1="3.683" x2="6.13918125" y2="3.76758125" layer="21"/>
<rectangle x1="6.39318125" y1="3.683" x2="6.64718125" y2="3.76758125" layer="21"/>
<rectangle x1="7.57681875" y1="3.683" x2="8.001" y2="3.76758125" layer="21"/>
<rectangle x1="8.763" y1="3.683" x2="9.94918125" y2="3.76758125" layer="21"/>
<rectangle x1="0.04318125" y1="3.76758125" x2="0.29718125" y2="3.85241875" layer="21"/>
<rectangle x1="1.143" y1="3.76758125" x2="1.48081875" y2="3.85241875" layer="21"/>
<rectangle x1="2.58318125" y1="3.76758125" x2="2.83718125" y2="3.85241875" layer="21"/>
<rectangle x1="3.85318125" y1="3.76758125" x2="4.10718125" y2="3.85241875" layer="21"/>
<rectangle x1="4.445" y1="3.76758125" x2="4.86918125" y2="3.85241875" layer="21"/>
<rectangle x1="5.12318125" y1="3.76758125" x2="6.13918125" y2="3.85241875" layer="21"/>
<rectangle x1="6.39318125" y1="3.76758125" x2="6.64718125" y2="3.85241875" layer="21"/>
<rectangle x1="6.81481875" y1="3.76758125" x2="6.90118125" y2="3.85241875" layer="21"/>
<rectangle x1="7.40918125" y1="3.76758125" x2="8.08481875" y2="3.85241875" layer="21"/>
<rectangle x1="8.67918125" y1="3.76758125" x2="9.94918125" y2="3.85241875" layer="21"/>
<rectangle x1="0.04318125" y1="3.85241875" x2="0.29718125" y2="3.937" layer="21"/>
<rectangle x1="1.143" y1="3.85241875" x2="1.48081875" y2="3.937" layer="21"/>
<rectangle x1="2.58318125" y1="3.85241875" x2="2.83718125" y2="3.937" layer="21"/>
<rectangle x1="3.76681875" y1="3.85241875" x2="4.10718125" y2="3.937" layer="21"/>
<rectangle x1="4.445" y1="3.85241875" x2="4.86918125" y2="3.937" layer="21"/>
<rectangle x1="5.12318125" y1="3.85241875" x2="6.13918125" y2="3.937" layer="21"/>
<rectangle x1="6.39318125" y1="3.85241875" x2="7.06881875" y2="3.937" layer="21"/>
<rectangle x1="7.239" y1="3.85241875" x2="8.33881875" y2="3.937" layer="21"/>
<rectangle x1="8.42518125" y1="3.85241875" x2="9.94918125" y2="3.937" layer="21"/>
<rectangle x1="0.04318125" y1="3.937" x2="0.381" y2="4.02158125" layer="21"/>
<rectangle x1="1.143" y1="3.937" x2="1.48081875" y2="4.02158125" layer="21"/>
<rectangle x1="2.58318125" y1="3.937" x2="2.83718125" y2="4.02158125" layer="21"/>
<rectangle x1="3.683" y1="3.937" x2="4.02081875" y2="4.02158125" layer="21"/>
<rectangle x1="4.52881875" y1="3.937" x2="4.86918125" y2="4.02158125" layer="21"/>
<rectangle x1="5.207" y1="3.937" x2="6.05281875" y2="4.02158125" layer="21"/>
<rectangle x1="6.30681875" y1="3.937" x2="9.94918125" y2="4.02158125" layer="21"/>
<rectangle x1="0.04318125" y1="4.02158125" x2="0.381" y2="4.10641875" layer="21"/>
<rectangle x1="1.143" y1="4.02158125" x2="1.48081875" y2="4.10641875" layer="21"/>
<rectangle x1="2.58318125" y1="4.02158125" x2="2.83718125" y2="4.10641875" layer="21"/>
<rectangle x1="3.59918125" y1="4.02158125" x2="4.02081875" y2="4.10641875" layer="21"/>
<rectangle x1="4.52881875" y1="4.02158125" x2="4.953" y2="4.10641875" layer="21"/>
<rectangle x1="5.29081875" y1="4.02158125" x2="5.969" y2="4.10641875" layer="21"/>
<rectangle x1="6.30681875" y1="4.02158125" x2="9.94918125" y2="4.10641875" layer="21"/>
<rectangle x1="0.04318125" y1="4.10641875" x2="0.381" y2="4.191" layer="21"/>
<rectangle x1="1.143" y1="4.10641875" x2="1.48081875" y2="4.191" layer="21"/>
<rectangle x1="2.58318125" y1="4.10641875" x2="3.937" y2="4.191" layer="21"/>
<rectangle x1="4.52881875" y1="4.10641875" x2="5.03681875" y2="4.191" layer="21"/>
<rectangle x1="5.461" y1="4.10641875" x2="5.79881875" y2="4.191" layer="21"/>
<rectangle x1="6.223" y1="4.10641875" x2="9.94918125" y2="4.191" layer="21"/>
<rectangle x1="0.127" y1="4.191" x2="0.46481875" y2="4.27558125" layer="21"/>
<rectangle x1="1.143" y1="4.191" x2="1.48081875" y2="4.27558125" layer="21"/>
<rectangle x1="2.58318125" y1="4.191" x2="3.85318125" y2="4.27558125" layer="21"/>
<rectangle x1="4.52881875" y1="4.191" x2="5.12318125" y2="4.27558125" layer="21"/>
<rectangle x1="6.13918125" y1="4.191" x2="9.86281875" y2="4.27558125" layer="21"/>
<rectangle x1="0.127" y1="4.27558125" x2="0.46481875" y2="4.36041875" layer="21"/>
<rectangle x1="1.143" y1="4.27558125" x2="1.48081875" y2="4.36041875" layer="21"/>
<rectangle x1="2.58318125" y1="4.27558125" x2="3.76681875" y2="4.36041875" layer="21"/>
<rectangle x1="4.52881875" y1="4.27558125" x2="5.207" y2="4.36041875" layer="21"/>
<rectangle x1="5.969" y1="4.27558125" x2="9.86281875" y2="4.36041875" layer="21"/>
<rectangle x1="0.21081875" y1="4.36041875" x2="0.46481875" y2="4.445" layer="21"/>
<rectangle x1="1.22681875" y1="4.36041875" x2="1.397" y2="4.445" layer="21"/>
<rectangle x1="2.58318125" y1="4.36041875" x2="3.59918125" y2="4.445" layer="21"/>
<rectangle x1="4.52881875" y1="4.36041875" x2="5.461" y2="4.445" layer="21"/>
<rectangle x1="5.79881875" y1="4.36041875" x2="9.86281875" y2="4.445" layer="21"/>
<rectangle x1="0.21081875" y1="4.445" x2="0.55118125" y2="4.52958125" layer="21"/>
<rectangle x1="4.52881875" y1="4.445" x2="9.779" y2="4.52958125" layer="21"/>
<rectangle x1="0.29718125" y1="4.52958125" x2="0.635" y2="4.61441875" layer="21"/>
<rectangle x1="4.61518125" y1="4.52958125" x2="9.779" y2="4.61441875" layer="21"/>
<rectangle x1="0.29718125" y1="4.61441875" x2="0.635" y2="4.699" layer="21"/>
<rectangle x1="4.61518125" y1="4.61441875" x2="9.69518125" y2="4.699" layer="21"/>
<rectangle x1="0.381" y1="4.699" x2="0.71881875" y2="4.78358125" layer="21"/>
<rectangle x1="4.61518125" y1="4.699" x2="9.60881875" y2="4.78358125" layer="21"/>
<rectangle x1="0.46481875" y1="4.78358125" x2="0.80518125" y2="4.86841875" layer="21"/>
<rectangle x1="4.699" y1="4.78358125" x2="9.60881875" y2="4.86841875" layer="21"/>
<rectangle x1="0.46481875" y1="4.86841875" x2="0.889" y2="4.953" layer="21"/>
<rectangle x1="4.699" y1="4.86841875" x2="9.525" y2="4.953" layer="21"/>
<rectangle x1="0.55118125" y1="4.953" x2="1.05918125" y2="5.03758125" layer="21"/>
<rectangle x1="4.699" y1="4.953" x2="9.44118125" y2="5.03758125" layer="21"/>
<rectangle x1="0.635" y1="5.03758125" x2="1.143" y2="5.12241875" layer="21"/>
<rectangle x1="4.78281875" y1="5.03758125" x2="9.35481875" y2="5.12241875" layer="21"/>
<rectangle x1="0.71881875" y1="5.12241875" x2="1.31318125" y2="5.207" layer="21"/>
<rectangle x1="4.78281875" y1="5.12241875" x2="9.271" y2="5.207" layer="21"/>
<rectangle x1="0.889" y1="5.207" x2="1.56718125" y2="5.29158125" layer="21"/>
<rectangle x1="4.86918125" y1="5.207" x2="9.18718125" y2="5.29158125" layer="21"/>
<rectangle x1="0.97281875" y1="5.29158125" x2="9.017" y2="5.37641875" layer="21"/>
<rectangle x1="1.143" y1="5.37641875" x2="8.84681875" y2="5.461" layer="21"/>
<rectangle x1="1.31318125" y1="5.461" x2="8.67918125" y2="5.54558125" layer="21"/>
<rectangle x1="1.651" y1="5.54558125" x2="8.33881875" y2="5.63041875" layer="21"/>
</package>
</packages>
<packages3d>
<package3d name="UDO-LOGO-10MM" urn="urn:adsk.eagle:package:6649258/2" type="box">
<packageinstances>
<packageinstance name="UDO-LOGO-10MM"/>
</packageinstances>
</package3d>
</packages3d>
</library>
<library name="udo-wago-mcs">
<packages>
<package name="P-733-363" urn="urn:adsk.eagle:footprint:11313145/1">
<wire x1="4.25" y1="5" x2="4.25" y2="-5" width="0.01" layer="51"/>
<wire x1="-2.35" y1="-3.85" x2="4.45" y2="-3.85" width="0.01" layer="51"/>
<wire x1="4.45" y1="2.45" x2="-0.55" y2="2.45" width="0.01" layer="51"/>
<wire x1="-0.55" y1="2.45" x2="-0.55" y2="3.85" width="0.01" layer="51"/>
<wire x1="4.45" y1="-2.55" x2="-0.55" y2="-2.55" width="0.01" layer="51"/>
<wire x1="-0.55" y1="-1.15" x2="4.45" y2="-1.15" width="0.01" layer="51"/>
<wire x1="-0.55" y1="-2.55" x2="-0.55" y2="-1.15" width="0.01" layer="51"/>
<wire x1="4.45" y1="3.85" x2="-2.35" y2="3.85" width="0.01" layer="51"/>
<wire x1="4.45" y1="5" x2="4.45" y2="-5" width="0.2" layer="21"/>
<wire x1="-2.35" y1="-4.15" x2="-2.35" y2="4.15" width="0.01" layer="51"/>
<wire x1="4.45" y1="-4.15" x2="2.45" y2="-4.15" width="0.01" layer="51"/>
<wire x1="-4.25" y1="5" x2="-4.25" y2="3.5" width="0.01" layer="51"/>
<wire x1="3.65" y1="3.5" x2="3.65" y2="1.5" width="0.01" layer="51"/>
<wire x1="3.65" y1="1.5" x2="-0.95" y2="1.5" width="0.01" layer="51"/>
<wire x1="-0.95" y1="1.5" x2="-1.25" y2="1.5" width="0.01" layer="51"/>
<wire x1="-1.25" y1="1.5" x2="-4.25" y2="1.5" width="0.01" layer="51"/>
<wire x1="-4.25" y1="1.5" x2="-4.45" y2="1.5" width="0.01" layer="51"/>
<wire x1="-4.45" y1="3.5" x2="-1.25" y2="3.5" width="0.01" layer="51"/>
<wire x1="-1.25" y1="3.5" x2="-0.95" y2="3.5" width="0.01" layer="51"/>
<wire x1="-0.95" y1="3.5" x2="3.65" y2="3.5" width="0.01" layer="51"/>
<wire x1="-4.25" y1="-3.5" x2="-4.25" y2="-5" width="0.01" layer="51"/>
<wire x1="-4.45" y1="-5" x2="4.45" y2="-5" width="0.2" layer="21"/>
<wire x1="-4.25" y1="-1" x2="-4.25" y2="-1.5" width="0.01" layer="51"/>
<wire x1="3.65" y1="-1.5" x2="3.65" y2="-3.5" width="0.01" layer="51"/>
<wire x1="-4.45" y1="-1.5" x2="-1.25" y2="-1.5" width="0.01" layer="51"/>
<wire x1="-1.25" y1="-1.5" x2="-0.95" y2="-1.5" width="0.01" layer="51"/>
<wire x1="-0.95" y1="-1.5" x2="3.65" y2="-1.5" width="0.01" layer="51"/>
<wire x1="3.65" y1="-3.5" x2="-0.95" y2="-3.5" width="0.01" layer="51"/>
<wire x1="-0.95" y1="-3.5" x2="-1.25" y2="-3.5" width="0.01" layer="51"/>
<wire x1="-1.25" y1="-3.5" x2="-4.45" y2="-3.5" width="0.01" layer="51"/>
<wire x1="-4.25" y1="1.5" x2="-4.25" y2="1" width="0.01" layer="51"/>
<wire x1="3.65" y1="1" x2="3.65" y2="0.45" width="0.01" layer="51"/>
<wire x1="3.65" y1="0.45" x2="3.65" y2="-0.45" width="0.01" layer="51"/>
<wire x1="3.65" y1="-0.45" x2="3.65" y2="-1" width="0.01" layer="51"/>
<wire x1="3.65" y1="-1" x2="-1.25" y2="-1" width="0.01" layer="51"/>
<wire x1="-1.25" y1="-1" x2="-4.45" y2="-1" width="0.01" layer="51"/>
<wire x1="-4.45" y1="1" x2="-1.25" y2="1" width="0.01" layer="51"/>
<wire x1="-1.25" y1="1" x2="3.65" y2="1" width="0.01" layer="51"/>
<wire x1="-4.45" y1="2.95" x2="-0.95" y2="2.95" width="0.01" layer="51"/>
<wire x1="-4.45" y1="2.05" x2="-0.95" y2="2.05" width="0.01" layer="51"/>
<wire x1="-4.45" y1="-2.05" x2="-0.95" y2="-2.05" width="0.01" layer="51"/>
<wire x1="-4.45" y1="-2.95" x2="-0.95" y2="-2.95" width="0.01" layer="51"/>
<wire x1="-0.95" y1="-3.5" x2="-0.95" y2="-1.5" width="0.01" layer="51"/>
<wire x1="-0.95" y1="1.5" x2="-0.95" y2="3.5" width="0.01" layer="51"/>
<wire x1="-4.45" y1="0.45" x2="3.65" y2="0.45" width="0.01" layer="51"/>
<wire x1="-4.45" y1="-0.45" x2="3.65" y2="-0.45" width="0.01" layer="51"/>
<wire x1="4.45" y1="4.15" x2="2.45" y2="4.15" width="0.01" layer="51"/>
<wire x1="4.45" y1="5" x2="-4.45" y2="5" width="0.2" layer="21"/>
<wire x1="2.45" y1="5" x2="2.45" y2="4.5" width="0.01" layer="51"/>
<wire x1="2.45" y1="4.5" x2="2.45" y2="4.15" width="0.01" layer="51"/>
<wire x1="-4.45" y1="4.15" x2="-2.35" y2="4.15" width="0.01" layer="51"/>
<wire x1="-4.45" y1="4.5" x2="2.45" y2="4.5" width="0.01" layer="51"/>
<wire x1="-4.45" y1="-1.5" x2="-4.45" y2="-3.5" width="0.01" layer="51"/>
<wire x1="-4.45" y1="1" x2="-4.45" y2="-1" width="0.01" layer="51"/>
<wire x1="-4.45" y1="3.5" x2="-4.45" y2="1.5" width="0.01" layer="51"/>
<wire x1="-4.45" y1="5" x2="-4.45" y2="-4.15" width="0.01" layer="51"/>
<wire x1="-4.45" y1="-4.15" x2="-4.45" y2="-4.5" width="0.01" layer="51"/>
<wire x1="-4.45" y1="-4.5" x2="-4.45" y2="-5" width="0.01" layer="51"/>
<wire x1="2.45" y1="-4.15" x2="2.45" y2="-4.5" width="0.01" layer="51"/>
<wire x1="2.45" y1="-4.5" x2="2.45" y2="-5" width="0.01" layer="51"/>
<wire x1="-4.45" y1="-4.5" x2="2.45" y2="-4.5" width="0.01" layer="51"/>
<wire x1="-4.45" y1="-4.15" x2="-2.35" y2="-4.15" width="0.01" layer="51"/>
<wire x1="-1.25" y1="3.5" x2="-1.25" y2="2.9" width="0.01" layer="51"/>
<wire x1="-1.25" y1="2.9" x2="-1.25" y2="2.1" width="0.01" layer="51"/>
<wire x1="-1.25" y1="2.1" x2="-1.25" y2="1.5" width="0.01" layer="51"/>
<wire x1="-1.25" y1="-1.5" x2="-1.25" y2="-2.1" width="0.01" layer="51"/>
<wire x1="-1.25" y1="-2.1" x2="-1.25" y2="-2.9" width="0.01" layer="51"/>
<wire x1="-1.25" y1="-2.9" x2="-1.25" y2="-3.5" width="0.01" layer="51"/>
<wire x1="-1.25" y1="1" x2="-1.25" y2="0.4" width="0.01" layer="51"/>
<wire x1="-1.25" y1="0.4" x2="-1.25" y2="-0.4" width="0.01" layer="51"/>
<wire x1="-1.25" y1="-0.4" x2="-1.25" y2="-1" width="0.01" layer="51"/>
<wire x1="3.45" y1="2.9" x2="3.45" y2="2.1" width="0.01" layer="51"/>
<wire x1="-1.25" y1="2.9" x2="3.45" y2="2.9" width="0.01" layer="51"/>
<wire x1="-1.25" y1="2.1" x2="3.45" y2="2.1" width="0.01" layer="51"/>
<wire x1="3.45" y1="-2.1" x2="3.45" y2="-2.9" width="0.01" layer="51"/>
<wire x1="-1.25" y1="-2.1" x2="3.45" y2="-2.1" width="0.01" layer="51"/>
<wire x1="-1.25" y1="-2.9" x2="3.45" y2="-2.9" width="0.01" layer="51"/>
<wire x1="3.45" y1="0.4" x2="3.45" y2="-0.4" width="0.01" layer="51"/>
<wire x1="-1.25" y1="0.4" x2="3.45" y2="0.4" width="0.01" layer="51"/>
<wire x1="-1.25" y1="-0.4" x2="3.45" y2="-0.4" width="0.01" layer="51"/>
<wire x1="-4.05" y1="2.9" x2="-4.05" y2="2.1" width="0.01" layer="51"/>
<wire x1="-3.25" y1="2.9" x2="-4.05" y2="2.9" width="0.01" layer="51"/>
<wire x1="-3.25" y1="2.1" x2="-4.05" y2="2.1" width="0.01" layer="51"/>
<wire x1="-3.25" y1="2.1" x2="-3.25" y2="2.9" width="0.01" layer="51"/>
<wire x1="-4.05" y1="-2.1" x2="-4.05" y2="-2.9" width="0.01" layer="51"/>
<wire x1="-3.25" y1="-2.1" x2="-4.05" y2="-2.1" width="0.01" layer="51"/>
<wire x1="-3.25" y1="-2.9" x2="-4.05" y2="-2.9" width="0.01" layer="51"/>
<wire x1="-3.25" y1="-2.9" x2="-3.25" y2="-2.1" width="0.01" layer="51"/>
<wire x1="-4.05" y1="0.4" x2="-4.05" y2="-0.4" width="0.01" layer="51"/>
<wire x1="-3.25" y1="0.4" x2="-4.05" y2="0.4" width="0.01" layer="51"/>
<wire x1="-3.25" y1="-0.4" x2="-4.05" y2="-0.4" width="0.01" layer="51"/>
<wire x1="-3.25" y1="-0.4" x2="-3.25" y2="0.4" width="0.01" layer="51"/>
<wire x1="-4.45" y1="-4.99" x2="-4.45" y2="-3.52" width="0.2" layer="21"/>
<wire x1="-4.45" y1="-1.49" x2="-4.45" y2="-1.02" width="0.2" layer="21"/>
<wire x1="-4.45" y1="1.02" x2="-4.45" y2="1.47" width="0.2" layer="21"/>
<wire x1="-4.45" y1="4.99" x2="-4.45" y2="3.52" width="0.2" layer="21"/>
<pad name="L3" x="-3.65" y="2.5" drill="1.1" diameter="1.6" shape="long"/>
<pad name="L2" x="-3.65" y="0" drill="1.1" diameter="1.6" shape="long"/>
<pad name="L1" x="-3.65" y="-2.5" drill="1.1" diameter="1.6" shape="long"/>
<text x="-3.95" y="5.5" size="1" layer="25" font="vector" ratio="10">&gt;NAME</text>
<text x="-5.38" y="-3.85" size="1" layer="51" font="vector" ratio="10" rot="R90">1</text>
<text x="-3.95" y="-6.6" size="1" layer="27" font="vector" ratio="10">&gt;VALUE</text>
</package>
</packages>
<packages3d>
<package3d name="P-733-363" urn="urn:adsk.eagle:package:11313146/2" type="model">
<packageinstances>
<packageinstance name="P-733-363"/>
</packageinstances>
</package3d>
</packages3d>
</library>
<library name="blebox-dummy">
<packages>
<package name="EXTRA-BOM-LINE">
<text x="0" y="0" size="1.778" layer="48">&gt;NAME</text>
<text x="0" y="-2.54" size="1.778" layer="48">&gt;VALUE</text>
<circle x="-2.54" y="0" radius="2.300065625" width="0.127" layer="48"/>
<wire x1="-4.064" y1="0" x2="-1.016" y2="0" width="0.127" layer="48"/>
<wire x1="-2.54" y1="1.524" x2="-2.54" y2="-1.27" width="0.127" layer="48"/>
</package>
</packages>
</library>
</libraries>
<attributes>
</attributes>
<variantdefs>
</variantdefs>
<classes>
<class number="0" name="default" width="0" drill="0">
</class>
</classes>
<designrules name="pcbway">
<description language="en">&lt;b&gt;PCBWay&lt;/b&gt;

&lt;p&gt;Based on &lt;a href='http://www.pcbway.com/capabilities.html'&gt;http://www.pcbway.com/capabilities.html&lt;/a&gt;. Rougly accurate.&lt;/p&gt;</description>
<param name="layerSetup" value="(1*16)"/>
<param name="mtCopper" value="0.035mm 0.035mm 0.035mm 0.035mm 0.035mm 0.035mm 0.035mm 0.035mm 0.035mm 0.035mm 0.035mm 0.035mm 0.035mm 0.035mm 0.035mm 0.035mm"/>
<param name="mtIsolate" value="1.5mm 0.15mm 0.2mm 0.15mm 0.2mm 0.15mm 0.2mm 0.15mm 0.2mm 0.15mm 0.2mm 0.15mm 0.2mm 0.15mm 0.2mm"/>
<param name="mdWireWire" value="6mil"/>
<param name="mdWirePad" value="6mil"/>
<param name="mdWireVia" value="6mil"/>
<param name="mdPadPad" value="6mil"/>
<param name="mdPadVia" value="6mil"/>
<param name="mdViaVia" value="6mil"/>
<param name="mdSmdPad" value="6mil"/>
<param name="mdSmdVia" value="0mil"/>
<param name="mdSmdSmd" value="6mil"/>
<param name="mdViaViaSameLayer" value="8mil"/>
<param name="mnLayersViaInSmd" value="2"/>
<param name="mdCopperDimension" value="0.001mm"/>
<param name="mdDrill" value="8mil"/>
<param name="mdSmdStop" value="0mil"/>
<param name="msWidth" value="6mil"/>
<param name="msDrill" value="0.3mm"/>
<param name="msMicroVia" value="9.99mm"/>
<param name="msBlindViaRatio" value="0.5"/>
<param name="rvPadTop" value="0.25"/>
<param name="rvPadInner" value="0.25"/>
<param name="rvPadBottom" value="0.25"/>
<param name="rvViaOuter" value="0.4"/>
<param name="rvViaInner" value="0.25"/>
<param name="rvMicroViaOuter" value="0.25"/>
<param name="rvMicroViaInner" value="0.25"/>
<param name="rlMinPadTop" value="6mil"/>
<param name="rlMaxPadTop" value="20mil"/>
<param name="rlMinPadInner" value="6mil"/>
<param name="rlMaxPadInner" value="20mil"/>
<param name="rlMinPadBottom" value="6mil"/>
<param name="rlMaxPadBottom" value="20mil"/>
<param name="rlMinViaOuter" value="6mil"/>
<param name="rlMaxViaOuter" value="20mil"/>
<param name="rlMinViaInner" value="6mil"/>
<param name="rlMaxViaInner" value="20mil"/>
<param name="rlMinMicroViaOuter" value="4mil"/>
<param name="rlMaxMicroViaOuter" value="20mil"/>
<param name="rlMinMicroViaInner" value="4mil"/>
<param name="rlMaxMicroViaInner" value="20mil"/>
<param name="psTop" value="-1"/>
<param name="psBottom" value="-1"/>
<param name="psFirst" value="-1"/>
<param name="psElongationLong" value="100"/>
<param name="psElongationOffset" value="100"/>
<param name="mvStopFrame" value="0"/>
<param name="mvCreamFrame" value="0"/>
<param name="mlMinStopFrame" value="0mil"/>
<param name="mlMaxStopFrame" value="0mil"/>
<param name="mlMinCreamFrame" value="0mil"/>
<param name="mlMaxCreamFrame" value="0mil"/>
<param name="mlViaStopLimit" value="999mil"/>
<param name="srRoundness" value="0.1"/>
<param name="srMinRoundness" value="5mil"/>
<param name="srMaxRoundness" value="20mil"/>
<param name="slThermalIsolate" value="10mil"/>
<param name="slThermalsForVias" value="0"/>
<param name="dpMaxLengthDifference" value="10mm"/>
<param name="dpGapFactor" value="2.5"/>
<param name="checkAngle" value="0"/>
<param name="checkFont" value="1"/>
<param name="checkRestrict" value="1"/>
<param name="checkStop" value="0"/>
<param name="checkValues" value="0"/>
<param name="checkNames" value="1"/>
<param name="checkWireStubs" value="1"/>
<param name="checkPolygonWidth" value="0"/>
<param name="useDiameter" value="13"/>
<param name="maxErrors" value="50"/>
</designrules>
<autorouter>
<pass name="Default">
<param name="RoutingGrid" value="50mil"/>
<param name="AutoGrid" value="1"/>
<param name="Efforts" value="0"/>
<param name="TopRouterVariant" value="1"/>
<param name="tpViaShape" value="round"/>
<param name="PrefDir.1" value="a"/>
<param name="PrefDir.2" value="0"/>
<param name="PrefDir.3" value="0"/>
<param name="PrefDir.4" value="0"/>
<param name="PrefDir.5" value="0"/>
<param name="PrefDir.6" value="0"/>
<param name="PrefDir.7" value="0"/>
<param name="PrefDir.8" value="0"/>
<param name="PrefDir.9" value="0"/>
<param name="PrefDir.10" value="0"/>
<param name="PrefDir.11" value="0"/>
<param name="PrefDir.12" value="0"/>
<param name="PrefDir.13" value="0"/>
<param name="PrefDir.14" value="0"/>
<param name="PrefDir.15" value="0"/>
<param name="PrefDir.16" value="a"/>
<param name="cfVia" value="8"/>
<param name="cfNonPref" value="5"/>
<param name="cfChangeDir" value="2"/>
<param name="cfOrthStep" value="2"/>
<param name="cfDiagStep" value="3"/>
<param name="cfExtdStep" value="0"/>
<param name="cfBonusStep" value="1"/>
<param name="cfMalusStep" value="1"/>
<param name="cfPadImpact" value="4"/>
<param name="cfSmdImpact" value="4"/>
<param name="cfBusImpact" value="0"/>
<param name="cfHugging" value="3"/>
<param name="cfAvoid" value="4"/>
<param name="cfPolygon" value="10"/>
<param name="cfBase.1" value="0"/>
<param name="cfBase.2" value="1"/>
<param name="cfBase.3" value="1"/>
<param name="cfBase.4" value="1"/>
<param name="cfBase.5" value="1"/>
<param name="cfBase.6" value="1"/>
<param name="cfBase.7" value="1"/>
<param name="cfBase.8" value="1"/>
<param name="cfBase.9" value="1"/>
<param name="cfBase.10" value="1"/>
<param name="cfBase.11" value="1"/>
<param name="cfBase.12" value="1"/>
<param name="cfBase.13" value="1"/>
<param name="cfBase.14" value="1"/>
<param name="cfBase.15" value="1"/>
<param name="cfBase.16" value="0"/>
<param name="mnVias" value="20"/>
<param name="mnSegments" value="9999"/>
<param name="mnExtdSteps" value="9999"/>
<param name="mnRipupLevel" value="10"/>
<param name="mnRipupSteps" value="100"/>
<param name="mnRipupTotal" value="100"/>
</pass>
<pass name="Follow-me" refer="Default" active="yes">
</pass>
<pass name="Busses" refer="Default" active="yes">
<param name="cfNonPref" value="4"/>
<param name="cfBusImpact" value="4"/>
<param name="cfHugging" value="0"/>
<param name="mnVias" value="0"/>
</pass>
<pass name="Route" refer="Default" active="yes">
</pass>
<pass name="Optimize1" refer="Default" active="yes">
<param name="cfVia" value="99"/>
<param name="cfExtdStep" value="10"/>
<param name="cfHugging" value="1"/>
<param name="mnExtdSteps" value="1"/>
<param name="mnRipupLevel" value="0"/>
</pass>
<pass name="Optimize2" refer="Optimize1" active="yes">
<param name="cfNonPref" value="0"/>
<param name="cfChangeDir" value="6"/>
<param name="cfExtdStep" value="0"/>
<param name="cfBonusStep" value="2"/>
<param name="cfMalusStep" value="2"/>
<param name="cfPadImpact" value="2"/>
<param name="cfSmdImpact" value="2"/>
<param name="cfHugging" value="0"/>
</pass>
<pass name="Optimize3" refer="Optimize2" active="yes">
<param name="cfChangeDir" value="8"/>
<param name="cfPadImpact" value="0"/>
<param name="cfSmdImpact" value="0"/>
</pass>
<pass name="Optimize4" refer="Optimize3" active="yes">
<param name="cfChangeDir" value="25"/>
</pass>
</autorouter>
<elements>
<element name="LOGO1" library="udo-logo" package="UDO-LOGO-10MM" package3d_urn="urn:adsk.eagle:package:6649258/2" value="" x="9.39" y="2.87" smashed="yes"/>
<element name="X2" library="blebox-dummy" package="EXTRA-BOM-LINE" value="733-103" x="-30" y="9" smashed="yes">
<attribute name="DESCRIPTION" value="MCS-MICRO socket, 3-way" x="-46.25" y="32" size="1" layer="27" font="vector" ratio="20" display="off"/>
<attribute name="MF" value="WAGO" x="-46.25" y="32" size="1" layer="27" font="vector" ratio="20" display="off"/>
<attribute name="MPN" value="733-103" x="-46.25" y="32" size="1" layer="27" font="vector" ratio="20" display="off"/>
<attribute name="NAME" x="-30" y="9" size="1.778" layer="48"/>
<attribute name="VALUE" x="-30" y="6.46" size="1.778" layer="48"/>
</element>
<element name="CN3" library="udo-wago-mcs" package="P-733-363" package3d_urn="urn:adsk.eagle:package:11313146/2" value="733-363" x="4.5" y="13" smashed="yes" rot="MR0">
<attribute name="DESCRIPTION" value="Series 733, Male header (for PCBs) Angled solder pin 0.8 x 0.8 mm" x="4.5" y="13" size="1" layer="28" font="vector" ratio="20" rot="MR0" display="off"/>
<attribute name="MF" value="WAGO" x="4.5" y="13" size="1" layer="28" font="vector" ratio="20" rot="MR0" display="off"/>
<attribute name="MPN" value="733-363" x="4.5" y="13" size="1" layer="28" font="vector" ratio="20" rot="MR0" display="off"/>
<attribute name="VALUE" x="8.45" y="6.4" size="1" layer="28" font="vector" ratio="10" rot="MR0"/>
</element>
<element name="CN1" library="udo-wago-mcs" package="P-733-363" package3d_urn="urn:adsk.eagle:package:11313146/2" value="733-363" x="24.5" y="13" smashed="yes" rot="MR180">
<attribute name="DESCRIPTION" value="Series 733, Male header (for PCBs) Angled solder pin 0.8 x 0.8 mm" x="24.5" y="13" size="1" layer="28" font="vector" ratio="20" rot="MR180" display="off"/>
<attribute name="MF" value="WAGO" x="24.5" y="13" size="1" layer="28" font="vector" ratio="20" rot="MR180" display="off"/>
<attribute name="MPN" value="733-363" x="24.5" y="13" size="1" layer="28" font="vector" ratio="20" rot="MR180" display="off"/>
<attribute name="VALUE" x="20.55" y="19.6" size="1" layer="28" font="vector" ratio="10" rot="MR180"/>
</element>
<element name="X1" library="blebox-dummy" package="EXTRA-BOM-LINE" value="733-103" x="-30" y="3" smashed="yes">
<attribute name="DESCRIPTION" value="MCS-MICRO socket, 3-way" x="-30" y="3" size="1" layer="27" font="vector" ratio="20" display="off"/>
<attribute name="MF" value="WAGO" x="-30" y="3" size="1" layer="27" font="vector" ratio="20" display="off"/>
<attribute name="MPN" value="733-103" x="-30" y="3" size="1" layer="27" font="vector" ratio="20" display="off"/>
<attribute name="NAME" x="-30" y="3" size="1.778" layer="48"/>
<attribute name="VALUE" x="-30" y="0.46" size="1.778" layer="48"/>
</element>
</elements>
<signals>
<signal name="DGND">
<contactref element="CN3" pad="L1"/>
<contactref element="CN1" pad="L3"/>
<wire x1="8.15" y1="10.5" x2="20.85" y2="10.5" width="0.6096" layer="1"/>
</signal>
<signal name="VDD">
<contactref element="CN3" pad="L3"/>
<contactref element="CN1" pad="L1"/>
<wire x1="8.15" y1="15.5" x2="20.85" y2="15.5" width="0.6096" layer="1"/>
</signal>
<signal name="SIG_IN_CASSETTE_PRESENT">
<contactref element="CN3" pad="L2"/>
<contactref element="CN1" pad="L2"/>
<wire x1="20.85" y1="13" x2="8.15" y2="13" width="0.6096" layer="1"/>
</signal>
</signals>
<mfgpreviewcolors>
<mfgpreviewcolor name="soldermaskcolor" color="0xC8FFFFFF"/>
<mfgpreviewcolor name="silkscreencolor" color="0xFF000000"/>
<mfgpreviewcolor name="backgroundcolor" color="0xFF282828"/>
<mfgpreviewcolor name="coppercolor" color="0xFF808080"/>
<mfgpreviewcolor name="substratecolor" color="0xFF786E46"/>
</mfgpreviewcolors>
</board>
</drawing>
<compatibility>
<note version="6.3" minversion="6.2.2" severity="warning">
Since Version 6.2.2 text objects can contain more than one line,
which will not be processed correctly with this version.
</note>
<note version="8.3" severity="warning">
Since Version 8.3, EAGLE supports Fusion synchronisation.
This feature will not be available in this version and saving
the document will break the link to the Fusion PCB feature.
</note>
<note version="8.3" severity="warning">
Since Version 8.3, EAGLE supports URNs for individual library
assets (packages, symbols, and devices). The URNs of those assets
will not be understood (or retained) with this version.
</note>
<note version="8.3" severity="warning">
Since Version 8.3, EAGLE supports the association of 3D packages
with devices in libraries, schematics, and board files. Those 3D
packages will not be understood (or retained) with this version.
</note>
</compatibility>
</eagle>
