"Qty";"Value";"Package";"Parts";"DESCRIPTION";"MF";"MPN";"SPICEPREFIX";
"12";"009175002701196";"0091750027";"CN2, CN3, CN4, CN5, CN6, CN7, CN8, CN9, CN10, CN11, CN12, CN13";"IDC connector, 2-way, AWG 28, wire stop";"AVX";"009175002701196";"";
"1";"AWP-20P";"3M_20";"CN1";"IDC socket, 2x10, straight, with latch";"CONNFLY";"DS1011-20SBSIB7";"";
