"Qty";"Value";"Package";"Parts";"DESCRIPTION";"MF";"MPN";"OC_TME";
"1";"009175002702996";"0091750027";"X1";"IDC connector, 2-way, AWG 26, wire stop";"AVX";"009175002702996";"";
"1";"DS1034-15MUNSISS";"M15V";"CN1";"";"CONNFLY";"DS1034-15MUNSISS";"DS15P";
