"Qty";"Value";"Package";"Parts";"DESCRIPTION";"MF";"MPN";
"7";"009175003702996";"0091750037";"X7, X8, X9, X10, X11, X12, X13";"IDC connector, 3-way, AWG 26, wire stop";"AVX";"009175003702996";
"3";"009176002032006";"0091760020";"X3, X4, X5";"IDC connector, 2-way, AWG 24";"AVX";"009176002032006";
"3";"609176002016099";"EXTRA-BOM-LINE";"X2, X6, X28";"9176 cap, 2-way, wire stop, AWG 24-22";"AVX";"609176002016099";
"3";"APAN3124";"EXTRA-BOM-LINE";"X1, X17, X18";"Form A relay, 24V, 5A";"PANASONIC";"APAN3124";
"1";"AWP-20K";"3M_20L";"CN1";"";"CONNFLY";"DS1011-20RBSIB7";
"3";"PA1A-PS";"PA1A-PS-VERTICAL";"REL1, REL2, REL3";"Relay socket";"PANASONIC";"PA1A-PS";
"6";"S1B";"DO214AC";"D1, D2, D3, D4, D5, D6";"Diode, generic, 1A/100V";"";"";
